"","PERFORMANCE","groups"
"GLYPHxGLYPH",1,"a"
"TERBUxGLYPH",0.99890072049163,"a"
"SULFOxGLYPH",0.998900644809736,"a"
"SULFOxSULFO",0.937801608579088,"b"
"TERBUxTERBU",0.908185059053692,"c"
"TERBUxSULFO",0.901608579088472,"d"
"TERBUxTRIFL",0.889247756017952,"e"
"GLYPHxTERBU",0.885767625534382,"e"
"SULFOxTERBU",0.875506919788421,"f"
"SULFOxTRIFL",0.873175744594043,"f"
"GLYPHxSULFO",0.866487935656836,"g"
"GLYPHxTRIFL",0.231442948456412,"h"
