"","HERBI","p.value","max","sig"
"1","GLYPH",3.91060678290125e-64,0.840287885979856,"***"
"2","SULFO",2.52104778889364e-86,0.882610394585856,"***"
"3","TERBU",1.09827130965669e-27,0.87458370438869,"***"
"4","TRIFL",3.49279909923805e-18,1,"***"
