HERBI,DAY,TRAY,CELL,REP,AREA,BLUE,GREEN,RED,GREEN_INDEX,GREEN_FRACTION,AUC_BLUE,AUC_GREEN,AUC_RED,THRESH_GREEN1,THRESH_GREEN2,THRESH_RED1,THRESH_RED2,MEDIAN_BLUE,MEDIAN_GREEN,MEDIAN_RED
CONTR,DAY14,TRAY01,1A,REP1,2719132,40.0848,89.9074,71.9731,0.6457,0.4452,0.3085,0.3030,0.2926,0.2957,0.4297,1.0000,inf,35.0000,90.0000,70.0000
CONTR,DAY14,TRAY01,1A,REP2,3070557,36.8069,87.7432,69.4027,0.6524,0.4524,0.3476,0.2478,0.3154,0.2368,0.3162,1.0000,inf,30.0000,86.0000,66.0000
CONTR,DAY14,TRAY01,1A,REP3,3073970,41.3798,88.1372,70.5373,0.6470,0.4406,0.3081,0.3024,0.2485,0.2917,0.4201,1.0000,inf,35.0000,87.0000,68.0000
CONTR,DAY14,TRAY01,1A,REP4,2421026,41.6117,88.5074,70.7232,0.6467,0.4407,0.3049,0.2947,0.2565,0.2805,0.3975,1.0000,inf,34.0000,87.0000,67.0000
CONTR,DAY14,TRAY01,1B,REP1,2155678,31.9217,97.3238,78.1196,0.6418,0.4693,0.3971,0.4250,0.3978,0.3943,0.6787,1.0000,inf,25.0000,97.0000,77.0000
CONTR,DAY14,TRAY01,1B,REP2,2688739,32.5256,97.4051,78.0271,0.6417,0.4684,0.3960,0.4775,0.3459,0.4674,0.9244,1.0000,inf,26.0000,99.0000,78.0000
CONTR,DAY14,TRAY01,1B,REP3,1822449,37.5189,100.1866,81.8791,0.6316,0.4563,0.3276,0.5283,0.3401,0.5157,1.1223,1.0000,inf,32.0000,101.0000,81.0000
CONTR,DAY14,TRAY01,1B,REP4,3550030,39.3208,99.9788,82.6008,0.6288,0.4506,0.3078,0.5351,0.3057,0.5203,1.1424,1.0000,inf,36.0000,101.0000,83.0000
CONTR,DAY14,TRAY01,1C,REP1,7265702,36.9064,92.6269,74.2091,0.6444,0.4546,0.3463,0.3483,0.3229,0.3262,0.4986,1.0000,inf,31.0000,93.0000,73.0000
CONTR,DAY14,TRAY01,1C,REP2,5615506,36.8743,93.4625,74.7825,0.6437,0.4556,0.3356,0.3619,0.3303,0.3465,0.5480,1.0000,inf,31.0000,94.0000,74.0000
CONTR,DAY14,TRAY01,1C,REP3,5594439,36.1018,92.5391,73.5388,0.6465,0.4577,0.3524,0.3536,0.3200,0.3339,0.5157,1.0000,inf,30.0000,93.0000,72.0000
CONTR,DAY14,TRAY01,1C,REP4,4419442,33.2032,92.6947,72.4322,0.6510,0.4674,0.3909,0.3281,0.3637,0.3024,0.4575,1.0000,inf,26.0000,92.0000,70.0000
CONTR,DAY14,TRAY01,1D,REP1,7641827,29.1204,85.2896,66.8791,0.6618,0.4705,0.4414,0.2242,0.2972,0.2062,0.2642,1.0000,2656743.0000,20.0000,85.0000,64.0000
CONTR,DAY14,TRAY01,1D,REP2,8393662,37.1975,88.0626,71.2367,0.6480,0.4482,0.3470,0.2808,0.2803,0.2686,0.3753,1.0000,inf,30.0000,88.0000,69.0000
CONTR,DAY14,TRAY01,1D,REP3,6642044,35.9591,89.1962,71.0050,0.6502,0.4547,0.3676,0.2955,0.3008,0.2889,0.4153,1.0000,inf,27.0000,89.0000,69.0000
CONTR,DAY14,TRAY01,1D,REP4,6110768,37.6821,91.0719,73.3226,0.6449,0.4507,0.3438,0.3338,0.3123,0.3296,0.5042,1.0000,inf,30.0000,92.0000,70.0000
CONTR,DAY14,TRAY01,1E,REP1,805540,39.0795,90.8868,74.7488,0.6406,0.4440,0.3322,0.3132,0.3167,0.2891,0.4267,1.0000,inf,32.0000,90.0000,73.0000
CONTR,DAY14,TRAY01,1E,REP2,761389,38.9094,89.4335,72.3435,0.6452,0.4456,0.3176,0.3004,0.3097,0.2810,0.3995,1.0000,inf,33.0000,89.0000,71.0000
CONTR,DAY14,TRAY01,1E,REP3,710287,41.6606,94.0568,77.5166,0.6347,0.4411,0.2784,0.4038,0.2720,0.3960,0.6772,1.0000,inf,37.0000,96.0000,79.0000
CONTR,DAY14,TRAY01,1E,REP4,412524,41.2894,95.6725,79.0077,0.6327,0.4430,0.2855,0.4391,0.2413,0.4486,0.8407,1.0000,inf,37.0000,97.0000,82.0000
CONTR,DAY14,TRAY01,1F,REP1,4144325,35.5358,97.5439,80.0163,0.6354,0.4577,0.3536,0.4733,0.3236,0.4505,0.8993,1.0000,inf,30.0000,99.0000,81.0000
CONTR,DAY14,TRAY01,1F,REP2,3513000,36.5717,96.9719,79.2324,0.6361,0.4557,0.3397,0.4526,0.3246,0.4405,0.8194,1.0000,inf,31.0000,98.0000,80.0000
CONTR,DAY14,TRAY01,1F,REP3,3790897,38.4055,96.2947,78.6456,0.6358,0.4514,0.3283,0.4387,0.3188,0.4264,0.7700,1.0000,inf,33.0000,97.0000,79.0000
CONTR,DAY14,TRAY01,1F,REP4,3779055,40.8091,97.1228,80.5867,0.6304,0.4445,0.2949,0.4548,0.3174,0.4397,0.8178,1.0000,inf,38.0000,98.0000,81.0000
CONTR,DAY14,TRAY01,2A,REP1,5562933,35.4163,85.4027,68.5006,0.6537,0.4511,0.3618,0.2367,0.2706,0.2188,0.2894,1.0000,inf,28.0000,84.0000,65.0000
CONTR,DAY14,TRAY01,2A,REP2,4553028,36.7029,86.7137,68.9077,0.6529,0.4509,0.3543,0.2419,0.2908,0.2353,0.3131,1.0000,inf,29.0000,85.0000,65.0000
CONTR,DAY14,TRAY01,2A,REP3,3429893,39.1894,87.7926,71.1003,0.6468,0.4432,0.3307,0.2962,0.2609,0.2910,0.4187,1.0000,inf,32.0000,87.0000,69.0000
CONTR,DAY14,TRAY01,2A,REP4,3137053,38.6724,85.9457,68.4656,0.6521,0.4451,0.3399,0.2724,0.2455,0.2725,0.3815,1.0000,inf,31.0000,85.0000,65.0000
CONTR,DAY14,TRAY01,2B,REP1,7048965,29.5557,92.7340,73.6974,0.6505,0.4732,0.4426,0.3118,0.3968,0.2846,0.4090,1.0000,inf,20.0000,92.0000,71.0000
CONTR,DAY14,TRAY01,2B,REP2,4961285,40.9365,97.2780,79.2043,0.6335,0.4474,0.2923,0.4522,0.3357,0.4312,0.7931,1.0000,inf,37.0000,98.0000,79.0000
CONTR,DAY14,TRAY01,2B,REP3,6097419,33.7972,96.3994,77.8254,0.6407,0.4634,0.3818,0.4375,0.3518,0.4182,0.7462,1.0000,inf,26.0000,98.0000,77.0000
CONTR,DAY14,TRAY01,2B,REP4,4777847,42.0062,97.9712,80.2284,0.6310,0.4449,0.2928,0.4805,0.3141,0.4638,0.8996,1.0000,inf,38.0000,99.0000,81.0000
CONTR,DAY14,TRAY01,2C,REP1,742885,37.7554,100.3068,86.7973,0.6211,0.4461,0.3050,0.5303,0.2857,0.5118,1.1292,1.0000,inf,35.0000,101.0000,87.0000
CONTR,DAY14,TRAY01,2C,REP2,400826,35.4731,93.4429,77.2302,0.6390,0.4533,0.3532,0.3600,0.2948,0.3332,0.5168,1.0000,inf,30.0000,94.0000,78.0000
CONTR,DAY14,TRAY01,2C,REP3,529031,40.7367,96.8875,82.1565,0.6269,0.4408,0.3018,0.4401,0.2691,0.4212,0.7852,1.0000,inf,36.0000,98.0000,84.0000
CONTR,DAY14,TRAY01,2C,REP4,489551,41.7482,98.7987,83.4633,0.6246,0.4410,0.2899,0.4956,0.2598,0.4858,0.9900,1.0000,inf,37.0000,100.0000,85.0000
CONTR,DAY14,TRAY01,2D,REP1,4618828,34.8043,93.7918,77.2751,0.6396,0.4556,0.3578,0.3683,0.3355,0.3578,0.5752,1.0000,inf,29.0000,94.0000,76.0000
CONTR,DAY14,TRAY01,2D,REP2,1856636,45.2257,96.8097,80.4815,0.6276,0.4351,0.2444,0.4781,0.2736,0.4669,0.9105,1.0000,inf,43.0000,99.0000,82.0000
CONTR,DAY14,TRAY01,2D,REP3,2874240,41.0092,95.0820,79.0486,0.6324,0.4420,0.3006,0.4248,0.2797,0.4142,0.7326,1.0000,inf,36.0000,96.0000,81.0000
CONTR,DAY14,TRAY01,2D,REP4,2230129,41.7734,96.2797,79.4661,0.6317,0.4426,0.2810,0.4483,0.2838,0.4357,0.8034,1.0000,inf,38.0000,98.0000,81.0000
CONTR,DAY14,TRAY01,2E,REP1,6490007,31.8193,96.2022,76.9015,0.6439,0.4695,0.4056,0.4136,0.3883,0.4038,0.7045,1.0000,inf,25.0000,96.0000,76.0000
CONTR,DAY14,TRAY01,2E,REP2,5255025,39.9562,96.8421,78.3189,0.6358,0.4502,0.3191,0.4556,0.3090,0.4478,0.8423,1.0000,inf,33.0000,98.0000,78.0000
CONTR,DAY14,TRAY01,2E,REP3,5145474,42.3392,97.2327,80.2131,0.6303,0.4424,0.2900,0.4714,0.2986,0.4686,0.9194,1.0000,inf,38.0000,99.0000,81.0000
CONTR,DAY14,TRAY01,2E,REP4,2418839,41.5183,97.9625,79.2800,0.6334,0.4478,0.2890,0.4661,0.3325,0.4590,0.8813,1.0000,inf,37.0000,98.0000,78.0000
CONTR,DAY14,TRAY01,2F,REP1,1605801,36.3875,95.7526,80.2464,0.6332,0.4508,0.3385,0.4241,0.3247,0.4014,0.6955,1.0000,inf,31.0000,97.0000,81.0000
CONTR,DAY14,TRAY01,2F,REP2,1885600,39.3830,95.3612,79.8051,0.6320,0.4445,0.3124,0.4224,0.2963,0.4174,0.7440,1.0000,inf,35.0000,97.0000,81.0000
CONTR,DAY14,TRAY01,2F,REP3,1828381,36.7391,95.3534,79.3861,0.6346,0.4509,0.3343,0.4240,0.3008,0.4064,0.7335,1.0000,inf,31.0000,97.0000,80.0000
CONTR,DAY14,TRAY01,2F,REP4,755306,37.1599,96.3540,79.9789,0.6337,0.4513,0.3293,0.4535,0.2855,0.4534,0.8618,1.0000,inf,32.0000,98.0000,82.0000
CONTR,DAY14,TRAY01,3A,REP1,5183338,34.7286,96.1728,77.9439,0.6397,0.4605,0.3707,0.4108,0.3913,0.3905,0.6663,1.0000,inf,28.0000,96.0000,76.0000
CONTR,DAY14,TRAY01,3A,REP2,3853428,35.9662,95.6493,76.8588,0.6410,0.4588,0.3480,0.4005,0.3688,0.3889,0.6616,1.0000,inf,30.0000,96.0000,76.0000
CONTR,DAY14,TRAY01,3A,REP3,3926873,36.3466,95.6395,77.0695,0.6402,0.4575,0.3591,0.3904,0.3695,0.3658,0.5947,1.0000,inf,29.0000,95.0000,74.0000
CONTR,DAY14,TRAY01,3A,REP4,2732852,38.8997,97.5724,78.5472,0.6365,0.4538,0.3210,0.4505,0.3505,0.4240,0.7636,1.0000,inf,34.0000,98.0000,77.0000
CONTR,DAY14,TRAY01,3B,REP1,5625189,32.2287,98.3258,81.9182,0.6339,0.4628,0.3997,0.4672,0.3673,0.4523,0.8661,1.0000,inf,24.0000,99.0000,81.0000
CONTR,DAY14,TRAY01,3B,REP2,1415264,42.8138,99.8200,82.1518,0.6274,0.4441,0.2758,0.5158,0.3303,0.5012,1.0520,1.0000,inf,40.0000,101.0000,83.0000
CONTR,DAY14,TRAY01,3B,REP3,3192588,38.3161,98.2048,81.1005,0.6316,0.4513,0.3191,0.4714,0.3378,0.4605,0.8927,1.0000,inf,34.0000,99.0000,81.0000
CONTR,DAY14,TRAY01,3B,REP4,2139839,40.2985,97.1621,80.7430,0.6305,0.4453,0.2998,0.4626,0.3177,0.4403,0.8196,1.0000,inf,36.0000,98.0000,81.0000
CONTR,DAY14,TRAY01,3C,REP1,1109872,31.7097,96.8039,80.0667,0.6373,0.4641,0.4104,0.4399,0.3178,0.4474,0.8447,1.0000,inf,25.0000,98.0000,80.0000
CONTR,DAY14,TRAY01,3C,REP2,1504542,36.5203,97.6029,81.0674,0.6325,0.4536,0.3391,0.4855,0.2737,0.4950,1.0219,1.0000,inf,31.0000,100.0000,83.0000
CONTR,DAY14,TRAY01,3C,REP3,1413285,39.1462,98.6992,82.8089,0.6277,0.4473,0.3154,0.5168,0.3014,0.5143,1.1116,1.0000,inf,34.0000,101.0000,83.0000
CONTR,DAY14,TRAY01,3C,REP4,2216532,44.8627,99.9305,83.7158,0.6227,0.4373,0.2520,0.5652,0.2464,0.5717,1.4003,1.0000,inf,44.0000,103.0000,86.0000
CONTR,DAY14,TRAY01,3D,REP1,2722905,35.6650,97.0540,80.1995,0.6346,0.4558,0.3507,0.4679,0.2841,0.4667,0.9179,1.0000,inf,31.0000,99.0000,81.0000
CONTR,DAY14,TRAY01,3D,REP2,3659184,40.5381,100.1267,82.8984,0.6274,0.4479,0.2990,0.5290,0.3063,0.5119,1.1044,1.0000,inf,36.0000,101.0000,84.0000
CONTR,DAY14,TRAY01,3D,REP3,2174143,37.7447,98.4690,81.4876,0.6313,0.4523,0.3322,0.4853,0.3096,0.4748,0.9463,1.0000,inf,32.0000,99.0000,82.0000
CONTR,DAY14,TRAY01,3D,REP4,2316354,44.0370,100.1891,84.2119,0.6224,0.4386,0.2614,0.5563,0.2659,0.5472,1.2756,1.0000,inf,41.0000,103.0000,86.0000
CONTR,DAY14,TRAY01,3E,REP1,990184,35.5957,94.1286,76.2809,0.6415,0.4569,0.3576,0.3860,0.3258,0.3769,0.6252,1.0000,inf,29.0000,94.0000,75.0000
CONTR,DAY14,TRAY01,3E,REP2,1152634,47.5452,96.3062,80.5152,0.6257,0.4292,0.2153,0.4480,0.3072,0.4335,0.7954,1.0000,inf,46.0000,97.0000,80.0000
CONTR,DAY14,TRAY01,3E,REP3,2594678,45.1320,92.9589,77.5354,0.6317,0.4311,0.2664,0.3896,0.2792,0.3806,0.6339,1.0000,inf,43.0000,94.0000,78.0000
CONTR,DAY14,TRAY01,3E,REP4,1582838,47.1879,96.6128,80.2294,0.6267,0.4312,0.2438,0.4641,0.2633,0.4542,0.8678,1.0000,inf,48.0000,98.0000,82.0000
CONTR,DAY14,TRAY01,3F,REP1,5684925,37.3072,94.8659,77.3244,0.6385,0.4528,0.3288,0.3929,0.3436,0.3807,0.6368,1.0000,inf,33.0000,95.0000,77.0000
CONTR,DAY14,TRAY01,3F,REP2,3500217,36.8185,94.2365,76.0317,0.6414,0.4551,0.3408,0.3812,0.3306,0.3630,0.5872,1.0000,inf,31.0000,94.0000,75.0000
CONTR,DAY14,TRAY01,3F,REP3,4962772,38.2597,95.1822,77.1438,0.6385,0.4520,0.3279,0.4137,0.3237,0.3930,0.6907,1.0000,inf,33.0000,96.0000,77.0000
CONTR,DAY14,TRAY01,3F,REP4,2712991,37.1459,97.0442,78.6708,0.6370,0.4559,0.3426,0.4393,0.3561,0.4267,0.7739,1.0000,inf,31.0000,97.0000,78.0000
CONTR,DAY14,TRAY01,4A,REP1,5250672,33.4160,90.3658,71.0782,0.6525,0.4637,0.3825,0.2787,0.3537,0.2557,0.3523,1.0000,inf,27.0000,90.0000,69.0000
CONTR,DAY14,TRAY01,4A,REP2,5347551,37.8191,91.4656,73.2526,0.6453,0.4516,0.3313,0.3230,0.3131,0.3037,0.4464,1.0000,inf,31.0000,91.0000,71.0000
CONTR,DAY14,TRAY01,4A,REP3,4021315,42.1923,92.3007,74.8774,0.6392,0.4408,0.2994,0.3645,0.2694,0.3532,0.5603,1.0000,inf,37.0000,92.0000,75.0000
CONTR,DAY14,TRAY01,4A,REP4,4496692,39.9040,92.3310,74.0912,0.6425,0.4475,0.3165,0.3573,0.2882,0.3426,0.5344,1.0000,inf,34.0000,92.0000,73.0000
CONTR,DAY14,TRAY01,4B,REP1,0,0.0000,0.0000,0.0000,0.0000,0.0000,0.0000,0.0000,0.0000,0.0000,0.0000,0.0000,0.0000,0.0000,0.0000,0.0000
CONTR,DAY14,TRAY01,4B,REP2,0,0.0000,0.0000,0.0000,0.0000,0.0000,0.0000,0.0000,0.0000,0.0000,0.0000,0.0000,0.0000,0.0000,0.0000,0.0000
CONTR,DAY14,TRAY01,4B,REP3,0,0.0000,0.0000,0.0000,0.0000,0.0000,0.0000,0.0000,0.0000,0.0000,0.0000,0.0000,0.0000,0.0000,0.0000,0.0000
CONTR,DAY14,TRAY01,4B,REP4,0,0.0000,0.0000,0.0000,0.0000,0.0000,0.0000,0.0000,0.0000,0.0000,0.0000,0.0000,0.0000,0.0000,0.0000,0.0000
CONTR,DAY14,TRAY01,4C,REP1,3740758,33.5110,100.1956,82.5510,0.6328,0.4633,0.3701,0.5115,0.3416,0.4917,1.0194,1.0000,inf,28.0000,100.0000,83.0000
CONTR,DAY14,TRAY01,4C,REP2,3383257,37.7929,101.8904,84.5560,0.6267,0.4544,0.3152,0.5793,0.2880,0.5760,1.4463,1.0000,inf,33.0000,103.0000,86.0000
CONTR,DAY14,TRAY01,4C,REP3,2666181,37.0970,99.4722,81.8909,0.6315,0.4553,0.3281,0.5016,0.3383,0.4896,1.0073,1.0000,inf,32.0000,100.0000,82.0000
CONTR,DAY14,TRAY01,4C,REP4,4108838,42.8650,100.5831,84.5610,0.6226,0.4411,0.2790,0.5568,0.2928,0.5455,1.2640,1.0000,inf,40.0000,102.0000,85.0000
CONTR,DAY14,TRAY01,4D,REP1,1733277,31.9755,106.3099,88.3719,0.6249,0.4690,0.3814,0.7331,0.2292,0.7338,3.0652,1.0000,inf,28.0000,107.0000,88.0000
CONTR,DAY14,TRAY01,4D,REP2,1493811,34.8265,106.4979,90.1087,0.6196,0.4602,0.3381,0.7304,0.1850,0.7503,3.2527,1.0000,inf,32.0000,108.0000,91.0000
CONTR,DAY14,TRAY01,4D,REP3,1112433,34.2384,106.0020,88.9799,0.6220,0.4624,0.3556,0.7095,0.2166,0.7185,2.7961,1.0000,inf,30.0000,107.0000,89.0000
CONTR,DAY14,TRAY01,4D,REP4,1832301,37.5523,106.5535,89.9457,0.6182,0.4553,0.3064,0.7264,0.1980,0.7411,3.1776,1.0000,inf,35.0000,108.0000,91.0000
CONTR,DAY14,TRAY01,4E,REP1,971909,33.8931,104.0835,85.8785,0.6276,0.4650,0.3690,0.6604,0.2576,0.6581,2.1076,1.0000,inf,29.0000,104.0000,86.0000
CONTR,DAY14,TRAY01,4E,REP2,1685740,41.7996,104.3323,87.2746,0.6197,0.4470,0.2572,0.6755,0.2473,0.6761,2.2801,1.0000,inf,39.0000,105.0000,88.0000
CONTR,DAY14,TRAY01,4E,REP3,963608,38.6026,104.2259,87.2452,0.6218,0.4530,0.3137,0.6585,0.2307,0.6712,2.1971,1.0000,inf,35.0000,106.0000,89.0000
CONTR,DAY14,TRAY01,4E,REP4,697244,41.9392,104.7821,87.6091,0.6192,0.4472,0.2629,0.6864,0.2394,0.7009,2.5167,1.0000,inf,40.0000,106.0000,89.0000
CONTR,DAY14,TRAY01,4F,REP1,5957072,34.6283,95.5993,77.3156,0.6408,0.4606,0.3580,0.4373,0.3172,0.4340,0.7956,1.0000,inf,29.0000,97.0000,77.0000
CONTR,DAY14,TRAY01,4F,REP2,4872520,37.8715,97.7587,79.8201,0.6344,0.4537,0.3200,0.4865,0.3221,0.4666,0.9562,1.0000,inf,34.0000,100.0000,80.0000
CONTR,DAY14,TRAY01,4F,REP3,3717099,34.6324,98.6259,79.1573,0.6385,0.4643,0.3688,0.4869,0.3686,0.4686,0.9224,1.0000,inf,28.0000,99.0000,78.0000
CONTR,DAY14,TRAY01,4F,REP4,2992744,35.6273,100.3478,81.3073,0.6342,0.4618,0.3577,0.5478,0.3403,0.5318,1.2012,1.0000,inf,30.0000,102.0000,81.0000
CONTR,DAY14,TRAY01,5A,REP1,3458746,29.4808,96.5157,78.3759,0.6424,0.4723,0.4273,0.4113,0.3925,0.3962,0.6840,1.0000,inf,23.0000,96.0000,77.0000
CONTR,DAY14,TRAY01,5A,REP2,3857084,32.6629,97.3863,79.1572,0.6391,0.4655,0.3934,0.4317,0.3867,0.4103,0.7275,1.0000,inf,26.0000,97.0000,78.0000
CONTR,DAY14,TRAY01,5A,REP3,4679933,36.2684,99.0148,81.3629,0.6329,0.4570,0.3420,0.4939,0.3588,0.4788,0.9657,1.0000,inf,31.0000,100.0000,81.0000
CONTR,DAY14,TRAY01,5A,REP4,4692800,37.3205,97.4117,80.4113,0.6333,0.4528,0.3378,0.4478,0.3455,0.4156,0.7731,1.0000,inf,32.0000,98.0000,80.0000
CONTR,DAY14,TRAY01,5B,REP1,0,0.0000,0.0000,0.0000,0.0000,0.0000,0.0000,0.0000,0.0000,0.0000,0.0000,0.0000,0.0000,0.0000,0.0000,0.0000
CONTR,DAY14,TRAY01,5B,REP2,0,0.0000,0.0000,0.0000,0.0000,0.0000,0.0000,0.0000,0.0000,0.0000,0.0000,0.0000,0.0000,0.0000,0.0000,0.0000
CONTR,DAY14,TRAY01,5B,REP3,0,0.0000,0.0000,0.0000,0.0000,0.0000,0.0000,0.0000,0.0000,0.0000,0.0000,0.0000,0.0000,0.0000,0.0000,0.0000
CONTR,DAY14,TRAY01,5B,REP4,0,0.0000,0.0000,0.0000,0.0000,0.0000,0.0000,0.0000,0.0000,0.0000,0.0000,0.0000,0.0000,0.0000,0.0000,0.0000
CONTR,DAY14,TRAY01,5C,REP1,4373979,30.1785,99.1473,79.9940,0.6399,0.4737,0.4344,0.5190,0.3519,0.4965,1.0428,1.0000,inf,22.0000,100.0000,80.0000
CONTR,DAY14,TRAY01,5C,REP2,2734304,31.2377,100.7092,80.4719,0.6391,0.4741,0.4130,0.5285,0.3180,0.5408,1.2397,1.0000,inf,25.0000,102.0000,81.0000
CONTR,DAY14,TRAY01,5C,REP3,2860575,35.6943,100.7504,81.9773,0.6329,0.4613,0.3536,0.5420,0.3131,0.5365,1.2220,1.0000,inf,30.0000,102.0000,83.0000
CONTR,DAY14,TRAY01,5C,REP4,4026756,30.0861,98.2250,79.3117,0.6409,0.4731,0.4235,0.4744,0.3463,0.4516,0.9114,1.0000,inf,24.0000,100.0000,80.0000
CONTR,DAY14,TRAY01,5D,REP1,813770,31.4305,101.8327,84.0748,0.6318,0.4685,0.3927,0.5717,0.3092,0.5673,1.4690,1.0000,inf,27.0000,103.0000,84.0000
CONTR,DAY14,TRAY01,5D,REP2,937194,37.5012,102.5148,84.9490,0.6264,0.4557,0.3139,0.6099,0.2656,0.6040,1.6052,1.0000,inf,35.0000,105.0000,87.0000
CONTR,DAY14,TRAY01,5D,REP3,1017078,37.3824,100.8981,83.6052,0.6284,0.4547,0.3421,0.5606,0.3044,0.5624,1.3521,1.0000,inf,32.0000,102.0000,84.0000
CONTR,DAY14,TRAY01,5D,REP4,676912,37.3828,102.1100,85.5689,0.6249,0.4537,0.3159,0.6151,0.2587,0.6164,1.7256,1.0000,inf,34.0000,104.0000,86.0000
CONTR,DAY14,TRAY01,5E,REP1,6755815,34.4543,88.0777,71.1850,0.6499,0.4547,0.3698,0.2881,0.2852,0.2798,0.3965,1.0000,inf,28.0000,88.0000,69.0000
CONTR,DAY14,TRAY01,5E,REP2,3926985,39.0477,90.9593,73.1539,0.6443,0.4477,0.3117,0.3184,0.3181,0.3037,0.4468,1.0000,inf,33.0000,90.0000,71.0000
CONTR,DAY14,TRAY01,5E,REP3,5072100,38.4013,89.8897,72.7106,0.6450,0.4472,0.3263,0.3241,0.2821,0.3167,0.4746,1.0000,inf,33.0000,90.0000,72.0000
CONTR,DAY14,TRAY01,5E,REP4,2838877,40.8811,93.8480,75.2665,0.6402,0.4469,0.3030,0.3818,0.3156,0.3617,0.5849,1.0000,inf,36.0000,95.0000,74.0000
CONTR,DAY14,TRAY01,5F,REP1,3242661,30.6942,93.4809,75.6518,0.6457,0.4678,0.4012,0.3736,0.3606,0.3627,0.5929,1.0000,inf,26.0000,95.0000,76.0000
CONTR,DAY14,TRAY01,5F,REP2,1532365,33.8935,94.1536,76.7536,0.6416,0.4597,0.3776,0.3707,0.3619,0.3464,0.5469,1.0000,inf,27.0000,94.0000,75.0000
CONTR,DAY14,TRAY01,5F,REP3,2380904,37.8442,94.7685,77.5543,0.6376,0.4509,0.3377,0.4054,0.3334,0.4005,0.6888,1.0000,inf,31.0000,95.0000,77.0000
CONTR,DAY14,TRAY01,5F,REP4,2101144,37.8994,96.8969,79.4988,0.6346,0.4522,0.3366,0.4485,0.3575,0.4390,0.8154,1.0000,inf,31.0000,98.0000,79.0000
CONTR,DAY14,TRAY01,6A,REP1,9137167,28.3911,90.3349,72.4234,0.6526,0.4726,0.4484,0.3032,0.3358,0.2932,0.4255,1.0000,273129.4286,22.0000,90.0000,71.0000
CONTR,DAY14,TRAY01,6A,REP2,4624386,38.7814,92.2629,74.6272,0.6420,0.4486,0.3199,0.3426,0.3287,0.3349,0.5172,1.0000,inf,33.0000,92.0000,73.0000
CONTR,DAY14,TRAY01,6A,REP3,6803306,34.0209,85.7928,70.2472,0.6507,0.4514,0.3863,0.2852,0.2631,0.2772,0.3913,1.0000,inf,25.0000,87.0000,70.0000
CONTR,DAY14,TRAY01,6A,REP4,7110573,45.0404,92.5495,76.3930,0.6341,0.4325,0.2603,0.3643,0.2854,0.3480,0.5488,1.0000,inf,41.0000,93.0000,77.0000
CONTR,DAY14,TRAY01,6B,REP1,3686048,31.9003,96.4721,78.2900,0.6409,0.4668,0.3944,0.4348,0.3134,0.4333,0.7933,1.0000,inf,27.0000,97.0000,80.0000
CONTR,DAY14,TRAY01,6B,REP2,2025507,38.1630,100.3280,82.9754,0.6289,0.4530,0.3090,0.5372,0.2813,0.5393,1.2384,1.0000,inf,35.0000,102.0000,84.0000
CONTR,DAY14,TRAY01,6B,REP3,2177925,37.3602,96.0537,78.7321,0.6361,0.4528,0.3376,0.4274,0.3017,0.4239,0.7633,1.0000,inf,31.0000,97.0000,80.0000
CONTR,DAY14,TRAY01,6B,REP4,4486911,48.6291,99.1237,84.1103,0.6189,0.4275,0.2213,0.5382,0.2591,0.5311,1.1890,1.0000,inf,49.0000,101.0000,86.0000
CONTR,DAY14,TRAY01,6C,REP1,7506203,30.0712,97.8355,77.3870,0.6450,0.4766,0.4269,0.4445,0.4217,0.4291,0.7912,1.0000,inf,24.0000,98.0000,76.0000
CONTR,DAY14,TRAY01,6C,REP2,8052823,30.0257,98.2136,78.0761,0.6437,0.4760,0.4330,0.4518,0.4133,0.4317,0.7923,1.0000,424316.2000,23.0000,98.0000,77.0000
CONTR,DAY14,TRAY01,6C,REP3,5536408,34.3824,98.9297,79.5850,0.6379,0.4647,0.3676,0.4849,0.3801,0.4677,0.9199,1.0000,inf,28.0000,99.0000,79.0000
CONTR,DAY14,TRAY01,6C,REP4,5189265,36.3142,100.5120,80.8225,0.6349,0.4618,0.3516,0.5272,0.3770,0.5160,1.1253,1.0000,inf,31.0000,101.0000,80.0000
CONTR,DAY14,TRAY01,6D,REP1,5458712,29.7759,92.8338,75.9143,0.6453,0.4676,0.4427,0.3510,0.3641,0.3446,0.5424,1.0000,inf,21.0000,94.0000,75.0000
CONTR,DAY14,TRAY01,6D,REP2,6660703,26.5896,90.7620,75.3485,0.6472,0.4710,0.4826,0.3161,0.3630,0.3007,0.4426,1.0000,219286.5000,20.0000,92.0000,75.0000
CONTR,DAY14,TRAY01,6D,REP3,3973967,31.6685,92.1337,76.7996,0.6416,0.4593,0.4074,0.3264,0.3667,0.3111,0.4638,1.0000,inf,24.0000,92.0000,76.0000
CONTR,DAY14,TRAY01,6D,REP4,4191839,33.3417,93.0377,79.1738,0.6358,0.4526,0.3855,0.3762,0.3059,0.3546,0.5673,1.0000,inf,25.0000,94.0000,79.0000
CONTR,DAY14,TRAY01,6E,REP1,530921,34.0841,101.4410,81.8928,0.6346,0.4666,0.3392,0.5504,0.3896,0.5187,1.1529,1.0000,inf,30.0000,101.0000,81.0000
CONTR,DAY14,TRAY01,6E,REP2,336803,29.6439,99.1679,79.9291,0.6404,0.4751,0.4488,0.4870,0.3770,0.4633,0.9067,1.0000,inf,22.0000,99.0000,79.0000
CONTR,DAY14,TRAY01,6E,REP3,914156,28.2096,99.5375,81.6632,0.6378,0.4753,0.4478,0.5033,0.3550,0.4785,0.9676,1.0000,inf,21.0000,100.0000,81.0000
CONTR,DAY14,TRAY01,6E,REP4,637414,44.1480,101.8815,84.5648,0.6225,0.4418,0.2541,0.5990,0.2862,0.5960,1.5571,1.0000,inf,45.0000,104.0000,86.0000
CONTR,DAY14,TRAY01,6F,REP1,4011042,34.1358,89.4702,71.9761,0.6493,0.4575,0.3905,0.2932,0.3069,0.2844,0.4060,1.0000,1640053.0000,26.0000,89.0000,70.0000
CONTR,DAY14,TRAY01,6F,REP2,3620670,33.8972,89.6477,71.0980,0.6516,0.4606,0.3799,0.2878,0.3358,0.2700,0.3784,1.0000,inf,27.0000,89.0000,69.0000
CONTR,DAY14,TRAY01,6F,REP3,3041713,36.0295,91.1261,72.1186,0.6489,0.4573,0.3649,0.3218,0.3161,0.3093,0.4586,1.0000,inf,29.0000,91.0000,70.0000
CONTR,DAY14,TRAY01,6F,REP4,2438620,38.7978,90.4452,72.9229,0.6447,0.4474,0.3163,0.3371,0.3038,0.3330,0.5120,1.0000,inf,33.0000,92.0000,72.0000
CONTR,DAY14,TRAY01,7A,REP1,7122046,30.8451,99.8105,82.0951,0.6353,0.4691,0.4056,0.5085,0.3208,0.5027,1.0673,1.0000,291162.1667,25.0000,101.0000,83.0000
CONTR,DAY14,TRAY01,7A,REP2,7396550,37.1254,97.0638,78.8718,0.6366,0.4556,0.3397,0.4426,0.3271,0.4230,0.7643,1.0000,inf,31.0000,97.0000,79.0000
CONTR,DAY14,TRAY01,7A,REP3,5787036,39.8198,96.0581,78.9498,0.6340,0.4471,0.3146,0.4233,0.3112,0.4074,0.7115,1.0000,inf,35.0000,97.0000,79.0000
CONTR,DAY14,TRAY01,7A,REP4,4848288,38.7993,95.2681,76.7007,0.6392,0.4520,0.3334,0.4129,0.3094,0.3884,0.6781,1.0000,inf,32.0000,96.0000,76.0000
CONTR,DAY14,TRAY01,7B,REP1,2172791,33.6723,94.0029,75.9918,0.6434,0.4616,0.3596,0.4425,0.2903,0.4362,0.8096,1.0000,inf,30.0000,98.0000,79.0000
CONTR,DAY14,TRAY01,7B,REP2,1342836,39.5209,99.8413,83.8214,0.6259,0.4474,0.3041,0.5493,0.2935,0.5308,1.1963,1.0000,inf,36.0000,102.0000,84.0000
CONTR,DAY14,TRAY01,7B,REP3,2088648,34.7474,93.6852,76.0779,0.6423,0.4581,0.3867,0.3956,0.3163,0.3753,0.6219,1.0000,inf,26.0000,96.0000,76.0000
CONTR,DAY14,TRAY01,7B,REP4,967750,41.3115,95.2152,77.8994,0.6349,0.4440,0.2857,0.4365,0.2977,0.4266,0.7683,1.0000,inf,39.0000,98.0000,78.0000
CONTR,DAY14,TRAY01,7C,REP1,7405434,33.7959,93.6336,73.7787,0.6481,0.4654,0.3801,0.3568,0.3553,0.3403,0.5322,1.0000,inf,27.0000,94.0000,73.0000
CONTR,DAY14,TRAY01,7C,REP2,7020516,40.4876,95.1863,76.8803,0.6377,0.4478,0.3039,0.4086,0.3238,0.3938,0.6734,1.0000,inf,36.0000,96.0000,77.0000
CONTR,DAY14,TRAY01,7C,REP3,6968479,42.9099,90.7337,74.1788,0.6393,0.4366,0.2968,0.3366,0.2864,0.3265,0.4958,1.0000,inf,37.0000,90.0000,72.0000
CONTR,DAY14,TRAY01,7C,REP4,6735888,42.8764,95.5667,76.9612,0.6362,0.4437,0.2823,0.4192,0.3087,0.4108,0.7213,1.0000,inf,38.0000,96.0000,77.0000
CONTR,DAY14,TRAY01,7D,REP1,8192960,31.7873,89.4618,69.9767,0.6556,0.4678,0.4046,0.2763,0.3517,0.2513,0.3437,1.0000,inf,26.0000,90.0000,69.0000
CONTR,DAY14,TRAY01,7D,REP2,6578264,36.6187,92.1027,72.1250,0.6491,0.4586,0.3551,0.3550,0.2938,0.3409,0.5312,1.0000,inf,29.0000,92.0000,71.0000
CONTR,DAY14,TRAY01,7D,REP3,6757696,34.0996,86.0435,68.5282,0.6550,0.4560,0.3878,0.2503,0.2979,0.2343,0.3165,1.0000,inf,26.0000,85.0000,66.0000
CONTR,DAY14,TRAY01,7D,REP4,6054262,39.8319,94.1385,75.0699,0.6415,0.4503,0.3186,0.3857,0.3211,0.3747,0.6166,1.0000,inf,34.0000,95.0000,73.0000
CONTR,DAY14,TRAY01,7E,REP1,4236350,31.0623,97.3718,80.3462,0.6375,0.4664,0.4118,0.4479,0.3331,0.4369,0.8095,1.0000,inf,24.0000,98.0000,81.0000
CONTR,DAY14,TRAY01,7E,REP2,2364538,37.9921,97.3989,80.2639,0.6332,0.4516,0.3259,0.4598,0.3304,0.4434,0.8295,1.0000,inf,32.0000,98.0000,81.0000
CONTR,DAY14,TRAY01,7E,REP3,4080571,38.1543,97.1948,80.3785,0.6327,0.4505,0.3121,0.4599,0.3374,0.4455,0.8387,1.0000,inf,34.0000,98.0000,80.0000
CONTR,DAY14,TRAY01,7E,REP4,1593020,41.0984,102.2876,84.8578,0.6241,0.4482,0.2941,0.6096,0.2621,0.5903,1.5477,1.0000,inf,38.0000,104.0000,86.0000
CONTR,DAY14,TRAY01,7F,REP1,4614100,30.5653,88.8343,70.3612,0.6550,0.4681,0.4156,0.2696,0.3308,0.2532,0.3473,1.0000,69996.5000,24.0000,89.0000,68.0000
CONTR,DAY14,TRAY01,7F,REP2,4591384,35.6691,85.5981,67.1905,0.6569,0.4542,0.3618,0.2246,0.2884,0.2036,0.2644,1.0000,inf,29.0000,85.0000,64.0000
CONTR,DAY14,TRAY01,7F,REP3,5512329,36.5765,84.2143,66.6980,0.6565,0.4492,0.3569,0.2214,0.2571,0.2157,0.2795,1.0000,inf,29.0000,83.0000,63.0000
CONTR,DAY14,TRAY01,7F,REP4,4626314,36.9734,85.1829,67.7292,0.6544,0.4486,0.3621,0.2424,0.2552,0.2387,0.3185,1.0000,inf,28.0000,84.0000,64.0000
