"","GLYPH","SULFO","TERBU","TRIFL"
"GLYPH",1,NA,NA,NA
"SULFO",NA,1,0.0515235499366363,NA
"TERBU",NA,0.0515235499366363,1,NA
"TRIFL",NA,NA,NA,1
"GLYPH",NA,NA,NA,NA
"SULFO",NA,NA,0.208716855540592,NA
"TERBU",NA,0.208716855540592,NA,NA
"TRIFL",NA,NA,NA,NA
