"","GLYPH","SULFO","TERBU","TRIFL"
"GLYPH",1,0.0480402717765475,0.00370410260376568,0.0049577361613262
"SULFO",0.0480402717765475,1,0.0605209587821218,0.0494540227269109
"TERBU",0.00370410260376568,0.0605209587821218,1,0.163362076847222
"TRIFL",0.0049577361613262,0.0494540227269109,0.163362076847222,1
"GLYPH",NA,0.416680368876167,0.950094950962751,0.933239154341486
"SULFO",0.416680368876167,NA,0.306049506016776,0.403084919494233
"TERBU",0.950094950962751,0.306049506016776,NA,0.00545295183141015
"TRIFL",0.933239154341486,0.403084919494233,0.00545295183141015,NA
