"","QUANT.RES","BINARY.SURVIVAL"
"i001",-7.44088094613975,0
"i001",-6.58945080367939,0
"i001",-7.35660423309473,0
"i001",-8.58727230113708,0
"i002",0.324174710749482,1
"i002",-0.675980413360001,1
"i002",0.00762500758692397,1
"i003",-1.71236683795189,0
"i003",-1.39376232471135,0
"i003",-2.00465525505901,0
"i003",-1.45510647221774,0
"i004",-1.99825397244221,0
"i004",-1.73036420905114,0
"i004",-1.35666472141548,0
"i004",-1.27905832851333,0
"i005",-0.540790130420946,1
"i005",-0.18656772543819,1
"i005",-0.755461368149472,1
"i005",-0.399643700845685,1
"i006",-0.606808580460051,1
"i006",-0.231098679877112,1
"i006",-0.187766061296152,1
"i006",0.483589897932976,1
"i007",0.0120375180046004,1
"i007",0.00666752918802693,1
"i007",1.29561275426036,1
"i007",1.16075624161373,1
"i008",-2.89187095002166,0
"i008",-2.39541635494692,0
"i008",-2.63424896042471,0
"i008",-2.79865661746824,0
"i009",-1.74374765853988,0
"i009",-1.10205392839237,0
"i009",-1.08238685387721,0
"i009",-1.10751168267752,0
"i010",-3.30060489732197,0
"i010",-1.88692324202727,0
"i010",-2.74219712082457,0
"i010",-2.30330229501907,0
"i011",-1.06766419778418,0
"i011",0.687298688768601,0
"i011",-1.01154415061373,0
"i012",3.11544278866635,1
"i012",1.80723647154571,1
"i012",2.80364643607662,1
"i012",1.40954827703988,1
"i013",-1.15875487202818,1
"i013",0.52298156164089,1
"i013",0.0494702122823476,1
"i013",-0.248440065456244,1
"i014",-7.96953010835463,0
"i014",-12.1060566222841,0
"i014",-7.57300068672869,0
"i014",-8.93881928048106,0
"i015",-0.760994649644546,0
"i015",0.00798346738910638,0
"i015",-0.257622667194068,0
"i015",0.519068810500661,0
"i016",0.221758597469316,1
"i016",0.868436904463817,1
"i016",-1.53719997196958,1
"i016",0.91447178556208,1
"i018",-2.45945538176959,0
"i018",-2.89875851748939,0
"i018",-2.14235095708951,0
"i018",-2.46194301559659,0
"i019",-2.94552646866723,0
"i019",-2.90667295536726,0
"i019",-0.421694751149348,0
"i019",-1.37141012783459,0
"i020",-4.36437167314643,0
"i020",-4.46139659949031,0
"i020",-3.29438537905923,0
"i020",-4.35942195039086,0
"i021",-5.78244132815671,0
"i021",-5.08977680320627,0
"i021",-5.24258136945472,0
"i021",-4.54799636439506,0
"i022",-3.84882150752082,0
"i022",-4.99027411105766,0
"i022",-3.9958405758038,0
"i022",-3.41117750248507,0
"i023",-2.31235079261874,0
"i023",-0.495176520096335,0
"i023",-1.20337426251542,0
"i023",-0.718904003028303,0
"i025",-2.77300414528151,0
"i025",-1.6824909318673,0
"i025",-2.58817726754148,0
"i025",-1.14514676591293,0
"i026",-0.477550501040117,1
"i026",0.550843700256703,1
"i026",-0.0178146273639737,1
"i026",-0.773143084946996,1
"i027",-5.24780936855061,0
"i027",-4.70972511344934,0
"i027",-4.45595086196824,0
"i028",-5.61431121165904,0
"i028",-2.32428168766958,0
"i028",-3.49865407745454,0
"i028",-3.43827696678011,0
"i029",-0.488469612255146,0
"i029",0.122037951984836,0
"i029",0.528089660763314,0
"i029",0.817427857395327,0
"i030",0.127134565684971,1
"i030",1.22463041833112,1
"i030",1.78018649356972,1
"i030",1.08315893656092,1
"i031",-1.21020439779379,1
"i031",-1.47530003401468,1
"i031",0.0797011367042444,1
"i031",-0.473673008669744,1
"i033",-1.1594211820424,0
"i033",-2.54688606685371,0
"i033",-2.10031564466196,0
"i033",-1.23351810926439,0
"i034",-0.962610483279692,0
"i034",-3.49820609295252,0
"i034",-1.01264556640224,0
"i034",-3.44434364809282,0
"i034",-1.45092277263823,0
"i034",-4.4007027762688,0
"i034",-0.548165247730248,0
"i034",-2.91336450468492,0
"i035",-4.65370140728932,0
"i035",-14.8920586467573,0
"i035",-18.9743799928044,0
"i035",-18.5718000775613,0
"i036",-13.1220946377643,0
"i036",-10.3383136577129,0
"i036",-12.7991480696649,0
"i036",-11.9566216257619,0
"i036",-13.9115957626376,0
"i036",-11.7372032626844,0
"i036",-10.3860893003612,0
"i036",-12.5117488125671,0
"i037",-4.79844372354059,0
"i037",-2.88672956209026,0
"i037",-2.08476917211595,0
"i037",-3.91745705297308,0
"i041",-5.87229902247649,0
"i041",-3.53404363201135,0
"i041",-5.21862059345666,0
"i041",-5.09617257515931,0
"i042",-6.64393909458815,0
"i042",-6.79337011959607,0
"i042",-6.98156388825307,0
"i042",-5.64660253624729,0
"i043",-3.02849213532238,0
"i043",-1.01083863511021,0
"i043",-0.640139992632498,0
"i043",-1.23697053533881,0
"i044",-4.11095805801747,0
"i044",-2.08132457897215,0
"i044",-2.55002141328718,0
"i044",-2.56209919846457,0
"i044",-2.69215489341162,0
"i044",-0.103603122665254,0
"i044",-1.43526481500509,0
"i044",-4.11349375930669,0
"i045",-4.65890927631715,0
"i045",-1.96429994994685,0
"i045",-5.89385144843427,0
"i045",-3.80279141970273,0
"i045",-5.14156684709209,0
"i045",-1.97417236378004,0
"i045",-3.62709174650165,0
"i045",-2.46113034468682,0
"i047",-1.23463762793139,1
"i047",-1.85374414292737,1
"i047",-3.320133009563,1
"i047",0.032241557271087,1
"i047",1.27533866911653,1
"i047",-0.740591895430855,1
"i047",0.413629690346758,1
"i047",-0.847022764344349,1
"i048",-1.9324672628235,1
"i048",-0.399479952646915,1
"i048",0.976737365478977,1
"i048",-0.673440481948777,1
"i048",0.109288345198276,1
"i048",-0.710052993274479,1
"i048",-0.0224198847012431,1
"i048",-1.25039063491911,1
"i049",-13.7267071273552,0
"i049",-9.01290619435209,0
"i049",-13.1495383415865,0
"i049",-9.03091419929734,0
"i050",-3.97508401682189,0
"i050",-4.00052253613695,0
"i050",-3.53390245926434,0
"i050",-4.30376901315013,0
"i051",-0.535470627279171,1
"i051",-1.22124236676806,1
"i051",-0.701552456412633,1
"i051",-0.232187002192807,1
"i052",-8.39394649524229,0
"i052",-7.2310122801144,0
"i052",-7.08274408436348,0
"i052",-6.32326102434645,0
"i053",-6.98220680133345,0
"i053",-5.53321520943766,0
"i053",-7.22700029446472,0
"i053",-7.79467901191192,0
"i054",-5.1284972772504,0
"i054",-4.20015514942485,0
"i054",-5.59535071938193,0
"i054",-4.94629699943734,0
"i055",-0.0392082667657299,0
"i055",1.13337627350131,0
"i055",-1.60341223357265,0
"i055",0.163076291623627,0
"i056",-3.09179179450453,0
"i056",-5.49185448529298,0
"i056",-4.61589137257499,0
"i056",-2.95153830423777,0
"i058",-4.82585288718222,0
"i058",-3.84677794329402,0
"i058",-3.88338737024639,0
"i058",-2.93818686472292,0
"i058",-3.67723073189594,0
"i058",-1.09080949969841,0
"i058",-3.75881262573752,0
"i058",-1.42883982773523,0
"i060",-6.21167511155221,0
"i060",-8.281425317376,0
"i060",-7.30203385756097,0
"i060",-8.89783535166755,0
"i061",-5.77504836942107,0
"i061",-2.32117310185186,0
"i061",-6.1845063540862,0
"i061",-5.18421711717406,0
"i061",-7.3577745378943,0
"i061",-4.01486437216315,0
"i061",-5.81408975011696,0
"i061",-4.84230431365047,0
"i062",-6.78257976530445,0
"i062",-5.51477834023704,0
"i062",-3.07247491066171,0
"i062",-3.11261687362791,0
"i063",-6.51327480067511,0
"i063",-3.72479116747781,0
"i063",-6.05214795208579,0
"i063",-3.20287368679988,0
"i063",-8.24433022417586,0
"i063",-4.54524122629559,0
"i063",-5.35743960663408,0
"i063",-2.90650619558384,0
"i064",-7.73000269949885,0
"i064",-13.5989923133269,0
"i064",-9.38488414588534,0
"i064",-11.2883861282969,0
"i065",-3.2860751135891,0
"i065",-0.697381618850308,0
"i065",-4.96080999665444,0
"i065",-5.3810654915394,0
"i067",-6.82618773669155,0
"i067",-9.11406725893092,0
"i067",-8.61577494058704,0
"i067",-8.42722318630346,0
"i068",-1.59953299050416,0
"i068",-2.26386280689809,0
"i068",-1.12292838548544,0
"i068",-0.051689912393261,0
"i069",-4.05062914158989,0
"i069",-4.07887493514451,0
"i069",-3.41607698164588,0
"i070",-4.34313486065957,0
"i070",-4.54562849058452,0
"i070",-5.06749603369218,0
"i070",-3.91563178929469,0
"i072",-4.52423384972585,0
"i072",-3.50097437593475,0
"i072",-3.33720793747129,0
"i072",-1.81085363515896,0
"i073",-2.28774326317145,1
"i073",-3.49794479950595,1
"i073",-2.32867063386021,1
"i073",-3.56483719457241,1
"i076",-7.65696801408585,0
"i076",-2.18135236193551,0
"i076",-3.91254625804528,0
"i076",-10.6822286436567,0
"i077",-7.49993605602696,0
"i077",-7.10714562024983,0
"i077",-5.30428212715398,0
"i077",-7.84882071616511,0
"i078",-9.24712952873083,1
"i078",-7.32071890356018,1
"i078",-9.08266872033783,1
"i079",-6.36515443277499,0
"i079",-5.12548245483968,0
"i080",-6.08370778649565,0
"i080",-1.68767651192574,0
"i080",-2.81114793713208,0
"i080",-2.7697623834149,0
"i081",-2.68410074257273,0
"i081",-2.86786643194002,0
"i081",-2.40927910838266,0
"i081",-1.608582030781,0
"i082",-8.58697080477947,0
"i082",-8.23103698047865,0
"i082",-6.10968526154066,0
"i082",-6.34635219002525,0
"i083",-10.3874607507026,0
"i083",-7.51768452241303,0
"i083",-9.31743751479793,0
"i083",-6.90312373110851,0
"i085",2.23157197744613,1
"i085",1.66279528245807,1
"i085",2.42623852590821,1
"i085",1.90537782528161,1
"i086",-8.02615901774753,0
"i086",0.69942348389093,1
"i086",-6.11003664307063,0
"i086",0.214327537112842,1
"i086",-4.12280749756259,0
"i086",0.744554538645508,1
"i086",-5.42501953946284,0
"i086",-0.802280499246084,1
"i087",-0.918858444497198,1
"i087",1.46841866638404,1
"i087",-0.621892298883795,1
"i087",-0.4413096723225,1
"i088",-2.19335593245692,0
"i088",1.17392730977407,1
"i088",-1.08663071412309,0
"i088",0.075940001007444,1
"i088",-0.554072430922041,0
"i088",0.604684562680452,1
"i088",-0.169434055984423,0
"i088",0.200533622408667,1
"i089",-6.60408077937729,0
"i089",0.235847584589488,1
"i089",-5.4432901334946,0
"i089",-0.152185630396394,1
"i089",-4.69406702263863,0
"i089",-0.515407435498037,1
"i089",-3.75463940905338,0
"i089",-0.19431943460177,1
"i090",-3.19518442766656,0
"i090",0.312196406915273,1
"i090",-1.99333342021146,0
"i090",0.586053426518069,1
"i090",-2.53202852466227,0
"i090",0.372198133833514,1
"i090",-0.544763962972645,0
"i090",2.62867910829051,1
"i091",-3.42584309382656,1
"i091",-3.59219111038157,1
"i091",-2.31232084374536,1
"i091",-2.43826097486696,1
"i093",-12.4580431358875,0
"i093",-11.7614497349606,0
"i093",-6.95576243719553,0
"i093",-10.611279772986,0
"i094",-0.603186955044412,1
"i094",-0.194888989789712,0
"i094",-1.08249490932396,1
"i094",-2.10983712591503,0
"i094",0.242826898829453,1
"i094",-0.085514671724523,0
"i094",-0.649837433815268,1
"i094",-2.16835673150444,0
"i095",-7.75237245266025,1
"i095",-3.37054268104946,1
"i095",-4.01397642809741,1
"i095",-1.91498210586483,1
"i095",-2.98819621473148,1
"i095",-1.45413249176532,1
"i095",-3.45764590850962,1
"i095",-1.02282098736033,1
"i096",-2.31640859406943,1
"i096",-0.948203527402647,1
"i096",0.672825620765463,1
"i096",-1.160148891824,1
"i097",-6.90047568821708,0
"i097",-7.14204731768748,0
"i097",-7.35339506640758,0
"i097",-8.28097124040945,0
"i099",-6.27434069988162,0
"i099",-6.69322494160118,0
"i099",-4.25528445677865,0
"i099",-5.88605467583157,0
"i100",-7.53983967600929,0
"i100",-1.04688967184247,1
"i100",1.05526483880297,1
"i100",-5.7088416311891,0
"i100",-0.00650995480655858,1
"i100",-5.56115105984604,0
"i100",-0.297009589236445,1
"i101",-5.46782230376991,0
"i101",-6.43217347771533,0
"i101",-3.53532723921369,0
"i101",-9.68294859273519,0
"i101",-3.47976975517035,0
"i101",-7.93500592936104,0
"i101",-2.63412504149764,0
"i101",-8.01586090697597,0
"i103",-1.49459282199286,0
"i103",-4.07250522098866,0
"i103",-1.83582604398505,0
"i103",-1.55212972913052,0
"i103",-0.654619964433437,0
"i103",-2.70512343953181,0
"i103",-0.702932246094129,0
"i103",-4.63835729362061,0
"i105",-2.82018994111765,0
"i105",-3.27918167990014,0
"i105",-2.8117870479099,0
"i105",-2.12784260823169,0
"i107",-1.14837320435957,0
"i107",-1.54767665993525,0
"i107",2.24137657608731,0
"i107",-0.192167206404909,0
"i110",-2.65932296984851,0
"i110",-1.23987196769871,0
"i110",-1.6668935378952,0
"i110",-2.42534506459427,0
"i112",-5.08314812294038,0
"i112",-1.02867458602246,0
"i112",-4.24636674739181,0
"i112",-4.51958170201739,0
"i115",-4.06528335355971,0
"i115",-5.14834757334555,0
"i115",-2.60432729518513,0
"i115",-2.6145696587487,0
"i116",-11.7025564952704,0
"i116",-12.719421915549,0
"i116",-14.820763758072,0
"i116",-11.5148628701513,0
"i117",-4.88084812490455,0
"i117",-6.63080452242373,0
"i117",-5.46542509019687,0
"i117",-5.20952903163494,0
"i118",-10.1655862075197,1
"i118",-6.85378365276346,1
"i118",-10.0794259244346,1
"i118",-5.99642258577867,1
"i119",-11.3493918933979,0
"i119",-12.6761527618493,0
"i119",-10.8181451296898,0
"i119",-14.8281847553161,0
"i119",-9.92949630587056,0
"i119",-15.7004719293052,0
"i119",-11.7940398414966,0
"i119",-13.7227425449987,0
"i120",-1.28880472001858,0
"i120",0.0712651948105378,0
"i120",-1.15643349220763,0
"i120",-1.01382758528924,0
"i121",-7.59271633105956,0
"i121",-8.60465972743223,0
"i121",-6.7857283811068,0
"i121",-7.99107572600923,0
"i122",-1.68301027303874,0
"i122",-2.30261262698794,0
"i122",-2.5152610650554,0
"i122",-2.16596391973574,0
"i123",-6.54710030182315,0
"i124",-2.83317286043113,0
"i124",-0.992311785554874,0
"i124",-0.399530521380495,0
"i124",-2.01524206106598,0
"i124",-3.62900159118581,0
"i124",1.10934084301176,0
"i124",-1.39990290966008,0
"i124",0.023763863292336,0
"i125",-10.9019976760135,0
"i125",-11.1568043818552,0
"i125",-9.34329424692104,0
"i125",-11.1173482673864,0
"i125",-9.85989067167168,0
"i125",-10.4067307489114,0
"i125",-10.6819898419423,0
"i125",-7.7919030468528,0
"i127",-5.8265710251236,0
"i127",-5.08938838589059,0
"i127",-6.83217751496943,0
"i127",-4.78059396778943,0
"i128",-2.75144909508685,0
"i128",-3.79643510600033,0
"i128",-3.62764716480307,0
"i128",-4.54304490014235,0
"i129",-3.45977901057393,0
"i129",-4.50473538137179,0
"i129",0.115236858750244,0
"i129",-5.59795415655186,0
"i129",-3.30681516801537,0
"i129",-5.13629464105683,0
"i129",-0.997232677270102,0
"i129",-6.27954274463707,0
"i130",-4.14656814027552,0
"i130",-0.83534877335264,0
"i130",-1.77062945389052,0
"i130",-1.48788587898889,0
"i131",-1.19834779134537,0
"i131",-0.19162015366706,0
"i131",-0.243311037837481,0
"i131",-0.822653541293281,0
"i131",-1.58242234529583,0
"i131",-0.871133875633419,0
"i131",-0.702922249839743,0
"i131",-3.17677087004692,0
"i132",-5.51532961201529,0
"i132",-3.96761308363663,0
"i132",-3.01040066491049,0
"i132",-1.47247531464309,0
"i133",-6.43458200977915,0
"i133",-5.53696350011985,0
"i133",-5.09423928759976,0
"i133",-3.3911056824521,0
"i134",-0.216478366052096,0
"i134",-1.54347455637967,0
"i134",-2.55838496224835,0
"i134",-0.215086646966494,0
"i135",-6.13624506838386,0
"i135",-6.03962879141898,0
"i135",-4.89499708875076,0
"i135",-5.43840615553361,0
"i136",-6.04206388587183,0
"i136",-4.96354610702807,0
"i136",-2.94764616761397,0
"i136",-3.10168072585147,0
"i137",-3.89457067868723,0
"i137",-2.77148650005954,0
"i137",-2.45504716193295,0
"i137",-2.27304714510865,0
"i138",-5.53098093850185,0
"i138",-5.71539750553191,0
"i138",-6.59464436379833,0
"i138",-6.80650158261495,0
"i139",-5.26805607269651,0
"i139",-6.04018613578993,0
"i139",-7.35694727027321,0
"i139",-7.07913934961358,0
"i140",1.11403426423613,1
"i140",2.04260551836589,1
"i140",0.554031898957222,1
"i140",1.35776278471054,1
"i141",-10.6626623657517,0
"i141",-9.89929854888217,0
"i141",-10.7790423957129,0
"i141",-9.32933754038242,0
"i142",-5.6322149499855,0
"i142",-3.24606430929208,0
"i142",-4.74817554430677,0
"i142",-3.16342579988477,0
"i143",-3.9820423540706,0
"i143",-3.96554186524749,0
"i143",-1.75507123320316,0
"i143",-1.81020658052422,0
"i144",-5.74147348365624,0
"i144",-4.09992901727373,0
"i144",-4.48414315580454,0
"i144",-5.08809126263069,0
"i145",-5.73171484889117,0
"i145",-9.42925015127851,0
"i145",-9.20853293379533,0
"i145",-11.3524323443151,0
"i146",-0.264309936406367,0
"i146",0.466409995785037,0
"i146",-1.62405566679515,0
"i146",-0.682611887788761,0
"i147",-4.51166135052703,0
"i147",-5.49655293793965,0
"i147",-6.01393461536134,0
"i147",-6.13578491821349,0
"i148",-4.64532669920556,0
"i148",-5.28165886176444,0
"i148",-3.05328653994284,0
"i148",-2.99524932148719,0
"i149",-3.75356186540577,0
"i149",-4.56396340978405,0
"i149",-3.82811419480243,0
"i149",-5.38560990415005,0
"i150",-8.78655262887343,0
"i150",-7.76377216597378,0
"i150",-7.80660411706587,0
"i150",-7.28489651294906,0
"i151",-1.32712446909107,0
"i151",-0.819211883007481,0
"i151",-2.09793910360473,0
"i151",-1.20552710144195,0
"i153",0.130875993494884,0
"i153",-0.900327530103644,0
"i153",-0.256392694496435,0
"i153",-0.223193608006646,0
"i154",-3.22776449602699,0
"i154",-2.75786057743182,0
"i154",-2.06639617550488,0
"i154",-3.83788273123055,0
"i154",-3.47236352032859,0
"i154",-3.59449123150366,0
"i154",-2.27643258455676,0
"i154",-3.00252474225163,0
"i155",-3.82892307477806,0
"i155",-3.44380100863253,0
"i155",-3.24039305692849,0
"i155",-5.27543063774657,0
"i155",-1.63472804658712,0
"i155",-3.40257798837166,0
"i155",-4.09435522811444,0
"i155",-2.60075868784044,0
"i156",-5.70893490652046,0
"i156",-7.18749332778065,0
"i156",-5.81065340066793,0
"i156",-7.46264756746076,0
"i157",-10.2322949680687,0
"i157",-9.95197318553405,0
"i157",-8.19030645873568,0
"i157",-7.7313805945561,0
"i158",-4.4870416889281,0
"i158",-4.89645977784267,0
"i158",-5.41452048957603,0
"i158",-3.93744296353138,0
"i159",-3.87092730391866,0
"i159",-5.29092015170978,0
"i159",-5.86236281590266,0
"i160",-1.38892188280028,0
"i160",-0.806607246178153,0
"i160",0.119863532732445,0
"i160",0.606527781154766,0
"i161",-0.696752461865461,1
"i161",0.411411463021034,1
"i161",-0.306528500949296,1
"i161",0.0998338761885158,1
"i163",-2.80928126776303,0
"i163",-3.68474117821954,0
"i163",-2.64833188346891,0
"i163",-2.78573918042985,0
"i164",-0.739472785837055,0
"i164",-0.396332442273781,0
"i164",-0.752039047215282,0
"i164",0.188330916804587,0
"i164",-1.81511985595122,0
"i164",-1.2991395693253,0
"i164",-0.388983038857287,0
"i164",-0.708462171048033,0
"i166",-6.69926564648817,0
"i166",-6.65054852891203,0
"i166",-12.2265132189288,0
"i167",-3.67478135037941,0
"i167",-3.21643345770693,0
"i167",-2.93108844397361,0
"i167",-3.47868691917786,0
"i168",-2.25353647380182,0
"i168",-2.31421259864879,0
"i168",-2.03828661953441,0
"i168",-3.65769524149733,0
"i169",-1.54201627130401,1
"i169",0.114575079612161,1
"i169",-0.71206037301882,1
"i169",0.000911089640661444,1
"i170",-1.48700031578836,1
"i170",-0.667763340576734,1
"i170",-2.77607887547894,1
"i170",-1.28565492346954,1
"i171",-1.72660726269145,0
"i171",-0.358740709813183,0
"i171",-1.11599971948614,0
"i171",-0.813401777293128,0
"i172",-2.1267517226841,1
"i172",-1.20628959178671,1
"i172",-0.789680449799921,1
"i172",1.02443745125213,1
"i173",-0.509200026106511,1
"i173",-0.35026111798765,1
"i173",0.404379429172188,1
"i173",-0.0270188856083848,1
"i174",0.31518110918554,1
"i174",-0.0622496044746033,1
"i174",0.673165820761024,1
"i174",0.434908643867033,1
"i175",-3.15730466453306,1
"i175",-3.75508839127327,1
"i175",-2.16474831272146,1
"i175",-1.68104066285832,1
"i176",-2.47219218909153,0
"i176",-0.580661385696645,0
"i176",-1.38502949270433,0
"i176",-1.27699604425764,0
"i177",-4.02092576493707,0
"i177",-3.81337790162546,0
"i177",-3.54203258306539,0
"i177",-4.35771211154952,0
"i178",-1.19928319952061,1
"i178",-2.2462353511318,1
"i178",-1.25381787658347,1
"i178",-2.59612713908188,1
"i179",0.759009586604028,1
"i179",0.91727065963833,1
"i179",2.68995378111209,1
"i179",1.10907304953305,1
"i180",-0.355386595869255,0
"i180",-1.34826016978085,0
"i180",-0.822121411904636,0
"i180",-2.19000644419032,0
"i181",-0.596834316419319,0
"i181",-0.28889432797067,0
"i181",-0.296616219724912,0
"i181",-0.171979188753628,0
"i182",-2.61568913414706,0
"i182",-4.74531935123096,0
"i182",-2.8486455001799,0
"i182",-3.12949824347912,0
"i183",-0.751757171606251,0
"i183",-0.467988902658284,0
"i183",-0.866105332463333,0
"i183",-0.694502124519886,0
"i184",-0.501431238376652,0
"i184",-0.953304227622354,0
"i184",-1.73123183333522,0
"i184",-0.347952177013342,0
"i185",-0.0746055152129994,1
"i185",-0.208446939989976,1
"i185",-0.96930118378746,1
"i185",-0.450255244811999,1
"i186",0.258145794446744,0
"i186",-0.596343859623964,0
"i186",-0.449040738403866,0
"i186",-0.579166359194565,0
"i187",-0.0784145349117242,0
"i187",0.0394059470052746,0
"i187",-1.44102634976687,0
"i187",-1.59448347019562,0
"i188",-1.98752054581433,0
"i188",-1.54590631298,0
"i188",-2.3036018376483,0
"i188",-2.33405076919266,0
"i189",-4.19665351064156,0
"i189",-3.44988268227036,0
"i189",-5.14295442461253,0
"i189",-5.26500938931743,0
"i190",-2.62879691108346,0
"i190",-1.62070154306984,0
"i190",-3.79315579962704,0
"i190",-3.41741159446232,0
"i191",-0.497953589455875,0
"i191",-0.347662917920944,0
"i191",0.0788116886952377,0
"i191",-0.795575832996105,0
"i192",-2.65552578447637,0
"i192",-1.75433713328243,0
"i192",-0.866995616358812,0
"i192",-1.51315067834408,0
"i193",-4.84259834659787,0
"i193",-2.87211302610694,0
"i193",-4.16139654913559,0
"i193",-1.69777036041585,0
"i194",-1.28030402462514,0
"i194",-1.26592975342597,0
"i194",-2.26735966757161,0
"i194",-0.027889625924205,0
"i195",0.550125119985678,0
"i195",-0.000207828848443725,0
"i195",0.971124177177632,0
"i195",0.413262814760353,0
"i196",-0.178189733757396,0
"i196",-0.179811892510079,0
"i196",-0.808219850033591,0
"i196",-1.14572142294536,0
"i197",-5.55627122738868,0
"i197",-5.00595041353895,0
"i197",-5.6962623778019,0
"i197",-5.26694105978245,0
"i198",-2.6973605616025,0
"i198",-3.32109004364671,0
"i198",-2.58909866715831,0
"i198",-2.60873240656409,0
"i199",-9.92109093295552,0
"i199",-6.88127537311737,0
"i199",-8.7960757426743,0
"i200",-1.07198264011876,1
"i200",0.293924131907545,1
"i200",0.449201980397373,1
"i200",-0.155031763387198,1
"i201",-1.03956368818185,0
"i201",-1.50898736624883,0
"i201",0.294169443351672,0
"i201",-1.3898819267091,0
"i202",-0.921052624098555,0
"i202",-1.81894100071619,0
"i202",0.357042692270172,0
"i202",-0.421262098286155,0
"i203",-0.466682282034116,0
"i203",-0.804620755300229,0
"i203",-2.1750910953423,0
"i203",0.854928181297895,0
"i204",-1.69713864324578,0
"i204",-2.5772702894165,0
"i204",-1.00553887369154,0
"i204",-3.98979717976298,0
"i205",-2.97028025761135,0
"i205",-1.88914182020487,0
"i205",-1.92970303943857,0
"i205",-3.22167998358117,0
"i206",-4.1530387903174,0
"i206",-2.6629690291265,0
"i206",-2.31863568489971,0
"i206",-3.54577422853698,0
"i207",-0.982120890861237,0
"i207",-1.18058804434467,0
"i207",-0.207228407492604,0
"i207",-0.351777759253665,0
"i208",-0.690610083298372,0
"i208",-3.16966641149888,0
"i208",-4.3842105079515,0
"i208",-2.59986402545332,0
"i209",-4.70821174592503,0
"i209",-2.75133582215825,0
"i209",-2.41154373921915,0
"i209",-1.55721387714532,0
"i210",-3.15191219539962,0
"i210",-3.9006113387817,0
"i210",-3.61158472989453,0
"i210",-2.98518054961951,0
"i211",-2.29393392586624,1
"i211",-0.78930239320386,1
"i211",-0.583370360538966,1
"i211",1.02791798509656,1
"i213",-3.63852873385279,0
"i213",-3.6631162665955,0
"i213",-4.42100836852995,0
"i213",-4.68396010220243,0
"i214",-1.97685476717726,1
"i214",-1.84711910415123,1
"i214",-0.872979304833152,1
"i214",-1.25292922896162,1
"i215",-6.10458123347017,0
"i215",-3.2020060948024,0
"i215",-2.86784821513055,0
"i215",-5.55219387382841,0
"i216",-8.70793108509393,0
"i216",0.817974544118844,1
"i216",-9.07192656448194,0
"i216",0.56251523631874,1
"i216",-8.05774522589596,0
"i216",0.265886020602032,1
"i216",-7.08957181901468,0
"i216",0.345241592834515,1
"i217",-1.81414422458119,0
"i217",-3.09423073279684,0
"i217",-2.9148944380733,0
"i217",-2.40287932614937,0
"i218",-6.07927970269697,0
"i218",-4.74977951141001,0
"i218",-5.80659476468356,0
"i218",-5.78203591435798,0
"i220",-1.22036390158953,0
"i220",-1.73979419088346,0
"i220",-1.31562735558628,0
"i220",-0.384867725720328,0
"i221",-0.641999283827232,1
"i221",-0.773315138175999,1
"i221",-1.17361513602494,1
"i221",-0.198357996982047,1
"i222",0.451964978805309,1
"i222",0.966101321263363,1
"i222",1.75757053601547,1
"i222",1.8531411645594,1
"i223",-1.02461456603208,0
"i223",-0.703818283501221,0
"i223",0.569376028148987,0
"i223",-2.14216252247568,0
"i224",-1.52302953840698,0
"i224",-1.52245076627958,0
"i224",-2.63686728783766,0
"i224",-2.24673572106217,0
"i225",0.424924619883413,0
"i225",0.281655670641047,0
"i225",1.27273713083665,0
"i225",1.00457059731288,0
"i226",-1.82824006317668,0
"i226",0.355494685775108,0
"i226",0.156252096986659,0
"i226",0.260580434769391,0
"i227",-3.47830176707065,0
"i227",-0.526954178653192,0
"i227",-1.07702644727849,0
"i227",-0.961896135830511,0
"i228",-2.20943170043899,0
"i228",-2.70314910019942,0
"i228",-2.27632237923976,0
"i228",-1.48384124665611,0
"i229",-5.93807363381063,0
"i229",-5.99953245004352,0
"i229",-6.08908860988518,0
"i229",-6.14715117552251,0
"i230",-1.20106022223181,0
"i230",-1.78124842329782,0
"i230",-2.44549732608745,0
"i230",-3.28888486782565,0
"i231",-0.773532794082143,0
"i231",0.198081916861913,0
"i231",0.878449324861114,0
"i231",-0.130571636023888,0
"i232",-2.93502649758853,0
"i232",-3.0428421805536,0
"i233",1.37302963389235,0
"i233",0.801896703999253,0
"i233",0.988310812037874,0
"i233",1.77986894035312,0
"i234",-0.127140021320692,0
"i234",-0.613169169790176,0
"i234",-0.439614682841253,0
"i234",-1.16944465511265,0
"i235",-4.55692782779059,0
"i235",-4.4710449915931,0
"i235",-4.89935799969198,0
"i235",-4.64339575808155,0
"i236",-1.41928905969363,1
"i236",-2.350610721062,1
"i236",-3.79894514918261,1
"i236",-1.74557398835243,1
"i237",-1.57389982927875,1
"i237",-2.05660391653915,1
"i237",-3.32374375031157,1
"i237",-2.68653391040343,1
"i238",-6.88744212149182,0
"i238",-5.96716252928428,0
"i238",-7.14499017712329,0
"i238",-4.5153004062375,0
"i239",-1.8252290366431,0
"i239",-1.2456505717418,0
"i239",-1.63932873064025,0
"i239",-1.25552677551484,0
"i240",-2.78323669950644,0
"i240",-1.11856658366089,0
"i240",-0.426659629076315,0
"i240",-1.00344911953467,0
"i241",-1.98144695694439,0
"i241",-3.40141506601001,0
"i241",-1.99459398430087,0
"i241",-1.99178080526741,0
"i242",-3.86865724020731,0
"i242",-2.72359680984294,0
"i242",-3.06804337772494,0
"i242",-1.49609452267891,0
"i244",-3.71651020267366,0
"i244",-3.0259698678255,0
"i244",-1.92738322859579,0
"i244",-0.499359533909553,0
"i245",-5.48234812913828,0
"i245",-6.1104980108485,0
"i245",-4.99170995065629,0
"i245",-5.07851195080724,0
"i246",-4.14867244841227,0
"i246",-4.00000456769359,0
"i246",-1.82329841298986,0
"i246",-4.81352686449278,0
"i246",-3.65093881447698,0
"i246",-5.54316854709356,0
"i246",-3.21429905876042,0
"i246",-3.24979911289777,0
"i247",0.414690319337296,0
"i247",-1.6487696767921,0
"i247",-6.07813406516995,0
"i247",2.12834112706815,0
"i248",-3.96973512909921,0
"i248",-4.53168999665708,0
"i248",-5.14474403842064,0
"i248",-3.66811988720747,0
"i249",-1.34881487070609,0
"i249",-1.54058401155643,0
"i249",-0.508443262441466,0
"i249",-0.183020224208702,0
"i250",-4.06861285782302,0
"i250",-1.51073625634911,0
"i250",-2.35401837889455,0
"i250",-3.70471357833554,0
"i251",-4.56041574249954,0
"i251",-2.6758638567854,0
"i251",-4.07545720053902,0
"i251",-2.91957004674788,0
"i252",-1.25441709370488,1
"i252",-2.36742252281374,1
"i252",-1.82955528554078,1
"i252",-1.25742060389355,1
"i253",-4.41832466006675,0
"i253",-3.86393916343207,0
"i253",-3.98839276542581,0
"i253",-4.81299382040742,0
"i253",-4.30216078485661,0
"i253",-4.67197931538385,0
"i253",-5.18583023961104,0
"i253",-4.19031780815146,0
"i254",-5.78352797530811,0
"i254",-6.136959332291,0
"i254",-5.72065537176,0
"i254",-2.86196366710111,0
"i255",-5.2494622792139,0
"i255",-6.88629350512884,0
"i255",-4.16033600990988,0
"i255",-6.53999284819281,0
"i256",-8.69988338095179,0
"i256",-4.8797709107611,0
"i256",-9.06604118550602,0
"i256",-2.22403677499454,0
"i256",-5.34847796754683,0
"i256",-2.64417394676271,0
"i256",-6.26526896507898,0
"i256",-2.35332202763318,0
"i257",-3.84109946433935,0
"i257",-3.1405594460004,0
"i257",-2.16410062061239,0
"i257",-2.63208087196556,0
"i257",-4.13804324834183,0
"i257",-3.88606167460011,0
"i257",-3.34136187109945,0
"i257",-1.19095571272332,0
"i258",-4.15796000283663,0
"i258",-4.11888219302868,0
"i258",-6.18153855972568,0
"i258",-4.99385941912279,0
"i259",-2.62861628809191,0
"i259",-5.98859556052369,0
"i259",-3.55518328687253,0
"i259",-5.93479443987848,0
"i259",-2.64647086050438,0
"i259",-4.95834695159337,0
"i259",-3.54180117257565,0
"i259",-4.1301111832922,0
"i260",-3.60298374213758,0
"i260",-4.43749922175416,0
"i260",-2.7989176724317,0
"i260",-4.56126491855053,0
"i261",-7.59249598434729,0
"i261",-6.87253663216087,0
"i261",-5.70758989133083,0
"i261",-4.90753727059554,0
"i261",-4.53682799684943,0
"i261",-4.77782025974525,0
"i261",-7.88396530771577,0
"i261",-4.52158742187942,0
"i262",-3.5406588616557,0
"i262",-2.46161660329069,0
"i262",-4.82587662560248,0
"i262",-4.22457215542219,0
"i263",-5.03482248882973,0
"i263",-5.33756593907795,0
"i263",-3.26230391975236,0
"i263",-3.66543334993427,0
"i264",-3.47957299206469,0
"i264",-2.3641105771129,0
"i264",-0.545324436041962,0
"i264",-2.02324220747287,0
"i264",-2.01649185110098,0
"i264",-1.6597979130688,0
"i264",-1.66883431542859,0
"i264",-2.88565895512667,0
"i265",-1.28640675936477,0
"i265",0.246280661057307,0
"i265",0.855988692743324,0
"i265",-0.357067219174526,0
"i266",-2.92053103027141,0
"i266",-3.66600783817193,0
"i266",-5.43094784015859,0
"i266",-2.58914930467208,0
"i266",-3.2742292111819,0
"i266",-0.208428571148962,0
"i266",-4.81710642640738,0
"i266",-2.18482614288897,0
"i267",-6.22893115144557,0
"i267",-2.80131385301499,0
"i267",-4.75651469526217,0
"i267",-4.54064245473278,0
"i268",-13.5501275336648,0
"i268",-10.8920410246776,0
"i268",-10.3775987047905,0
"i273",-5.1972165782373,0
"i273",-4.95424713271711,0
"i275",-5.41835090092032,0
"i275",-5.87776474859295,0
"i275",-4.67611068697431,0
"i275",-4.08681022562521,0
"i276",-6.98233001817713,0
"i276",-5.71333220019172,0
"i276",-10.4134535757076,0
"i276",-4.93088933529555,0
"i277",-3.58317675826571,0
"i277",-3.38356465627551,0
"i277",-2.80821805040824,0
"i277",-1.92468695192217,0
"i278",-7.13520713499879,0
"i278",-10.1823205197393,0
"i278",-6.77342046754255,0
"i278",-8.76126471240896,0
"i278",-6.66403211937888,0
"i278",-9.89659405813381,0
"i278",-6.52710646880191,0
"i278",-7.78513121219513,0
"i279",-6.04203233756976,0
"i279",-5.83280104370379,0
"i279",-6.07658515344183,0
"i279",-5.8456976694682,0
"i280",-4.45533208060831,0
"i280",-6.39163308825008,0
"i280",-7.87160235656663,0
"i280",-9.96365475966239,0
"i281",-5.74994511518825,0
"i281",-5.51622571381787,0
"i281",-8.71696384605967,0
"i281",-4.44747913201044,0
"i282",-2.10468818630791,0
"i282",0.527181520886231,0
"i282",-0.596710538195335,0
"i282",-1.43348808927451,0
"i283",-5.21827371416893,0
"i283",-5.04089158703484,0
"i283",-4.25423035268337,0
"i283",-3.93256306949054,0
"i284",-5.78445283673619,0
"i284",-5.94121634073452,0
"i284",-4.39009892453157,0
"i284",-4.8984136240946,0
"i286",-4.33657527936041,0
"i286",-3.26427704834648,0
"i286",-2.4567268238192,0
"i286",-3.86667236614313,0
"i288",-9.60870593511872,0
"i288",-5.97769539989882,0
"i288",-5.6662614626616,0
"i288",-6.08034672374488,0
"i289",-4.84781448582711,0
"i289",-5.44756246694996,0
"i289",-5.50027964332902,0
"i290",-0.0161245470436491,0
"i290",-4.22476027163332,0
"i290",0.182695596717396,0
"i293",-3.32524817192781,0
"i293",-2.83846784326539,0
"i293",-3.62783071326374,0
"i293",-2.76421938667766,0
"i296",-9.27434386595365,0
"i296",-9.17949996329246,0
"i296",-10.9925102807531,0
"i296",-10.118027711615,0
"i297",-7.48197560746888,0
"i297",-9.06242412179298,0
"i297",-10.4892413207632,0
"i297",-8.00724341586039,0
"i298",1.23482239729303,0
"i298",-2.82329524945551,0
"i298",-2.64909230127922,0
"i298",-0.295624982613216,0
"i301",-9.0475119541054,0
"i301",-5.05273831195885,0
"i301",-5.3799873300511,0
"i301",-4.29971845788845,0
"i301",-8.48461423699139,0
"i301",-4.17373298471709,0
"i301",-8.00923684923388,0
"i301",-5.71953652962946,0
"i302",-2.97137932702198,0
"i302",-5.4817457602543,0
"i302",-2.16437534658884,0
"i302",-5.71018736526419,0
"i302",-1.56514000323385,0
"i302",-6.67692032875123,0
"i302",-2.24847719825457,0
"i302",-7.09727051454889,0
"i303",-9.26433451625606,0
"i303",-9.2019649965604,0
"i303",-8.99937479155631,0
"i303",-9.60123982696098,0
"i304",-7.5091392689423,0
"i304",-5.10868239229141,0
"i304",-7.5340794445758,0
"i304",-7.06537339053938,0
"i305",-5.59764946274749,0
"i305",-3.26880373540749,0
"i305",-3.67402203810892,0
"i305",-2.53272758305335,0
"i306",-3.32772394895345,0
"i306",-7.01423076403966,0
"i306",-5.12116347130961,0
"i306",-2.25133769412201,0
"i307",-10.3068710756836,0
"i307",-8.90434346761217,0
"i307",-10.4472522949447,0
"i307",-10.5845320885256,0
"i308",-7.06279787372214,0
"i308",-6.04453876644899,0
"i308",-6.93366962602759,0
"i308",-6.82317104772877,0
"i309",-3.66794372602731,0
"i309",-4.04794474147835,0
"i309",-2.70755052691729,0
"i309",-1.53482832977833,0
"i310",-7.12389341694094,0
"i310",-4.44613498539432,0
"i310",-5.18266970842165,0
"i310",-6.11671490744513,0
"i311",-3.98374880163732,0
"i311",-3.7712323250698,0
"i311",-2.63314365325665,0
"i311",-1.79361948879313,0
"i312",-11.1177101792034,0
"i312",-10.6883537521843,0
"i312",-8.94993502471453,0
"i312",-12.0197233645776,0
"i313",-10.4396062188401,0
"i313",-9.53971486943146,0
"i313",-8.65878474126705,0
"i313",-10.2997954083316,0
"i314",-5.35152184907135,0
"i314",-7.87741629941092,0
"i314",-8.2164296208776,0
"i314",-5.08642543875114,0
"i315",-6.9551848481077,0
"i315",-8.06971326642581,0
"i315",-6.09118130800739,0
"i315",-3.42488769193622,0
"i316",-6.68303319306641,0
"i316",-7.25382121904377,0
"i316",-6.75072981321949,0
"i316",-6.83479893395919,0
"i317",-10.997841537138,0
"i317",-9.65371470927227,0
"i317",-8.96287827242657,0
"i317",-6.25024715349272,0
"i318",-3.03843684673776,0
"i318",-3.0556887634285,0
"i318",-3.13300228331295,0
"i318",-3.99933809184478,0
"i319",-2.43411206063559,0
"i319",-0.677591404718207,0
"i319",-0.593236417619007,0
"i319",-0.989555838201955,0
"i320",-9.17973709059574,0
"i320",-8.18294087237296,0
"i320",-7.11451239076905,0
"i320",-7.36703389326989,0
"i321",-7.78381106180487,0
"i321",-5.28729648272414,0
"i321",-7.84541679822335,0
"i321",-6.11382769054467,0
"i322",-7.62318781859297,0
"i322",-7.57180827641884,0
"i322",-7.05650729159319,0
"i322",-7.71714500219003,0
"i323",-10.0878998603722,0
"i323",-8.76734754186214,0
"i323",-7.68309733244545,0
"i323",-10.354440063016,0
"i323",-7.89142939247811,0
"i323",-10.244847025866,0
"i323",-11.433832330052,0
"i323",-10.1350019587536,0
"i324",-7.96908676475813,0
"i324",-8.23311287878045,0
"i324",-7.26464133458293,0
"i324",-5.26365702562677,0
"i326",-12.5815878508582,0
"i326",-12.146446338721,0
"i326",-12.8461633009579,0
"i326",-11.8446290577807,0
"i327",-6.31500035055791,0
"i327",-3.80910046574147,0
"i327",-4.656467845153,0
"i327",-3.56790727803957,0
"i328",-4.76838679290761,0
"i328",-2.36698718444941,0
"i328",-7.56034772105954,0
"i328",-5.29419740929789,0
"i329",-5.76953939273333,0
"i329",-2.95412240314027,0
"i329",-3.62525268330212,0
"i329",-5.56600943872213,0
"i330",-9.4524177665287,0
"i330",-10.0447115535657,0
"i330",-10.2439695611916,0
"i330",-8.54565012123061,0
"i331",-8.86604566780365,0
"i331",-15.8524256099809,0
"i331",-16.1563715602853,0
"i331",-15.9721906824042,0
"i332",-4.77535332120383,0
"i332",-6.02412521739183,0
"i332",-6.94934406513904,0
"i332",-6.63385638378423,0
"i333",-6.99243105955249,0
"i333",-7.63220593028363,0
"i333",-12.2397934013238,0
"i333",-6.24426304552955,0
"i334",-10.5187932921896,0
"i334",-10.7579645671797,0
"i334",-12.2700020441829,0
"i334",-8.11321617783571,0
"i335",-4.88867993344954,0
"i335",-5.0310903237964,0
"i335",-6.10183924209308,0
"i335",-3.73751108889529,0
"i336",-4.64033900886169,0
"i336",-4.97522266444511,0
"i336",-3.5431789020534,0
"i336",-6.18442632671753,0
"i337",-3.53584117300797,0
"i337",-2.91873826077393,0
"i337",-2.80886624362325,0
"i337",-3.09354230028371,0
"i338",-3.46777138083923,0
"i338",-3.35925103888216,0
"i338",-5.29598349784783,0
"i338",-3.90738284944437,0
"i339",-4.07117671174094,0
"i339",-6.44553905891196,0
"i339",-7.02828675883271,0
"i339",-7.8831228719576,0
"i340",-2.28018231222512,0
"i340",-1.39157126937796,0
"i340",-1.58415663159574,0
"i340",-2.12835074236246,0
"i341",-3.82669536037368,0
"i341",-3.65866564032975,0
"i341",-3.69511945079879,0
"i341",-2.42234651981416,0
"i342",1.01449441126948,1
"i342",0.857244413851701,1
"i342",0.570223179524989,1
"i342",1.36102476241119,1
"i343",1.06207102797919,0
"i343",-0.394948584191656,0
"i343",0.02073189688201,0
"i343",0.299163877663318,0
"i344",-0.877313209079839,0
"i344",-2.30970012025855,0
"i344",-4.26379161569612,0
"i344",-1.83141182980015,0
"i345",-4.46019602771982,0
"i345",-4.52096267238123,0
"i345",-1.89285184973229,0
"i345",-2.2263715265183,0
"i346",-2.86968771363702,0
"i346",-4.01303025731288,0
"i346",-3.31151507957064,0
"i346",-2.70671532408215,0
"i347",1.37385009629356,1
"i347",1.3829421906293,1
"i347",0.587734394507345,1
"i347",1.06051528455518,1
"i348",-1.80882253752037,0
"i348",-3.12844272566123,0
"i348",-2.28904744652464,0
"i348",-0.97966055924757,0
"i349",-1.89635305323487,0
"i349",-1.64610731521635,0
"i349",-1.57666695276679,0
"i349",-1.52579590839823,0
"i350",-0.646871479222501,1
"i350",-0.280275342710247,1
"i350",-0.474656527227872,1
"i350",-0.710219330571084,1
"i351",0.0210562839677468,1
"i351",0.431430628491068,1
"i351",0.724800117041767,1
"i351",0.286059555439346,1
"i352",-0.126719415601716,1
"i352",0.336337267087041,1
"i352",-0.336249958578598,1
"i352",0.0675025500335078,1
"i353",-4.79685067820616,0
"i353",-2.88626685221139,0
"i353",-3.28036115957489,0
"i353",-3.03545657385305,0
"i354",-2.02055079242034,0
"i354",-3.46540147861338,0
"i354",-3.70262356219657,0
"i354",-2.83705491947841,0
"i355",-1.20912960635069,0
"i355",-0.947451312411314,0
"i355",-4.42250203124417,0
"i355",-3.81558258136238,0
"i356",-2.80768355236889,0
"i356",-2.75536464268947,0
"i356",-3.19555904608449,0
"i356",-3.94592859422848,0
"i358",-7.06123215391889,0
"i358",-3.42362421248077,0
"i358",-6.37157185802836,0
"i358",-4.06952201392574,0
"i358",-3.83103782854186,0
"i358",-3.93405262437998,0
"i358",-6.7006555179406,0
"i358",-4.08203212032169,0
"i359",-3.36232103988607,0
"i359",-2.84992528119897,0
"i359",-2.10547029960602,0
"i359",-3.46426473292802,0
"i360",0.293065475135412,0
"i360",-0.0950061768507453,0
"i360",-0.300564789469128,0
"i360",-0.61501291502443,0
"i361",-0.558326168404568,0
"i361",-1.02397349493468,0
"i361",-0.247640262545028,0
"i361",-0.436307226763452,0
"i362",-2.20405610824682,0
"i362",-1.96803283447938,0
"i362",-3.77125309556046,0
"i362",-1.0731389646111,0
"i363",-1.90148734914387,0
"i363",-2.01375821881354,0
"i363",-0.847246855227423,0
"i363",-1.36476677796304,0
"i364",-2.54284667490589,0
"i364",-1.64770574938952,0
"i364",-1.61364273736074,0
"i364",-1.26044834993476,0
"i365",-2.56672268815952,0
"i365",-0.544900602134261,0
"i365",-1.07647995775336,0
"i365",-1.79238912943354,0
"i366",-0.483391638792286,0
"i366",-1.44698405787782,0
"i366",-1.35705886269087,0
"i366",-1.30920907850354,0
"i367",-5.05505554184884,0
"i367",-7.41366170730657,0
"i367",-5.7525278115035,0
"i367",-4.92824116381649,0
"i368",-1.30301809584279,0
"i368",-0.973849350493998,0
"i368",-2.35245516929013,0
"i368",-3.69025839497628,0
"i369",0.200500019621774,0
"i369",-0.585265368920821,0
"i369",-0.96568223675232,0
"i369",-0.566957338241748,0
"i369",-0.0792397489574554,0
"i369",-0.0990426428381141,0
"i369",-1.64403585305717,0
"i369",0.177365689352515,0
"i371",-0.669995650008781,0
"i371",0.280353676349165,0
"i371",-0.278366925584729,0
"i371",1.04592903700908,0
"i372",-0.818996649954736,0
"i372",0.403094284209846,0
"i372",-0.494856903931149,0
"i372",-0.697605275333043,0
"i373",-6.31936205245181,0
"i373",-4.31895767325241,0
"i373",-5.91046337705287,0
"i373",-7.09461446722437,0
"i374",-5.60668942437265,0
"i374",-2.15684656465888,0
"i374",-0.526887842602795,0
"i374",-1.52866014488291,0
"i375",-4.99709873561843,0
"i375",-3.6037411932153,0
"i375",-5.02762030660633,0
"i375",-3.56122328154976,0
"i376",-1.10951138012251,0
"i376",-2.01063896734301,0
"i376",-1.59301381799488,0
"i376",-1.71835867515521,0
"i377",-1.37338962572883,0
"i377",-2.6193112774876,0
"i377",-1.03382216821498,0
"i377",-2.36987941083063,0
"i378",-2.01988970272896,0
"i378",-0.916487300250656,0
"i378",-1.33416894647544,0
"i378",-1.24807735940721,0
"i379",-4.6903951577478,0
"i379",-3.78787449639995,0
"i379",-4.98778060744938,0
"i379",-2.70878626311876,0
"i380",0.46902165236534,1
"i380",-1.835652350746,1
"i380",-0.510028599080188,1
"i380",-0.333926228258351,1
"i381",-5.81409243626387,0
"i381",-4.03035125506881,0
"i381",-3.71817993358874,0
"i382",-4.36304346242779,0
"i382",-1.97214946851669,0
"i382",-2.59624257473493,0
"i382",-4.81860767235731,0
"i383",-0.0822214939990396,0
"i383",-1.26997573008744,0
"i383",-0.898579017397076,0
"i383",-1.86126943715563,0
"i384",-2.07466858217052,0
"i384",-0.759566918949135,0
"i384",-2.0636596017924,0
"i384",-3.40308668296407,0
"i385",-6.00385025778107,0
"i385",-5.98659378895475,0
"i385",-5.15372475455366,0
"i385",-6.31934075071104,0
"i386",-6.66869086907516,0
"i386",-2.01018410104258,0
"i386",-5.64661533782081,0
"i386",-0.241482211933796,0
"i387",-7.48565383536139,0
"i387",-9.8599484371994,0
"i387",-10.7930575050789,0
"i387",-8.77431689029905,0
"i388",-1.9076252022006,0
"i388",-1.75111880706787,0
"i388",-2.42126615463183,0
"i388",-2.05120846833546,0
"i389",-3.55646936633023,0
"i389",-0.00432408390424399,0
"i389",-0.741020424757867,0
"i389",-1.85045119071343,0
"i390",-2.90860634421947,0
"i390",-1.75919583530627,0
"i390",-1.55306853326507,0
"i390",-2.24665684942485,0
"i391",-5.32097537653133,0
"i391",-2.36518395648763,0
"i391",-2.77821997567774,0
"i391",-1.72505552183557,0
"i392",-3.83155919443658,1
"i392",-3.81203434709628,1
"i392",-3.24137849016272,1
"i392",-1.34257833985961,1
"i393",-0.435929158734389,1
"i393",-0.14808883644984,1
"i393",-1.23594765101238,1
"i393",-0.183819766644449,1
"i394",-1.48194282818968,0
"i394",-0.720331300643107,0
"i394",-0.815510447935175,0
"i394",-1.58775978096839,0
"i395",-8.99435223879981,0
"i395",-10.9648372227796,0
"i395",-7.73657173554672,0
"i395",-4.8216545724867,0
"i396",-1.12447463438516,0
"i396",-1.67711202945958,0
"i396",-2.04858085248001,0
"i396",-2.16139910044277,0
"i397",-1.06554926769791,0
"i397",0.548612189771738,0
"i397",-0.728848200704952,0
"i397",-0.393300206756537,0
"i398",-1.59306474603359,0
"i398",-0.77266987980974,0
"i398",0.213133862983666,0
"i398",-0.531960995898768,0
"i399",-0.322743999010164,0
"i399",-2.01772325687628,0
"i399",-1.19723994201224,0
"i399",-1.28861999571257,0
"i400",-0.974653205738955,0
"i400",-0.784279588426465,0
"i400",-0.471344055607446,0
"i400",-0.376336051845508,0
"i401",-1.70946747524879,0
"i401",-1.70113198014532,0
"i401",-0.810587583866505,0
"i401",-0.166368732070845,0
"i402",-3.48964595581583,0
"i402",-4.75964294100733,0
"i402",-5.42862878557836,0
"i402",-4.16572902293108,0
"i403",-10.0658348165715,0
"i403",-8.13551304431504,0
"i403",-8.0679526522383,0
"i403",-7.73807871116209,0
"i405",-5.46172390771652,0
"i405",-4.39187236829385,0
"i405",-3.83702357155458,0
"i405",-5.12762923585774,0
"i406",-5.15803194337419,0
"i406",-3.00722537615495,0
"i406",-3.30519836143357,0
"i407",-3.13900407437028,0
"i407",-4.45288037305962,0
"i407",-1.62276274713573,0
"i407",-5.36424421367157,0
"i408",-1.60792608628662,0
"i408",-2.1466066251753,0
"i408",-2.72192397261298,0
"i408",-2.3307898225558,0
"i409",-3.2400959547488,0
"i409",-5.96685755344967,0
"i409",-3.53375142025769,0
"i409",-5.89764461567922,0
"i409",-2.07646644585986,0
"i409",-6.7858838701478,0
"i409",-2.51652500085282,0
"i409",-5.94524364543483,0
"i412",1.47708101346882,1
"i412",2.63454124178238,1
"i412",-0.0335267048845989,1
"i412",2.02010021994113,1
"i414",-1.93007127119117,0
"i414",-0.154733700152956,0
"i414",-0.743781262444392,0
"i414",-0.909323877108019,0
"i414",-0.586357841399693,0
"i414",-2.39487659645646,0
"i414",0.191995318368914,0
"i414",-1.44088201675931,0
"i415",-2.737080599389,0
"i415",-5.94541739195435,0
"i415",-3.60157299172847,0
"i415",-5.35941413927318,0
"i415",-2.47696319295051,0
"i415",-6.49238803196896,0
"i415",-1.03834679421752,0
"i415",-5.94230907535931,0
"i416",-2.17233182636538,0
"i416",-4.94205739112329,0
"i416",-3.15888030089457,0
"i416",-4.79286656124863,0
"i416",-3.07118159235858,0
"i416",-4.8515755419556,0
"i416",-0.591514805467151,0
"i416",-4.19158942989301,0
"i417",-2.04567731051903,0
"i417",-2.20594891387983,0
"i417",-2.54116592075585,0
"i417",-1.13047438927965,0
"i418",-2.88332541890392,0
"i418",-3.8182697602482,0
"i418",-3.54674345142893,0
"i418",-1.96881760396021,0
"i419",-2.7948889436964,0
"i419",-2.07739778667329,0
"i419",-2.63606921295479,0
"i419",-2.8633706576849,0
"i420",-5.0941152345458,0
"i420",-4.2926124503536,0
"i420",-5.75648419603478,0
"i420",-4.41931304963886,0
"i422",-1.93728217223574,0
"i422",-5.86820641314063,0
"i422",-4.91804422740361,0
"i422",-6.63814036569209,0
"i422",-7.84162973391924,0
"i422",-5.87357833004792,0
"i422",-5.26978025142649,0
"i422",-6.60603200797084,0
"i423",-5.2063784730654,0
"i423",-3.42408703197883,0
"i423",-4.65561572577423,0
"i423",-6.40667299421019,0
"i424",-3.53341194170058,0
"i424",-3.90620234747119,0
"i424",-3.09038410266893,0
"i424",-4.07654952751879,0
"i425",-5.30089813684999,0
"i425",-4.42567177692417,0
"i425",-4.07946766890122,0
"i425",-4.64935818141271,0
"i426",-2.25589778437637,0
"i426",-0.992347821501143,0
"i426",0.272912172948653,0
"i426",-0.235615353897403,0
"i427",-8.5499584330132,0
"i427",-7.9721248307862,0
"i427",-6.7527114602265,0
"i427",-8.587927344849,0
"i428",-11.0933761790538,0
"i428",-12.193974233064,0
"i428",-12.5768503466316,0
"i429",-4.62843938940592,0
"i429",-0.93592337197018,0
"i429",-1.33374177747163,0
"i429",-2.69385312319302,0
"i431",-2.29818789270877,0
"i431",0.3321060731815,1
"i431",-0.448732972038504,0
"i431",2.00379296513156,1
"i431",-0.840634175987947,0
"i431",1.28157243670875,1
"i431",-1.46842322419339,0
"i431",0.333323067635142,1
"i432",-4.76106599118438,0
"i432",-4.15624017960933,0
"i432",-4.08240146530337,0
"i432",-4.05157586454462,0
"i433",-6.00330333966974,0
"i433",-3.71128040582663,0
"i433",-6.33531377084377,0
"i433",-2.96292665620894,0
"i434",-8.32194670522237,0
"i434",-7.2992263915699,0
"i434",-7.85493024132307,0
"i434",-9.29422990405806,0
"i435",-4.8708535949487,0
"i435",-1.24153743574373,0
"i435",-2.47996009101383,0
"i435",-1.55895230464218,0
"i436",-2.93346338060879,0
"i436",-2.46107998787853,0
"i436",-3.40809170972835,0
"i436",-3.49717976907759,0
"i437",-6.22817334105419,0
"i437",-5.24891585217833,0
"i437",-6.50438558530165,0
"i437",-3.21058401383078,0
"i438",-1.73736335997149,1
"i438",0.73421155046907,1
"i438",1.49420981118998,1
"i438",0.493999508738332,1
"i439",-0.216022982905541,1
"i439",0.291556186414484,1
"i439",-0.196212103986612,1
"i439",-0.121034933562392,1
"i441",-2.85353200760787,0
"i441",-6.49724328270543,0
"i441",-7.27086554958733,0
"i441",-8.74296328736936,0
"i442",-4.54062553036979,0
"i442",-3.6692215646613,0
"i442",-2.55193643276372,0
"i442",-4.87519646729351,0
"i443",-2.20047627721075,1
"i443",-1.07627235651082,1
"i443",-0.775457212834453,1
"i443",-2.22043376337981,1
"i444",-5.91782887490788,0
"i444",-6.22766859119369,0
"i444",-6.84306890138823,0
"i444",-5.83075131174136,0
"i445",-2.06779921005453,0
"i445",-4.57478815786447,0
"i445",-2.90126457579124,0
"i445",-3.01973883136016,0
"i446",-1.92359678177219,0
"i446",-3.85365749037673,0
"i446",-3.27876872097556,0
"i446",-3.53224568606484,0
"i447",-4.09153537586554,0
"i447",-2.80605558775014,0
"i447",-5.49795673530421,0
"i447",-2.63025171103932,0
"i448",-0.948617229522791,1
"i448",-2.0525112328666,1
"i448",-1.88910483381613,1
"i448",0.0991575931558355,1
"i449",-0.263456672303441,1
"i449",-0.761848767031875,1
"i449",-1.99230330434679,1
"i449",-0.630480450529561,1
"i450",-3.28704308443672,0
"i450",-5.9685066750448,0
"i450",-4.71094756789626,0
"i450",-2.80427868331013,0
"i451",-2.5047058279701,1
"i451",-1.21481902913876,1
"i451",-1.71846554334429,1
"i451",-0.697484357933417,1
"i452",-1.03912910624772,1
"i452",-1.09772509737574,1
"i452",-0.401430286791342,1
"i452",-1.02675976585666,1
"i453",-2.92971924324142,1
"i453",-0.664646500553063,1
"i453",-3.77488438968715,1
"i453",-3.26768686515263,1
"i454",-2.31445829871419,0
"i454",-2.01018001905446,0
"i454",-2.79855399860931,0
"i454",-2.58630470139664,0
"i455",0.787999348273354,1
"i455",0.444893423183039,1
"i455",1.29619982567701,1
"i455",1.5918582090246,1
"i456",-1.96993780852301,0
"i456",-1.15940798339562,0
"i456",-0.536112947477593,0
"i456",-1.11885596212302,0
"i457",-0.875789488661065,1
"i457",-1.69291287728931,1
"i457",-3.02470710310062,1
"i457",-1.07598412132854,1
"i458",0.981658992579522,1
"i458",-0.453758505623178,1
"i458",-0.683750814334031,1
"i458",-1.15450959451215,1
"i459",-1.94213538470876,1
"i459",-0.51456367691471,1
"i459",-0.352554432784972,1
"i459",0.216720649930458,1
"i460",-1.97610050746597,1
"i460",-3.31874653135264,1
"i460",-2.36581533920107,1
"i460",-2.88828057637452,1
"i462",-1.85347600014091,0
"i462",-0.441694281597776,0
"i462",-0.190109665292022,0
"i462",-2.18612950016151,0
"i462",-1.40504308606863,0
"i462",-1.20384273116429,0
"i462",-1.2768270939864,0
"i462",-0.288065738142189,0
"i463",-0.765859578228678,0
"i463",-2.20984141478912,0
"i463",-0.831356113731436,0
"i463",-2.65974768705539,0
"i463",-0.59580148071959,0
"i463",-2.02553358320024,0
"i463",-0.029106888222076,0
"i463",-3.8538435203629,0
"i465",1.31216311276631,0
"i465",1.11258177669424,0
"i465",1.3891106517291,0
"i465",-0.585191310992609,0
"i466",-2.21814903533356,0
"i466",-1.62872456858607,0
"i466",-1.78508873888329,0
"i466",-3.54187462727866,0
"i467",-2.72067701826072,0
"i467",-1.61282622628156,0
"i467",-3.52647384276901,0
"i467",-2.24069896609941,0
"i468",-1.15513204873136,0
"i468",-1.90873556452807,0
"i468",-0.938559528789622,0
"i468",-2.42338150477022,0
"i469",-8.57672898283424,0
"i469",-8.71059394204228,0
"i469",-7.98035854900962,0
"i469",-6.14408295038673,0
"i470",-1.81470522674748,0
"i470",-1.70629319642922,0
"i470",-3.26096462345684,0
"i470",-1.84018971084542,0
"i471",-2.24281143602064,0
"i471",-2.58228471914481,0
"i471",-1.65383572417089,0
"i471",-1.06316203890802,0
"i472",-0.284639631723703,0
"i472",-1.7719356702355,0
"i472",0.363580103813232,0
"i472",-1.0539978222034,0
"i473",-1.40129785910086,0
"i473",-1.89504438834937,0
"i473",-1.97062738653707,0
"i473",-1.59620721756536,0
"i474",0.756756342039218,1
"i474",0.563407030771961,1
"i474",0.766306667150563,1
"i474",1.83532995745044,1
"i475",-0.724734786562795,1
"i475",0.434234574980312,1
"i475",-0.366526822887108,1
"i475",-1.05393922145118,1
"i476",0.197866957474956,0
"i476",-0.352582144117044,0
"i476",0.638033533658874,0
"i476",-0.0237764438256036,0
"i477",-7.38510770414279,0
"i478",-1.40713802319178,1
"i478",-1.86203968996881,1
"i478",-1.54083953775934,1
"i478",-2.21644920453078,1
"i479",-6.06458195503272,0
"i479",-6.71865730075092,0
"i479",-2.90245953805908,0
"i479",-5.74454914573868,0
"i480",-3.0744336688791,0
"i480",-1.58867029919904,0
"i480",-1.36462046346819,0
"i480",-4.06424670008426,0
"i481",-3.45671539442455,0
"i481",-2.31383043422193,0
"i481",-2.38738080491705,0
"i481",-2.8005371227438,0
"i483",0.00832969768985237,0
"i483",-0.0413068713247746,0
"i483",-0.151354815915496,0
"i483",-0.293838635585168,0
"i484",-3.11502203799887,1
"i484",-3.4147031063617,1
"i484",-2.26139228010192,1
"i484",-4.77400970896612,1
"i484",-1.00728927401971,1
"i484",-3.63687115970213,1
"i484",-1.78808461277743,1
"i484",-3.03310578744573,1
"i485",-8.43098740925424,0
"i485",-7.273942456792,0
"i485",-10.0090198143016,0
"i486",-2.92443634104484,0
"i486",-5.83219119337134,0
"i486",-4.50588672858359,0
"i486",-2.34949858543108,0
"i487",-5.08506357709168,0
"i487",-2.97428891863535,0
"i487",-4.31830883677409,0
"i487",-2.58891585253433,0
"i488",-3.7141772083229,0
"i488",-2.29543216140461,0
"i488",-3.9959591429125,0
"i488",-3.21882887375013,0
"i489",-5.37211166298343,0
"i489",-8.77212728835338,0
"i489",-8.3361320175956,0
"i489",-2.86346242831029,0
"i490",-1.36877529369783,0
"i490",-0.338412441994834,0
"i490",-2.95939267884289,0
"i490",-1.28345677025216,0
"i491",-2.41877633603173,0
"i491",-2.26743189090025,0
"i491",-4.01235630548358,0
"i491",-3.59469760880268,0
"i492",-14.2303497383049,0
"i492",-12.9711301877385,0
"i492",-12.3409541525058,0
"i492",-13.2303502275287,0
"i493",-1.86597423852136,0
"i493",-1.88833285268871,0
"i493",-1.67256582208547,0
"i493",-1.6352140893143,0
"i494",-0.0652917422894621,0
"i494",-0.355692390472955,0
"i494",-1.27698719815834,0
"i494",0.914301594440012,0
"i495",-0.464602904292127,0
"i495",-1.73455179465209,0
"i495",-1.98095974651255,0
"i495",-0.948283123643147,0
"i496",-4.106643053695,0
"i496",-7.00272454266098,0
"i496",-5.55569215209764,0
"i496",-5.57038831453823,0
"i497",-7.02194204877709,0
"i497",-6.34969769905911,0
"i497",-4.88914075932788,0
"i497",-4.22860163710356,0
"i498",-3.22989292597573,0
"i498",-4.17705043506558,0
"i498",-2.61441764714328,0
"i498",-3.04896988377674,0
"i499",-5.82025142742371,0
"i499",-4.47864840077046,0
"i499",-4.75754836766388,0
"i499",-4.90811340389894,0
"i500",-4.51873334861597,0
"i500",-3.92365587825211,0
"i500",-3.47823858670524,0
"i500",-3.22794085543556,0
"i501",-5.97800579257015,0
"i501",-5.38699614619334,0
"i501",-9.03644900878688,0
"i501",-8.0902721530076,0
"i502",-5.47142910481744,0
"i502",-6.53938788761323,0
"i502",-5.60433955338174,0
"i502",-5.31396630791044,0
"i503",-4.06884716122144,0
"i503",-4.01719517840833,0
"i503",-4.65264178355651,0
"i503",-4.60884138724539,0
"i504",-3.99687752014028,0
"i504",-3.8190049091141,0
"i504",-4.82185639532699,0
"i504",-3.99223303130109,0
