"","QUANT.RES","BINARY.SURVIVAL"
"u001",3.21966617224183,1
"u003",4.63195863627653,1
"u003",3.45981623335474,1
"u003",7.8732984076309,1
"u003",3.62919385435319,1
"u004",0.77771471335112,1
"u004",4.43946908427178,1
"u004",3.91815208091764,1
"u004",4.23594517991103,1
"u005",5.06598514509628,1
"u005",4.66062226768574,1
"u005",4.89414378032496,1
"u005",5.19336812408822,1
"u005",5.3255131774281,1
"u005",4.48198163221432,1
"u005",5.30678403789563,1
"u005",4.26002695670441,1
"u006",5.11150851711088,1
"u006",5.16061881448084,1
"u006",4.82618798701916,1
"u006",5.1912303323671,1
"u006",4.85956200794609,1
"u006",6.0009634864691,1
"u006",3.98507012696811,1
"u006",5.03976311153874,1
"u007",6.00825478564911,1
"u007",5.89161829765314,1
"u007",4.585061895051,1
"u007",5.46489997644298,1
"u009",4.91109855780223,1
"u009",4.53359898314383,1
"u009",3.62623445115423,1
"u009",2.74020282342995,1
"u011",6.29091130454076,1
"u011",4.93414058387847,1
"u011",4.74918909689743,1
"u011",4.70065377239371,1
"u011",3.23451539211397,1
"u011",4.70998672002286,1
"u011",4.39602004142253,1
"u011",4.54028903167926,1
"u013",4.08418587787815,1
"u013",5.29303097350579,1
"u013",6.45912157044165,1
"u013",5.78567546047145,1
"u014",3.83019383574434,1
"u014",4.16267131054739,1
"u014",2.99934026098535,1
"u014",2.66381340309672,1
"u015",5.83514997918892,1
"u015",8.01429129327419,1
"u015",6.55680285893182,1
"u015",5.27142064186838,1
"u016",4.33971653808148,1
"u016",3.70589697731365,1
"u016",3.98079396486678,1
"u016",3.87410457593828,1
"u018",4.32477310660535,1
"u018",6.39843099162026,1
"u018",5.47638661747003,1
"u018",6.25962478112359,1
"u019",4.44683388134166,1
"u019",4.43114239392289,1
"u019",5.47408580960595,1
"u019",3.02214329668274,1
"u020",6.48441763482303,1
"u020",5.33625557369521,1
"u020",5.89717728582382,1
"u020",4.32155438928609,1
"u021",4.52381599408928,1
"u021",4.11324071351044,1
"u021",4.30318358743486,1
"u021",4.17136717457718,1
"u022",6.63630417814929,1
"u022",6.02474415033864,1
"u022",4.38911952816641,1
"u022",0.849878590406652,1
"u023",3.41984472618584,1
"u023",5.57739272654531,1
"u023",4.78643378386148,1
"u023",4.60357486433174,1
"u024",5.02393562792448,1
"u024",4.87485018973723,1
"u024",3.92749493197659,1
"u024",5.70395323433163,1
"u025",5.64463034149133,1
"u025",4.16828704133937,1
"u025",3.82917818557243,1
"u025",4.50429899039076,1
"u026",3.59660196895166,1
"u026",3.45321663434197,1
"u026",3.17459936997615,1
"u026",2.72199133717591,1
"u027",4.06157169337601,1
"u027",3.93785237905767,1
"u027",4.99331948464127,1
"u027",4.91481718894279,1
"u028",4.64912773410201,1
"u028",4.02246319284316,1
"u028",4.36397118390448,1
"u028",4.12657557578852,1
"u029",3.48215315937652,1
"u029",3.62692934521835,1
"u029",2.94341662630798,1
"u029",3.85060347500946,1
"u030",3.45864660644294,1
"u030",2.71851387711475,1
"u030",3.34849205298292,1
"u030",3.46327373346624,1
"u031",6.06819036940383,1
"u031",6.370395911046,1
"u031",4.75227007517013,1
"u031",4.59982932999068,1
"u032",3.98965458261751,1
"u032",2.85594852241202,1
"u032",3.26819937175768,1
"u032",2.63845412376866,1
"u033",3.1094970515617,1
"u033",2.63027698404527,1
"u033",3.94756908095646,1
"u033",5.50158694096742,1
"u034",4.95647467896088,1
"u034",5.26725415006813,1
"u034",6.40619382714462,1
"u034",5.59964349892731,1
"u035",4.55819050975438,1
"u035",3.20701759347219,1
"u035",3.88549852966844,1
"u035",3.64927698904431,1
"u036",4.69799394211418,1
"u036",4.37858978762415,1
"u036",4.76973404536019,1
"u036",4.34006260230855,1
"u037",5.05231200029476,1
"u037",5.18946022345699,1
"u037",5.10464998088272,1
"u037",4.93112130690545,1
"u039",3.2772460306752,1
"u039",4.71875253708026,1
"u039",3.38772080073825,1
"u041",5.50095700420427,1
"u041",3.62985771736142,1
"u041",5.17522846368405,1
"u041",4.08652502872754,1
"u042",2.42016488752656,1
"u042",2.65512741521575,1
"u042",2.535700996693,1
"u042",2.6592269962163,1
"u043",3.22485503069713,1
"u043",5.89479153029395,1
"u043",5.43091611313131,1
"u043",3.55171467819807,1
"u047",5.77358309447066,1
"u047",4.66568388510492,1
"u047",5.45707655964166,1
"u047",4.2479161015825,1
"u047",5.52864311206175,1
"u047",5.0652737902418,1
"u047",6.36287537956581,1
"u047",5.24439529536439,1
"u051",2.89064849214827,1
"u051",4.14071274480171,1
"u051",3.97743734206933,1
"u051",3.35606333142906,1
"u052",4.98369720643791,1
"u052",5.00970510294419,1
"u052",6.30556513940772,1
"u052",4.18097059675512,1
"u052",5.78154448999178,1
"u052",5.48910534670118,1
"u052",5.95252232094343,1
"u052",5.86809621495195,1
"u053",5.866197134499,1
"u053",5.96863722629058,1
"u053",6.08171754673151,1
"u053",5.99857013413153,1
"u053",7.22814845545601,1
"u053",4.85754645811905,1
"u053",5.49277006316446,1
"u053",6.14716701876524,1
"u054",4.75226228113148,1
"u054",5.19264365752703,1
"u054",7.12810277525238,1
"u054",5.56869796310029,1
"u054",4.32585102508824,1
"u054",5.40184617061039,1
"u054",5.895533696668,1
"u054",4.27063752407069,1
"u055",4.98644730566034,1
"u055",4.57637345971026,1
"u055",6.59102673570485,1
"u055",5.43177872925454,1
"u055",5.53770058788878,1
"u055",5.76679938669015,1
"u055",6.68937212258122,1
"u055",5.6847453031792,1
"u056",4.03915018483526,1
"u056",3.735636725396,1
"u056",4.84193424383202,1
"u056",3.77394530342028,1
"u057",5.64172246705197,1
"u057",5.71545885200405,1
"u057",5.5293268529237,1
"u057",5.74787972964576,1
"u058",5.10350428986259,1
"u058",4.99284899799584,1
"u058",4.51967706632941,1
"u058",4.11011825009437,1
"u058",3.60532951111173,1
"u058",2.37656805212827,1
"u058",4.79537164671764,1
"u058",4.50198274741164,1
"u059",5.55871132726363,1
"u059",4.8126395822652,1
"u059",5.8768146377497,1
"u059",5.16217149326846,1
"u060",4.41804209064071,1
"u060",3.25436833815432,1
"u060",4.48993584266013,1
"u060",4.71254219800451,1
"u061",5.07822591214634,1
"u061",4.35453835049196,1
"u061",5.03832371605049,1
"u061",4.24883890909487,1
"u065",7.15563252667637,1
"u065",5.99762449970413,1
"u065",4.90307406092777,1
"u065",7.52247414593864,1
"u066",4.31894175062487,1
"u066",4.57216956351222,1
"u066",4.48867026029203,1
"u066",4.91740175901817,1
"u067",6.19609378679221,1
"u067",5.14859017099915,1
"u067",5.57536829503176,1
"u067",6.00630660122144,1
"u070",4.65579297135418,1
"u070",4.36317716895184,1
"u070",3.90617153789218,1
"u070",3.90205235235997,1
"u071",5.25348546656272,1
"u071",4.69685470598767,1
"u071",5.25046106256725,1
"u071",4.89684544343232,1
"u073",4.70278692050522,1
"u073",5.05819485727267,1
"u073",4.30404852300709,1
"u073",5.33511323784196,1
"u074",1.85740628394681,1
"u074",3.5205544953453,1
"u074",3.81299466542276,1
"u074",3.41432210575426,1
"u075",4.60725408476358,1
"u075",4.66099527037554,1
"u075",5.12775334111223,1
"u075",4.26711399053394,1
"u076",4.1275983604754,1
"u076",3.4477330134289,1
"u076",4.95708645862369,1
"u076",3.43102920431997,1
"u077",6.37621281324049,1
"u077",6.76250287830399,1
"u077",6.46554195743165,1
"u077",6.1876117015585,1
"u078",4.32109978308588,1
"u078",5.11405959024785,1
"u078",4.27098672319789,1
"u078",5.67648185136801,1
"u079",6.42544914901526,1
"u079",5.03301869857257,1
"u079",4.86205492002259,1
"u079",5.82490122983006,1
"u080",5.58654285601282,1
"u080",5.66320005992885,1
"u080",5.58067665755651,1
"u080",6.57303237579849,1
"u082",3.68553885063204,1
"u082",5.06575695772594,1
"u082",2.70571045282128,1
"u082",3.84626800980643,1
"u083",5.18867982849341,1
"u083",5.35511816457114,1
"u083",4.60094917581017,1
"u083",4.09321292320101,1
"u084",3.86336338501146,1
"u084",4.48286920043276,1
"u084",5.06444818842065,1
"u084",4.50581245200399,1
"u085",4.67102001555414,1
"u085",5.17019617536466,1
"u085",5.42927817697456,1
"u085",4.9908524756032,1
"u086",5.86632993714126,1
"u086",7.0540239339509,1
"u086",6.16855248737027,1
"u086",7.20492511564433,1
"u087",6.25926562698737,1
"u087",6.15310176659782,1
"u087",7.31748245248319,1
"u087",7.88721242105435,1
"u088",2.7453378974228,1
"u088",3.79845078146206,1
"u088",4.15652166962373,1
"u088",4.34496057485118,1
"u089",5.90126875352824,1
"u089",5.98082966326261,1
"u089",6.17259866887439,1
"u089",5.81819235966368,1
"u090",4.37250935984633,1
"u090",5.33897437059678,1
"u090",4.57412587530458,1
"u090",5.71021828801206,1
"u091",4.1867131412958,1
"u091",3.2786301824823,1
"u091",4.32436300869828,1
"u091",4.86450634435363,1
"u092",5.14416547363784,1
"u092",3.83366291458719,1
"u092",5.52978672324924,1
"u092",4.75605881308143,1
"u093",5.85945306398894,1
"u093",5.676643712355,1
"u093",5.42917938417086,1
"u093",5.53231157049779,1
"u094",4.30308368282912,1
"u094",5.15359226978846,1
"u094",4.5401431351951,1
"u094",4.48559199181796,1
"u095",4.42373145772933,1
"u095",4.91893678557892,1
"u095",4.52525930175145,1
"u095",5.21704800897868,1
"u096",5.95420199416796,1
"u096",5.06327291894663,1
"u096",5.14468810050974,1
"u096",5.31558671869715,1
"u097",5.54630497605097,1
"u097",4.02548677878852,1
"u097",3.44774093104809,1
"u097",5.72581663329508,1
"u098",3.40381348294692,1
"u098",3.13335093171682,1
"u098",3.58573723806048,1
"u098",2.32306593046356,1
"u099",5.48501716427222,1
"u099",4.84086329096077,1
"u099",3.25663394903222,1
"u099",5.25284855517304,1
"u100",5.72969201212801,1
"u100",5.28970971126488,1
"u100",4.86911330865198,1
"u100",4.85742419586251,1
"u102",5.23305362854382,1
"u102",4.98179381700055,1
"u102",5.88996197845117,1
"u102",5.15343968740997,1
"u103",4.8291053059845,1
"u103",4.12828196728521,1
"u103",4.71354618802095,1
"u103",4.72404336061059,1
"u105",4.24348409024292,1
"u105",2.52665197125876,1
"u105",5.5235742742526,1
"u105",3.81184288292993,1
"u105",1.85873209943131,1
"u105",5.05826112530757,1
"u105",3.77445609913054,1
"u105",3.77406909934757,1
"u105",4.03599877844704,1
"u105",5.45505197201193,1
"u105",3.70541688666574,1
"u105",4.94001170708689,1
"u107",5.56317294875886,1
"u107",4.71246021637216,1
"u107",4.74783798908413,1
"u107",4.99667007179931,1
"u107",4.98327608788524,1
"u107",4.44868222084267,1
"u107",6.4858797565342,1
"u107",6.13877756151132,1
"u109",5.23262688841821,1
"u109",3.97679001623825,1
"u109",4.18651714369809,1
"u109",5.33243760770744,1
"u110",5.37391211367546,1
"u110",6.78188966560025,1
"u110",5.01708708075868,1
"u110",5.32489607178957,1
"u111",4.39964660286465,1
"u111",4.49852359185092,1
"u111",4.63481383910985,1
"u111",5.4433355896152,1
"u112",3.26041330294756,1
"u112",5.88889574711863,1
"u112",2.82647940253576,1
"u112",4.21601409218597,1
"u112",3.72433179830413,1
"u112",4.24823181476558,1
"u112",3.34537088274275,1
"u112",5.06198288990585,1
"u113",5.96769057818416,1
"u113",3.9148557952511,1
"u113",2.89114927220087,1
"u113",5.15404836666099,1
"u114",4.43906303654924,1
"u114",4.68566252936209,1
"u114",4.38157817679631,1
"u114",3.98932251894269,1
"u115",5.27491203605683,1
"u115",5.08218553186918,1
"u115",5.7529154735045,1
"u115",6.16867922773541,1
"u116",3.55659778666037,1
"u116",5.0353189259334,1
"u116",5.46179972799966,1
"u116",5.14846404713248,1
"u117",7.03494146834127,1
"u117",5.57670585851761,1
"u117",2.75441111543515,1
"u117",5.77889929478966,1
"u118",3.83853065952932,1
"u118",4.04475929810175,1
"u118",4.38087640642074,1
"u118",4.26302279256918,1
"u119",4.73537231693346,1
"u119",5.61667537856486,1
"u119",5.02964845297053,1
"u119",4.83919477503779,1
"u121",4.91937431513585,1
"u121",3.70440299557804,1
"u121",4.6884505230626,1
"u121",5.13700302571612,1
"u122",5.97838572924547,1
"u122",4.52815564230235,1
"u122",5.11120815352546,1
"u122",5.45305689604172,1
"u124",5.33774544055855,1
"u124",4.93571025696283,1
"u124",4.55114663359056,1
"u124",5.22673373752974,1
"u124",4.40155583510276,1
"u124",4.13555989809294,1
"u124",6.42045981050252,1
"u124",5.36982589647258,1
"u126",5.02375257286764,1
"u126",2.98003484935765,1
"u126",4.38655121305694,1
"u126",5.1844021539211,1
"u127",7.12865770260588,1
"u127",4.50521239294723,1
"u127",6.33941642075579,1
"u127",5.47324002481988,1
"u127",6.34100636519511,1
"u127",5.66225521068195,1
"u127",6.12231886812234,1
"u127",5.36007257634069,1
"u128",6.27376520932031,1
"u128",5.55409002549889,1
"u128",5.41679550186273,1
"u128",6.54260836303547,1
"u131",5.89202916416738,1
"u131",5.39907283737934,1
"u131",4.94436502667671,1
"u131",6.18502118405305,1
"u132",5.84315744592534,1
"u132",4.82383699029522,1
"u132",5.76912525166228,1
"u132",4.87241695746888,1
"u133",9.17684436289989,1
"u133",8.6601095200053,1
"u133",8.26659560488872,1
"u133",7.92473040535522,1
"u134",5.44536937606601,1
"u134",5.44826931680006,1
"u134",4.74601418635812,1
"u134",4.52547340654689,1
"u135",3.50781335959104,1
"u135",3.64320312628464,1
"u135",3.82020452828351,1
"u135",3.57335450922757,1
"u136",4.45510313508262,1
"u136",4.9875185871032,1
"u136",5.73414822685117,1
"u136",3.65490906348339,1
"u136",6.36889972894081,1
"u136",4.78642831924553,1
"u136",5.58674183215465,1
"u136",4.54549876633961,1
"u137",5.47685796999302,1
"u137",4.54096522075884,1
"u137",5.81470300380695,1
"u137",5.42095074452826,1
"u138",4.58178846162144,1
"u138",3.57703476993564,1
"u138",4.56006150789896,1
"u138",5.42777650925878,1
"u139",5.99009137044999,1
"u139",5.75692432706078,1
"u139",5.24393939123516,1
"u139",6.42902423578916,1
"u139",6.08606170941532,1
"u139",6.90603669130044,1
"u139",6.21250920412194,1
"u139",6.58933986300885,1
"u140",6.34508302583107,1
"u140",5.93568147922064,1
"u140",5.30523975879702,1
"u140",6.05102705410161,1
"u140",6.3896125999998,1
"u140",5.93632475021688,1
"u140",7.65584682060379,1
"u140",6.27874200569015,1
"u142",5.53195203379912,1
"u142",4.26097404465012,1
"u142",5.75453422522485,1
"u142",5.54866184784626,1
"u142",5.74971354768353,1
"u142",3.77307489309687,1
"u142",6.63408726848156,1
"u142",4.94592459760791,1
"u143",4.57284827577306,1
"u143",5.70374904468389,1
"u143",7.34699895527624,1
"u143",6.50122439176738,1
"u145",5.9778208251288,1
"u145",4.7706413397567,1
"u145",5.95121277267973,1
"u145",5.1080631163747,1
"u145",6.64943030392714,1
"u145",5.04358452272674,1
"u145",6.2045950443344,1
"u145",5.99468267812603,1
"u146",6.19659265512549,1
"u146",6.66511896952203,1
"u146",4.88804676819248,1
"u146",6.43757425512487,1
"u147",5.84457119394313,1
"u147",3.98282603152874,1
"u147",5.22925029627049,1
"u147",4.85763423099487,1
"u148",5.68902360057136,1
"u148",5.41334030859284,1
"u148",3.90564845203243,1
"u148",5.5485396010067,1
"u149",5.64729462033447,1
"u149",4.86898820624296,1
"u149",5.55306809975195,1
"u149",5.52752986846914,1
"u150",4.95789552028682,1
"u150",5.39283503920129,1
"u150",5.89682072203576,1
"u150",5.0687492737505,1
"u151",5.9583530611486,1
"u151",6.56164123714913,1
"u151",6.97090527480424,1
"u151",5.01355110258134,1
"u152",6.4630232223952,1
"u152",6.00032837779789,1
"u152",6.96564298988908,1
"u152",5.98322441056992,1
"u153",3.05737163047527,1
"u153",3.92636585814441,1
"u153",3.95039477403746,1
"u153",4.36797635888468,1
"u154",6.34631229525335,1
"u154",5.16491580215855,1
"u154",5.40606548267535,1
"u154",5.66314811299934,1
"u155",5.60094989608037,1
"u155",5.34561285154767,1
"u155",6.09335356407233,1
"u155",5.83489799476213,1
"u156",4.86495196218847,1
"u156",5.02559197690146,1
"u156",4.56282210148778,1
"u156",3.78797116468191,1
"u157",5.94625168498698,1
"u157",5.67993518907325,1
"u157",6.37017856750302,1
"u157",4.63256514091438,1
"u158",5.06542730716878,1
"u158",6.30722229578737,1
"u158",5.93560121185666,1
"u158",5.57424716743643,1
"u159",5.09319981301045,1
"u159",4.80731037368036,1
"u159",5.53781994531576,1
"u159",3.43980884861728,1
"u160",5.68840622008077,1
"u160",6.23621912552336,1
"u160",5.14774436522049,1
"u160",4.97751644399494,1
"u161",4.78645093643546,1
"u161",6.04278169555433,1
"u161",5.1451075117649,1
"u161",4.80455597115079,1
"u162",4.62840694679305,1
"u162",5.19214529251178,1
"u162",4.3541296787499,1
"u162",5.71035422936738,1
"u163",4.20353349891476,1
"u163",7.30861766746624,1
"u163",6.02738381727222,1
"u163",5.89187862291563,1
"u165",4.34502999783647,1
"u165",4.29949834416546,1
"u165",5.76697320632895,1
"u165",6.81827662112547,1
"u166",4.12202479089027,1
"u166",4.55937508533581,1
"u166",4.04749744802087,1
"u166",4.76958876392051,1
"u167",5.57328936166285,1
"u167",5.4446436624087,1
"u167",5.74327631422963,1
"u167",5.11282586465472,1
"u169",6.14750982816093,1
"u169",7.35093246936361,1
"u169",6.35203688598756,1
"u169",5.57316498789293,1
"u169",5.63972795023921,1
"u169",5.97837719817182,1
"u169",5.33230285945017,1
"u169",6.05228977587153,1
"u171",4.80999242286477,1
"u171",3.77980258908634,1
"u171",5.36396514305517,1
"u171",5.20558360189187,1
"u172",4.16368749301882,1
"u172",5.45188440456852,1
"u172",5.74269378007661,1
"u172",4.01187851068887,1
"u172",5.16489710470989,1
"u172",6.23094624309372,1
"u172",5.72913514732157,1
"u172",6.49528103883824,1
"u173",5.53653710371799,1
"u173",6.52892968815987,1
"u173",4.04903471640133,1
"u173",2.54298637971912,1
"u174",2.9444736992107,1
"u174",3.45018852933587,1
"u174",5.15669743001571,1
"u174",4.6452305443329,1
"u175",5.46117875379975,1
"u175",5.66182215459057,1
"u175",4.80194960077324,1
"u175",4.26104325310078,1
"u176",-12.0341980009236,1
"u176",-9.95788754528859,1
"u176",-9.31783989494582,1
"u176",-7.8440052747394,1
"u177",5.12448906831472,1
"u177",3.89245103736402,1
"u177",5.92746868107698,1
"u177",4.51990447355088,1
"u178",3.17268491715,1
"u178",2.25514699674759,1
"u178",3.53487051115612,1
"u178",4.42562068966117,1
"u179",2.86069644835431,1
"u179",5.86778821304022,1
"u179",4.91324671530444,1
"u179",4.54873347200136,1
"u180",3.6045021277958,1
"u180",4.52401778797249,1
"u180",3.98553987746799,1
"u180",5.02059967941777,1
"u181",4.33232821252086,1
"u181",3.80171974599596,1
"u181",4.31008913105748,1
"u181",5.06509756792487,1
"u184",2.70352882007932,1
"u184",2.37820776152944,1
"u184",-5.91663124300495,1
"u184",3.82623596876849,1
"u184",3.19659345830323,1
"u184",5.01469657075781,1
"u184",3.92331957475576,1
"u184",4.34894296467322,1
"u185",3.08249624582467,1
"u185",2.1646081108842,1
"u185",4.29848300029218,1
"u185",3.04459801644997,1
"u185",4.47561559141021,1
"u185",1.97901247566028,1
"u185",3.46437055916298,1
"u185",3.90958242342902,1
"u186",6.10270503888829,1
"u186",5.03903729035979,1
"u186",5.31810652864419,1
"u186",4.63908701053042,1
"u187",4.21545828273296,1
"u187",4.52871201428724,1
"u187",4.95896586544104,1
"u187",1.80422592648748,1
"u187",5.67124005559695,1
"u187",3.02740497741471,1
"u187",5.47177131034695,1
"u187",3.83709885918935,1
"u188",5.59167530066003,1
"u188",6.18745654986491,1
"u188",5.93826141563482,1
"u188",4.05215155051004,1
"u189",4.48186649104452,1
"u189",5.82043357106368,1
"u189",4.32655816577639,1
"u189",6.47135738408756,1
"u189",4.27985935010811,1
"u189",5.66978406859855,1
"u189",4.2270137090333,1
"u189",4.92948926752685,1
"u190",4.31070823717286,1
"u190",4.86149151701056,1
"u190",3.95370863885227,1
"u190",4.62601304672431,1
"u190",4.18699206580246,1
"u190",4.92533818929938,1
"u190",4.65447351486203,1
"u190",4.08221658319242,1
"u192",-0.510688448059621,1
"u192",3.99698340157331,1
"u192",4.72769717051638,1
"u192",4.33781994450772,1
"u192",3.80881952669147,1
"u192",4.67470275043144,1
"u192",3.99313492832656,1
"u192",5.05959733251168,1
"u193",3.37960504131073,1
"u193",2.44871077407439,1
"u193",3.15761736402007,1
"u193",4.93238173551536,1
"u194",3.32745476573138,1
"u194",4.48750254444113,1
"u194",2.70656457768207,1
"u194",4.15784749818982,1
"u195",4.36246891540908,1
"u195",3.77051885592743,1
"u195",5.60988836960831,1
"u195",3.3847342691817,1
"u197",4.88591103173329,1
"u197",3.53544700745499,1
"u197",3.55671414207644,1
"u197",3.35891398774483,1
"u198",5.07485604288421,1
"u198",5.13280894389849,1
"u198",4.42096216566919,1
"u198",5.02004391732653,1
"u199",5.38783106759677,1
"u199",4.49963583985051,1
"u199",3.95527550509524,1
"u199",3.96981968978151,1
"u203",1.4418497373351,1
"u203",1.68425668904043,1
"u203",1.87085559106738,1
"u203",0.502748614897257,1
"u204",3.70044251797076,1
"u204",3.72957019794939,1
"u205",6.88381062350829,1
"u205",5.68572071584326,1
"u205",4.52811865470314,1
"u205",5.88543405840612,1
"u206",5.78382011048742,1
"u206",4.24717551514308,1
"u206",3.42091074166795,1
"u206",4.03751109431466,1
"u207",5.13300631266736,1
"u207",4.77368573270516,1
"u207",4.96287688865679,1
"u207",4.34644219582336,1
"u208",4.11731817984548,1
"u208",3.86808593993871,1
"u208",4.16071099616088,1
"u208",2.90173217490134,1
"u210",4.83867934716068,1
"u210",6.32809107297915,1
"u210",6.25655490260228,1
"u210",5.89799754130518,1
"u211",5.59403324124558,1
"u211",4.49347766767594,1
"u211",4.54968159621063,1
"u211",4.96103702632206,1
"u212",4.80559051465959,1
"u212",6.02753281107959,1
"u212",5.89051459685886,1
"u212",5.7188652101465,1
"u213",6.36465554703852,1
"u213",4.30813699237945,1
"u213",4.78109257256504,1
"u213",4.93897022669947,1
"u215",4.86620916268162,1
"u215",3.87877830102475,1
"u215",3.68726094817629,1
"u215",5.27053738309058,1
"u216",5.23117372701084,1
"u216",6.38424069654941,1
"u216",5.48395941797747,1
"u216",5.56830942614986,1
"u218",3.82633168198216,1
"u218",5.60972452055593,1
"u218",4.81906911874802,1
"u218",4.41089392082586,1
"u219",5.6964883962653,1
"u219",5.97559000372564,1
"u219",5.18224049444924,1
"u219",5.48022487953762,1
"u220",5.25910603892518,1
"u220",4.44123846670841,1
"u220",5.83662458509171,1
"u220",5.07224191940852,1
"u221",4.12177643760888,1
"u221",4.26600787807623,1
"u221",5.02294147007111,1
"u221",4.49797635613937,1
"u222",3.67075227377798,1
"u222",4.54866141182243,1
"u222",4.38013381901736,1
"u222",3.99106839051276,1
"u223",7.31224248079429,1
"u223",5.59581964246643,1
"u223",7.64357474268642,1
"u223",7.88225791320897,1
"u224",5.62868890040004,1
"u224",3.92019190235056,1
"u224",3.98215874436987,1
"u224",4.63096872336285,1
"u226",5.59005666971217,1
"u226",5.868116295302,1
"u226",5.78181035907939,1
"u226",5.32789463706495,1
"u227",4.54406992695769,1
"u227",5.45316194191805,1
"u227",7.13406812228684,1
"u227",5.82839848921752,1
"u228",6.16463020415206,1
"u228",4.68785360566258,1
"u228",3.72709766160517,1
"u228",6.06415361852603,1
"u228",5.34149121839155,1
"u228",6.40677026554103,1
"u228",5.51833980053489,1
"u228",5.94696237571035,1
"u229",5.10032558238312,1
"u229",5.21568768291183,1
"u229",5.0751986150446,1
"u229",4.23724751031493,1
"u230",5.89925573366158,1
"u230",4.66093262993268,1
"u230",5.47277985055909,1
"u230",3.45276708982289,1
"u231",4.28221104497628,1
"u231",4.74316730055542,1
"u231",6.13428307327143,1
"u231",4.76111817707195,1
"u232",5.43326964832756,1
"u232",4.86207711639686,1
"u232",5.84794531785573,1
"u232",7.3323796117508,1
"u233",3.46089568076473,1
"u233",3.12622019654463,1
"u233",3.16801031357963,1
"u233",5.09973349820755,1
"u234",3.8784544854104,1
"u234",4.47029649094585,1
"u234",4.01320110087139,1
"u234",4.96453459365038,1
"u235",6.17548565692003,1
"u235",6.98666199795394,1
"u235",6.91397294163969,1
"u235",5.14989015741779,1
"u235",6.21452506658091,1
"u235",8.52456767878688,1
"u235",6.7262475333604,1
"u235",5.64579720609083,1
"u235",5.81015622289751,1
"u235",5.37023192271635,1
"u235",4.11738652422641,1
"u235",6.48532359337725,1
"u236",3.03194497576165,1
"u236",4.99103650188553,1
"u236",4.49570931906264,1
"u236",3.91166275924427,1
"u238",5.26227775355928,1
"u238",5.41934996852621,1
"u238",3.9752059780559,1
"u238",5.06608827305169,1
"u238",3.77981612128437,1
"u238",4.21273400776067,1
"u238",4.7150891771377,1
"u238",4.71619095940869,1
"u242",4.89824279281631,1
"u242",5.01318988140578,1
"u242",5.31341146383771,1
"u242",4.4024987755125,1
"u243",3.93312902147441,1
"u243",2.79206604940706,1
"u243",4.34833775304675,1
"u243",3.54873325766673,1
"u243",4.99340504194212,1
"u243",3.08250281528615,1
"u243",4.61051648951836,1
"u243",3.0050445144487,1
"u248",4.14726111058598,1
"u248",3.69706919753505,1
"u248",5.35384654047113,1
"u248",4.75150538606207,1
"u251",2.11845313300207,1
"u251",1.27122562291678,1
"u251",1.39236325425682,1
"u251",0.744389021437573,1
"u252",5.89727972509733,1
"u252",5.55538725356961,1
"u252",4.71457471547992,1
"u252",5.59167532964475,1
"u253",5.58442235466651,1
"u253",6.45458342324428,1
"u253",5.61849784315689,1
"u253",5.34550234849514,1
"u254",4.31242725581636,1
"u254",4.7454102284319,1
"u254",5.77642569786855,1
"u254",3.08997212087129,1
"u256",5.02667702114822,1
"u256",4.95470965556087,1
"u256",4.63769589713433,1
"u256",3.85381472906629,1
"u257",6.40679836594178,1
"u257",3.93731049226488,1
"u257",5.19184128272927,1
"u257",5.78951358912602,1
"u257",6.12614260081841,1
"u257",4.59966580935813,1
"u257",5.90953662093862,1
"u257",3.88791558799147,1
"u258",2.92437790206281,1
"u258",5.87620171234988,1
"u258",3.35545932544663,1
"u258",3.13509195949624,1
"u259",3.0955484984979,1
"u259",2.10089224891141,1
"u259",2.90311669154212,1
"u259",2.15264320685284,1
"u261",4.36258456803712,1
"u261",3.20002772389533,1
"u261",1.76871000167075,1
"u261",3.89869086287653,1
"u262",4.88898337070759,1
"u262",4.49983883093819,1
"u262",3.63014175381914,1
"u262",6.10940313111664,1
"u263",5.99333583445389,1
"u263",5.2667712201839,1
"u263",4.38829979346627,1
"u263",5.54179542893163,1
"u264",4.57852599182475,1
"u264",2.24622369044043,1
"u264",4.51206571694469,1
"u264",2.68201282259508,1
"u266",5.10283361129981,1
"u266",4.76446673546594,1
"u266",5.42927655259138,1
"u266",5.39406504298009,1
"u269",4.58061523574714,1
"u269",3.58202384463934,1
"u269",2.44954026902206,1
"u269",3.21789446913839,1
"u270",4.20259043322475,1
"u270",4.01614413766394,1
"u270",2.84563428221168,1
"u270",4.06270642785232,1
"u271",5.21698585725918,1
"u271",5.33859206935212,1
"u271",5.35918219500566,1
"u271",4.87483321392002,1
"u272",5.45927812850581,1
"u272",6.46158653132366,1
"u272",5.71596711258,1
"u272",6.22553570785172,1
"u273",5.01578205090197,1
"u273",5.55245404280477,1
"u273",4.52490250732193,1
"u273",4.70386231406376,1
"u274",6.29329397777841,1
"u274",4.69720551814036,1
"u274",4.88990660496298,1
"u274",6.54391760006515,1
"u275",4.22891988205147,1
"u275",5.36364587907222,1
"u275",5.4573350535158,1
"u275",4.65362477448307,1
"u275",4.86941246327977,1
"u275",5.2714045108623,1
"u275",4.58830392237203,1
"u275",5.07222509547117,1
"u277",4.48056975899468,1
"u277",3.69963751590435,1
"u277",2.91310254891736,1
"u277",3.90375064393611,1
"u278",5.17230204162794,1
"u278",4.29414048448064,1
"u278",3.87523778670529,1
"u278",6.07639785259113,1
"u279",4.44626069468622,1
"u279",3.92413696436881,1
"u279",3.79382062627443,1
"u279",4.66298156406544,1
"u281",7.18770312532601,1
"u281",6.02300709096209,1
"u281",5.11482166409297,1
"u281",5.32720839465569,1
"u284",4.22809468880383,1
"u284",5.07640160619327,1
"u284",5.41406664747449,1
"u284",4.02479260175231,1
"u285",4.07423404992288,1
"u285",5.7217700453762,1
"u285",3.65431241892331,1
"u285",5.13172469220535,1
"u285",3.63059253947006,1
"u285",5.06816695668455,1
"u285",2.74866238500408,1
"u285",6.93667781734266,1
"u287",4.41214808883258,1
"u287",5.70103901200367,1
"u287",5.3281725275275,1
"u287",5.25824229844046,1
"u288",5.04192901435395,1
"u288",2.76632520775917,1
"u288",3.54822754417454,1
"u288",6.33457005317452,1
"u288",3.98748434672418,1
"u288",3.49641180867133,1
"u288",4.62215728807775,1
"u288",4.98517907227838,1
"u289",4.42430002891445,1
"u289",4.37877016400765,1
"u289",3.13991871255955,1
"u289",5.79335234646296,1
"u290",4.33946175647102,1
"u290",4.50653483710761,1
"u290",4.51122229919406,1
"u290",5.21142300983268,1
"u291",4.6205912225643,1
"u291",5.59048022017206,1
"u291",4.52763677602524,1
"u291",4.61060149217994,1
"u294",8.55297348920257,1
"u294",6.25077559262769,1
"u294",6.5466487968781,1
"u294",7.23705733354409,1
"u295",3.19068925297924,1
"u295",5.07918489607047,1
"u295",2.0380403459235,1
"u295",2.33132574471993,1
"u297",2.8854421321165,1
"u297",3.5514248008088,1
"u297",4.38754301537442,1
"u297",3.10406434938045,1
"u299",5.13088141013313,1
"u299",4.1431778265195,1
"u299",6.65133797190695,1
"u299",7.32221468458393,1
"u300",4.37002794872587,1
"u300",4.97526205523639,1
"u300",3.6961323696787,1
"u300",6.27623704877837,1
"u301",5.22856332111736,1
"u301",3.30013255577239,1
"u301",4.62756239421429,1
"u301",4.28664123776442,1
"u301",5.34968467298231,1
"u301",4.61702627720118,1
"u301",4.11628929579463,1
"u301",4.01803588394246,1
"u302",6.41465689489287,1
"u302",6.03785048831086,1
"u302",6.2017942217437,1
"u302",5.95247521778412,1
"u302",5.77991245951793,1
"u302",6.6968663831669,1
"u302",5.60435789532115,1
"u302",5.67274390550038,1
"u302",6.21523611147919,1
"u302",5.73710919757032,1
"u302",7.18313086954646,1
"u302",6.86901999361785,1
"u303",4.75659563642297,1
"u303",6.33370082167172,1
"u303",5.69285139500613,1
"u303",6.05101882537938,1
"u305",4.96502933221646,1
"u305",4.56698946544215,1
"u305",3.3280642515891,1
"u305",5.42207991257918,1
"u305",4.19138336094443,1
"u305",5.82065457840852,1
"u305",5.34416444284329,1
"u305",5.21039238953941,1
"u306",4.6452297468217,1
"u306",5.57427452594606,1
"u306",4.5969156379558,1
"u306",4.39431367772814,1
"u307",6.53205974843647,1
"u307",4.82018924807157,1
"u307",6.25722997442583,1
"u307",4.99296201650558,1
"u307",6.53122623668672,1
"u307",4.48757883170586,1
"u307",5.845011944009,1
"u307",3.40844018478782,1
"u308",4.97566607476552,1
"u308",4.52958666179298,1
"u308",5.25024966796644,1
"u308",3.63903958991627,1
"u309",3.07426684646668,1
"u309",2.88625896206413,1
"u309",2.89600281317295,1
"u309",2.02281637586899,1
"u311",5.7422987022692,1
"u311",4.76839339834555,1
"u311",5.22431706966762,1
"u311",4.14082921189,1
"u313",6.43139305357207,1
"u313",6.69291001619257,1
"u313",5.80653811663847,1
"u313",7.45505868868494,1
"u313",4.96969208420655,1
"u313",5.5728389277094,1
"u313",6.40978279358119,1
"u313",7.41930048243476,1
"u316",5.88814403920119,1
"u316",4.75807585289878,1
"u316",3.68167241052415,1
"u316",6.1298233829893,1
"u317",6.53617142774702,1
"u317",5.8364102278587,1
"u317",6.0542173966739,1
"u317",5.09490513452254,1
"u319",5.27001569611797,1
"u319",5.64396826317211,1
"u319",5.34346147716294,1
"u319",6.17774382713997,1
"u320",5.35017213768635,1
"u320",5.48678431287772,1
"u320",5.54557899137182,1
"u320",5.20279432014164,1
"u321",5.10181548188828,1
"u321",4.28549814825088,1
"u321",4.63673613128447,1
"u321",4.78732541414733,1
"u321",5.12567495819025,1
"u323",3.92639606536733,1
"u323",5.24791045303679,1
"u323",4.87866229189256,1
"u323",4.29411514253139,1
"u324",4.79392466652859,1
"u324",4.41506047171369,1
"u324",4.80855205042238,1
"u324",5.53124597752351,1
"u326",5.3681505560664,1
"u326",4.27282793679448,1
"u326",7.13693735413132,1
"u326",5.30242299439621,1
"u326",4.30537721744054,1
"u326",4.41352474203731,1
"u326",5.70311899154855,1
"u326",4.38584469698771,1
"u327",5.41361398086629,1
"u327",8.10889686526229,1
"u327",5.56785739286745,1
"u327",7.72498105032709,1
"u328",5.40109111496272,1
"u328",4.65653621255826,1
"u328",5.6235768393679,1
"u328",4.53361197001611,1
"u329",7.24608175137655,1
"u329",5.40195424826103,1
"u329",5.59415115379084,1
"u329",5.87831772401687,1
"u330",3.68546038888903,1
"u330",3.36216434744562,1
"u330",3.29930062829688,1
"u330",6.34374292190184,1
"u331",4.07420564047318,1
"u331",4.5298515252574,1
"u331",5.70560349183885,1
"u331",5.62881772228115,1
"u333",5.69234954779018,1
"u333",5.66560231637234,1
"u333",5.62892017448971,1
"u333",6.29734012801721,1
"u335",4.02001070267416,1
"u335",2.89281633419993,1
"u335",4.18821165146147,1
"u335",4.4861452578025,1
"u336",5.69030318989547,1
"u336",6.7475918222602,1
"u336",5.81793399707921,1
"u336",4.60928710355515,1
"u339",7.4612418773588,1
"u339",6.9373023060092,1
"u339",3.49485875471926,1
"u339",6.02890409939562,1
"u339",6.22851889623915,1
"u339",5.13358449252813,1
"u339",6.25746891503572,1
"u339",5.8686322631962,1
"u339",5.62824685678652,1
"u339",5.25509393980253,1
"u339",6.02018807290932,1
"u339",3.2974052161713,1
"u340",6.22586882128385,1
"u340",5.15731967373154,1
"u340",5.3698986606667,1
"u340",3.22282556227836,1
"u340",5.1529339664554,1
"u340",5.63015764266694,1
"u340",5.15147144523954,1
"u340",5.20958426485379,1
"u341",4.98687963327872,1
"u341",4.92282122910508,1
"u341",4.55546675744178,1
"u341",4.85493882305943,1
"u341",4.08945500806526,1
"u341",3.64071897130309,1
"u341",4.00507998941316,1
"u341",4.72184816649798,1
"u344",1.6351959029682,1
"u344",4.78305649639138,1
"u344",3.88655547972671,1
"u344",2.40730955435343,1
"u345",6.11122944553662,1
"u345",6.75759410781671,1
"u345",6.04173345927412,1
"u345",5.46926562463556,1
"u346",4.64810776123922,1
"u346",4.34892170157727,1
"u346",3.19848989252493,1
"u346",5.96317347653928,1
"u346",2.7683942046751,1
"u346",4.95487717225324,1
"u346",4.31295354401831,1
"u346",5.21459856485981,1
"u347",4.6630659945173,1
"u347",4.45941046058322,1
"u347",4.93644916028648,1
"u347",4.22032943597666,1
"u349",6.56921159589733,1
"u349",5.26323100019314,1
"u349",5.05522910054752,1
"u349",7.04225985365365,1
"u349",4.73388936024147,1
"u349",3.35634863651556,1
"u349",7.3626923479765,1
"u349",5.47537487051491,1
"u349",4.6577244968023,1
"u349",6.36205459556556,1
"u349",5.13537825833673,1
"u349",6.13231506950487,1
"u353",5.24399703850909,1
"u353",6.14326503972604,1
"u353",5.20301307096562,1
"u353",6.10056666990278,1
"u353",5.03404021605253,1
"u353",5.11822900952675,1
"u353",4.6235454330387,1
"u353",6.00480798295761,1
"u354",3.28255278344929,1
"u354",5.5425454753142,1
"u354",5.33067654404402,1
"u354",4.34502691332744,1
"u354",5.23449852484368,1
"u354",4.79850244699188,1
"u354",5.1833853754394,1
"u354",4.32393141493977,1
"u355",3.32577338742639,1
"u355",4.19246501851055,1
"u355",3.6375437471829,1
"u355",3.83055303574334,1
"u358",4.07934340667318,1
"u358",4.39514867816801,1
"u358",5.08180896376353,1
"u358",6.12822589384334,1
"u358",5.0238365313807,1
"u358",5.33842327260847,1
"u358",5.21819445752455,1
"u358",5.89477945223176,1
"u359",1.71801697191788,1
"u359",3.23177675871356,1
"u359",3.34542841783507,1
"u359",3.00784269104643,1
"u360",6.32786173234588,1
"u360",6.08733049609542,1
"u360",6.96060612302008,1
"u360",7.01057120403925,1
"u361",5.61119590909999,1
"u361",4.50913032549094,1
"u361",4.73301980738417,1
"u361",4.23551384179215,1
"u362",3.94723608910594,1
"u362",4.73017715544059,1
"u362",4.73475534191191,1
"u362",4.87085397585192,1
"u364",5.54059030792431,1
"u364",4.0024614460815,1
"u364",6.42604159062998,1
"u364",4.63516699587033,1
"u364",5.36637075342066,1
"u364",5.10204661585018,1
"u364",5.24949733817531,1
"u364",5.03936939563677,1
"u365",3.47989140215934,1
"u365",5.85474346600672,1
"u365",2.33792701915926,1
"u365",4.82696733813574,1
"u365",3.35519228208272,1
"u365",4.04348028277123,1
"u365",3.3482838474948,1
"u365",4.02508523723938,1
"u367",5.58438528076464,1
"u367",5.88634853942692,1
"u367",4.8095381027445,1
"u367",5.05202897015131,1
"u369",3.08666611236801,1
"u369",3.01228714705921,1
"u369",0.415576034664978,1
"u369",3.72164122698416,1
"u369",3.27003945624829,1
"u369",3.56222453699824,1
"u369",3.42000433821294,1
"u369",3.15543273742059,1
"u370",3.42202531058032,1
"u370",4.38392653766909,1
"u370",3.63214832319725,1
"u370",3.77860108258063,1
"u371",5.00505752860136,1
"u371",4.89771788324659,1
"u371",4.75264344638313,1
"u371",4.07697592978867,1
"u372",3.99490910126253,1
"u372",3.63524296556687,1
"u372",4.26735059806974,1
"u372",3.60674860985639,1
"u373",2.62028020436273,1
"u373",4.5583902378201,1
"u373",4.76711075395486,1
"u373",6.13869622378002,1
"u374",2.70158761252282,1
"u374",3.92076611100636,1
"u374",4.55752239587149,1
"u374",3.95519529052074,1
"u375",5.68471426719447,1
"u375",5.68328318697048,1
"u375",6.52260756577996,1
"u375",4.86206496072087,1
"u376",1.1047417358869,1
"u376",2.43689731312587,1
"u376",1.00435830471482,1
"u376",2.1312382676996,1
"u377",3.34451837752647,1
"u377",3.296925579313,1
"u377",3.73706127900641,1
"u377",3.78518242472578,1
"u378",2.55298900573678,1
"u378",2.03538473370937,1
"u378",4.22696677563803,1
"u378",3.02544974545381,1
"u383",4.41234446597883,1
"u383",4.80166623214752,1
"u383",4.34493845938473,1
"u383",3.95967945450851,1
"u396",4.29425869479475,1
"u396",3.81852761675625,1
"u396",3.4597068902804,1
"u396",2.88567398837485,1
"u398",4.1069493799941,1
"u398",3.40500514415446,1
"u398",3.33762529091408,1
"u398",4.27674031669917,1
"u402",4.63451945514652,1
"u402",4.74376328838348,1
"u402",6.50622943022078,1
"u402",4.75748773026572,1
"u407",4.94354597391875,1
"u407",5.37299571971893,1
"u407",4.55822750148415,1
"u407",3.67169983314981,1
"u409",2.82893889786655,1
"u409",3.43225541935192,1
"u409",3.17024733864499,1
"u409",3.85548576606349,1
"u414",5.57915544300321,1
"u414",6.64528588861373,1
"u414",5.55884263248559,1
"u414",5.51064846725304,1
"u414",6.76753329941582,1
"u414",5.96556422887937,1
"u414",6.45093941560713,1
"u414",6.59383305213735,1
"u415",7.71299437251395,1
"u415",4.68803198205687,1
"u415",6.9682995262357,1
"u415",5.89714759969006,1
"u416",4.02521808692032,1
"u416",5.86518316226331,1
"u416",4.80256081140955,1
"u416",5.87650765733942,1
"u417",4.67672498192417,1
"u417",4.28128478104786,1
"u417",4.81058959628624,1
"u417",4.78908887506136,1
"u418",5.65431989372882,1
"u418",5.10998161223732,1
"u418",4.86508721606746,1
"u418",6.35686758006047,1
"u427",6.4206345019354,1
"u427",7.44758300539528,1
"u427",6.78847563123891,1
"u427",7.22667839028311,1
"u451",5.36138900164273,1
"u451",4.3310110953884,1
"u451",3.79960172059485,1
"u451",4.70808112529994,1
"u457",2.30682543281432,1
"u457",2.30507404049858,1
"u457",2.71469829678194,1
"u457",4.12469028446303,1
"u458",1.29546413979794,1
"u458",4.0851603854074,1
"u458",2.81819405117965,1
"u458",2.61010655759567,1
"u460",2.16332392258007,1
"u460",2.62831267094469,1
"u460",2.29160154087283,1
"u460",3.5225029649,1
"u462",3.33739169024709,1
"u462",3.17939537281191,1
"u462",5.22654564187925,1
"u462",4.12885478089537,1
"u463",5.72585933065544,1
"u463",5.03799849070945,1
"u463",4.87906940225668,1
"u463",5.59896944224726,1
"u464",6.07474082517314,1
"u464",6.18990119243288,1
"u464",7.32398493729241,1
"u464",6.22845893626823,1
"u466",4.84678855833914,1
"u466",6.6447889101341,1
"u466",3.48706065406385,1
"u466",5.53969816306897,1
"u467",6.477464719617,1
"u467",4.95664911674776,1
"u467",4.64864479562796,1
"u467",5.34129629237222,1
"u468",3.8220680798982,1
"u468",4.50341504533146,1
"u468",4.76208367239574,1
"u468",4.76783478506204,1
"u470",3.67226025887697,1
"u470",4.46471807700664,1
"u470",4.75359135655422,1
"u470",2.35681758482897,1
"u470",3.16019261832195,1
"u470",5.03264261673312,1
"u470",3.54228296208747,1
"u470",3.7792262821805,1
"u473",4.57969711753637,1
"u473",4.87703358471671,1
"u473",6.42659000712972,1
"u473",7.05084430405067,1
"u474",1.36657018219551,1
"u474",1.20141039318098,1
"u474",2.49603758657415,1
"u474",2.12944229042334,1
"u475",5.27017768324249,1
"u475",3.73521271808129,1
"u475",4.883756185651,1
"u475",4.92714555229046,1
"u476",5.63164224391876,1
"u476",5.68718033618203,1
"u476",5.63341563058277,1
"u476",5.07447972599956,1
"u481",5.3766803309311,1
"u481",4.18819412411399,1
"u481",4.27066570795298,1
"u481",4.89031614662667,1
"u483",4.96286649261219,1
"u483",4.71974436466008,1
"u483",4.3352078749714,1
"u483",5.20695309598377,1
"u484",3.10905719824431,1
"u484",2.68321901481743,1
"u484",5.29792242518225,1
"u484",4.95776416572036,1
"u484",3.72317830918989,1
"u484",3.04187804933133,1
"u484",5.94102284097913,1
"u484",4.75955068491147,1
"u484",5.3287298298163,1
"u484",4.90734597919934,1
"u484",5.92525825803436,1
"u484",3.87293238431273,1
"u484",3.27357288743052,1
"u484",3.79940240425703,1
"u484",4.90715569778566,1
"u484",3.79838058563083,1
"u485",3.83503351366728,1
"u485",4.88886725972913,1
"u485",3.44977991248696,1
"u485",2.54296742979821,1
"u487",5.28234921345808,1
"u487",5.35202812473493,1
"u487",5.12647494030906,1
"u487",5.96792235474609,1
"u488",4.27459646810516,1
"u488",6.02089028196461,1
"u488",3.20087279127669,1
"u488",5.02423940007347,1
"u488",3.60267543862009,1
"u488",5.37228963995458,1
"u488",1.88485499379223,1
"u488",4.05736715155877,1
"u489",2.56873011202365,1
"u489",2.84175446983449,1
"u489",2.46477434180309,1
"u489",2.80354956077472,1
"u490",2.80845865004896,1
"u490",2.97403286166459,1
"u490",3.37927107527017,1
"u490",4.70428053952104,1
"u492",3.00443015008882,1
"u492",3.36761120646626,1
"u492",3.36204347979032,1
"u492",2.61194067510865,1
"u492",6.41801215857501,1
"u492",3.38167763732198,1
"u492",4.05187616740695,1
"u492",3.21113558582506,1
"u493",4.8759313975491,1
"u493",4.92853408646009,1
"u493",5.37657754324239,1
"u493",5.5656738462967,1
"u494",3.91704013186686,1
"u494",5.23233155192912,1
"u494",5.58672208707144,1
"u494",4.88524890946863,1
"u495",3.2064596705884,1
"u495",3.65450409919427,1
"u495",3.8708764730616,1
"u495",3.38540652555226,1
"u496",1.72538519472655,1
"u496",3.69174424584181,1
"u496",3.6457157828714,1
"u496",5.21781873500008,1
"u498",4.27357950597731,1
"u498",4.65548267210093,1
"u498",3.4618534896448,1
"u498",4.65493024537491,1
"u498",4.74202715365334,1
"u498",5.14923001965228,1
"u498",4.93685465597369,1
"u498",4.40341841024487,1
"u499",5.58079159863353,1
"u499",4.5122070760841,1
"u499",5.35824138600449,1
"u499",5.62057606701905,1
"u500",3.31619193430794,1
"u500",4.10135391316621,1
"u500",4.04530680781058,1
"u500",5.28986959216555,1
"u501",5.48791380748045,1
"u501",5.39894578748736,1
"u501",5.97945074347444,1
"u501",5.29164243914305,1
"u502",3.87326065313207,1
"u502",3.38357791453073,1
"u502",3.89965007130335,1
"u502",3.53759211295129,1
"u502",5.40253578094293,1
"u502",4.294635896634,1
"u502",4.77588764546051,1
"u502",4.99976433631775,1
