"","QUANT.RES","BINARY.SURVIVAL"
"u001",-14.0971005291986,0
"u001",-14.7031902771616,0
"u001",-13.5290845980958,0
"u001",-14.1776294516984,0
"u002",-7.77791158891867,0
"u002",-8.67372497828129,0
"u002",-7.06599596732337,0
"u002",-9.45271877233687,0
"u003",-8.19795646400049,0
"u003",-9.55919390082022,0
"u003",-10.3168168314743,0
"u003",-10.4672144344013,0
"u004",-3.79616082708297,0
"u004",-2.72716877265191,0
"u004",-4.93898550206378,0
"u004",-2.95374465789827,0
"u005",-5.18450963634409,0
"u005",-4.64486559720594,0
"u005",-4.71233444367458,0
"u005",-3.85806919225646,0
"u006",-8.8466881479923,0
"u006",-8.66402020188533,0
"u006",-9.06479601708832,0
"u006",-6.15618788257641,0
"u007",-20.7892592059834,0
"u007",-18.2378979748779,0
"u007",-20.7148118929274,0
"u007",-19.6075921107718,0
"u008",-4.7231892899203,0
"u008",-2.68586647608195,0
"u008",-4.92745911712691,0
"u008",-1.67508183636469,0
"u009",-9.96048595122427,0
"u009",-5.49617902765697,0
"u009",-6.68387323339384,0
"u009",-9.58478466317905,0
"u010",-16.7796495061162,0
"u010",-13.7984193659169,0
"u010",-19.8641177555464,0
"u010",-10.6115892800891,0
"u011",-1.98953912262721,0
"u011",-2.13530913361693,0
"u011",-4.56643670978236,0
"u011",-2.21262691039525,0
"u012",-5.67543684640441,0
"u012",-4.02220455344681,0
"u012",-6.55171545235693,0
"u012",-6.38543939576008,0
"u013",-7.37736703314775,0
"u013",-5.9912599206673,0
"u013",-8.81624135825273,0
"u013",-7.7501594411896,0
"u014",-19.9632133184233,0
"u014",-20.225226317445,0
"u014",-24.2688820231517,0
"u014",-18.9471353436815,0
"u015",-12.9444134037142,0
"u015",-8.7717162259879,0
"u015",-10.8560118502511,0
"u015",-11.1617377847522,0
"u016",-8.32870248203907,0
"u016",-8.87305402821712,0
"u016",-8.40675304908602,0
"u016",-8.02509374090076,0
"u017",-8.87077738526832,0
"u017",-6.41367371125414,0
"u017",-4.07252244336844,0
"u017",-3.57359925768549,0
"u018",-4.1754805531884,0
"u018",-4.97528844075054,0
"u018",-4.71092339150653,0
"u018",-6.26567445279719,0
"u019",-16.789512421561,0
"u019",-10.6504499735425,0
"u019",-15.6435150724542,0
"u019",-16.4566588435498,0
"u020",-14.560962774026,0
"u020",-12.9175617829758,0
"u020",-12.5298917217036,0
"u020",-11.7672190516992,0
"u021",-12.2198027948278,0
"u021",-12.3889756204593,0
"u021",-10.5386403804051,0
"u021",-12.3910142599915,0
"u022",-9.68378032615896,0
"u022",-4.55616366544848,0
"u022",-7.50429386643744,0
"u022",-6.39303641421767,0
"u023",-8.16758531303562,0
"u023",-6.94379430789337,0
"u023",-5.7819423747334,0
"u023",-11.1283677816668,0
"u024",-6.36285028714759,0
"u024",-4.88078382550223,0
"u024",-7.3328239082508,0
"u024",-6.24716212033514,0
"u025",-8.26440948887056,0
"u025",-6.00664015897589,0
"u025",-7.362476923963,0
"u025",-9.76249724840227,0
"u026",-12.0946004040254,0
"u026",-7.59889653249494,0
"u026",-11.7194583689173,0
"u026",-9.25020083248203,0
"u027",-18.9730448624737,0
"u027",-14.3007743448774,0
"u027",-15.3679392671372,0
"u027",-17.1712663608414,0
"u028",-11.1481652366457,0
"u028",-11.1276202448621,0
"u028",-8.6129146731729,0
"u028",-10.7953559833133,0
"u029",-3.71232114477463,1
"u029",-1.90266352883185,1
"u029",-3.41179310490885,1
"u029",-4.70843464208071,1
"u030",-8.02428068942831,0
"u030",-7.07608815104489,0
"u030",-10.4621614979754,0
"u030",-7.64407538115109,0
"u031",-12.1012770978146,0
"u031",-13.4779714190782,0
"u031",-9.80439884020165,0
"u031",-15.5012520184508,0
"u032",-13.0181457799378,0
"u032",-12.8116929527066,0
"u032",-15.1028662195831,0
"u032",-11.8766047402942,0
"u033",-31.9363504004817,0
"u033",-33.7072471582507,0
"u033",-32.7018595799433,0
"u033",-32.1658245071634,0
"u034",-19.4961310485986,0
"u034",-19.2939431148407,0
"u034",-20.741042766668,0
"u034",-14.8857486260529,0
"u035",-11.3415049952986,0
"u035",-10.2034353628642,0
"u035",-9.54945529522395,0
"u035",-10.4257025818106,0
"u036",-5.45811408428841,0
"u036",-8.54044200378529,0
"u036",-7.88843095332791,0
"u036",-7.56913654733443,0
"u037",-16.732844954982,0
"u037",-14.9894519698229,0
"u037",-15.9533143528551,0
"u037",-19.2567152910812,0
"u038",-12.7784437471242,0
"u038",-11.2175331126813,0
"u038",-11.9428861662995,0
"u038",-10.8789154504699,0
"u039",-18.4869893429443,0
"u039",-18.3812442468953,0
"u039",-22.0553449071594,0
"u039",-20.4200070874178,0
"u040",-1.88005645061639,0
"u041",-8.55949101132839,0
"u041",-6.60771280238728,0
"u041",-7.30265252050496,0
"u041",-8.33401991020261,0
"u042",-19.2044918343397,0
"u042",-21.6839740502622,0
"u042",-21.4284100083325,0
"u042",-18.9713626405803,0
"u043",-0.694372204455458,0
"u043",-1.09228222440519,0
"u043",-0.55692230512439,0
"u043",-0.493089396448385,0
"u044",-15.128289635676,0
"u044",-10.9673273661021,0
"u044",-13.8817546134456,0
"u044",-11.3784711752688,0
"u045",-4.58136500833481,0
"u045",-4.28523804901673,0
"u045",-2.39072857160758,0
"u045",-1.86129141672887,0
"u046",-25.6480502089337,0
"u046",-20.8314560047244,0
"u046",-18.4144173237448,0
"u047",-12.7170348450269,0
"u047",-16.4618227215019,0
"u047",-11.8629713615629,0
"u047",-9.79880570988887,0
"u048",-2.7256688959804,0
"u048",-4.39886301767135,0
"u048",-7.15794161977083,0
"u048",-6.27739533100148,0
"u049",-15.7121170516006,0
"u049",-13.2812743454509,0
"u049",-14.1908225104897,0
"u049",-12.3089679743759,0
"u050",-12.5085480287245,0
"u050",-6.76661348125447,0
"u050",-7.53526791822385,0
"u050",-6.11813603775177,0
"u051",-1.55180994861246,0
"u051",-1.01856574504304,0
"u051",-1.31124901214926,0
"u051",-0.802406250298903,0
"u052",-12.4350846442973,0
"u052",-10.6771649377184,0
"u052",-12.8935306503593,0
"u052",-13.3051282616895,0
"u053",-8.85965653806516,0
"u053",-10.8908600334935,0
"u053",-10.3872181867617,0
"u053",-9.66566901710929,0
"u054",-1.20127339443356,0
"u054",-1.06127614547238,0
"u054",-3.3830612350163,0
"u054",-2.09100276817912,0
"u055",-4.95920902036777,0
"u055",-4.38408481197479,0
"u055",-6.50618923426278,0
"u055",-7.39541597063031,0
"u056",-12.9679917196467,0
"u056",-10.8956229647818,0
"u056",-9.40791638521189,0
"u056",-8.27320137863178,0
"u057",-5.66775164112758,0
"u057",-6.868449567103,0
"u057",-4.41702810517036,0
"u057",-6.77323335412115,0
"u058",-19.8575539125306,0
"u058",-12.8131781118876,0
"u058",-16.9354809659721,0
"u058",-12.1856089226178,0
"u059",-4.8915584478882,0
"u059",-3.39808869340583,0
"u059",-4.3363587423926,0
"u059",-5.2697951198863,0
"u060",-6.26924061627028,0
"u060",-6.86839449890854,0
"u060",-6.27134100888788,0
"u060",-8.83158465433186,0
"u061",-1.13934666447635,1
"u061",0.968446048736238,1
"u061",1.52738953383716,1
"u062",-9.19803057049826,0
"u062",-4.68905878488255,0
"u062",-7.32105717139544,0
"u062",-7.68784044407035,0
"u063",-8.76182542141052,0
"u063",-5.59427597064551,0
"u063",-6.66976659025615,0
"u063",-7.4865886174362,0
"u064",-4.27417102358086,0
"u064",-10.0208404513258,0
"u064",-7.36971808813868,0
"u064",-7.67395887585051,0
"u065",-8.86385935083912,0
"u065",-6.85547481041431,0
"u065",-8.06374527272544,0
"u065",-7.33951759583773,0
"u066",-3.08586119107011,0
"u066",-4.88940020123698,0
"u066",-5.36980790496381,0
"u066",-7.03481734870545,0
"u067",-10.4441652462963,0
"u067",-8.15909962977491,0
"u067",-8.34883106526448,0
"u067",-10.6596833082301,0
"u068",-15.0018679892245,0
"u068",-15.6878808241383,0
"u068",-14.1209268737711,0
"u068",-14.0760304217402,0
"u069",-7.18210641214501,0
"u069",-9.27567731317587,0
"u069",-7.67338607535365,0
"u069",-7.42842948663461,0
"u070",-6.87592091822352,0
"u070",-5.67152947160871,0
"u070",-4.72211192418089,0
"u070",-7.23794538925633,0
"u071",-1.36418440329627,0
"u071",-1.53881474848453,0
"u071",-1.59133444702119,0
"u071",-1.90244481662903,0
"u072",-11.0917502312026,0
"u072",-2.48655420113082,0
"u072",-8.45230253719623,0
"u072",-8.3849085950887,0
"u073",-3.69664774255783,0
"u073",-2.15817763293063,0
"u073",-4.45346095002551,0
"u073",-5.79602339202241,0
"u074",-6.95339104128965,0
"u074",-6.27115519314134,0
"u074",-5.71042655309786,0
"u074",-7.10326029387612,0
"u075",-12.6312175616506,0
"u075",-12.8335344236473,0
"u075",-9.9189320296753,0
"u075",-11.7770533908447,0
"u076",-5.41089474945141,0
"u076",-4.42940305761119,0
"u076",-2.84341806719234,0
"u076",-4.25940284575148,0
"u077",-9.70359210522881,0
"u077",-12.1322217265045,0
"u077",-9.00270619514557,0
"u077",-13.5815086291011,0
"u078",-1.72115529678759,0
"u078",-3.72253904905747,0
"u078",-3.24772984415318,0
"u078",-3.37922900215816,0
"u079",-23.7725889164414,0
"u079",-17.5959253873299,0
"u079",-24.2599661570276,0
"u079",-21.8841349044255,0
"u080",-3.86696412841112,0
"u080",-4.16359991359038,0
"u080",-5.6362788049509,0
"u080",-5.12633603072999,0
"u081",-3.16619691436295,0
"u081",-7.58839208988046,0
"u081",-3.96424575517271,0
"u081",-3.99399978166136,0
"u082",-5.27938498294466,0
"u082",-2.96160732233639,0
"u082",-5.78400014693652,0
"u082",-2.58714792832761,0
"u083",-3.24057996081762,0
"u083",-2.88263212583201,0
"u083",-3.20284484634747,0
"u083",-3.15087766234146,0
"u084",-13.1158978770977,0
"u084",-10.6920427039574,0
"u084",-13.9826921031662,0
"u084",-12.3715156098963,0
"u085",-17.5722328839781,0
"u085",-14.0845291347637,0
"u085",-10.8368300758077,0
"u085",-19.0762984333614,0
"u086",-2.56190796323449,1
"u086",-1.22106006221039,1
"u086",-1.65990871551566,1
"u086",-0.147515708651937,1
"u087",-2.58438263947749,0
"u087",-2.09791810212339,0
"u087",-1.43943282833484,0
"u087",-1.5159119791022,0
"u088",-9.26028182513874,0
"u088",-12.0827558240342,0
"u088",-13.7510624067865,0
"u088",-12.8746913433196,0
"u089",-3.24737971507153,1
"u089",-0.520590248247446,1
"u089",0.563494196710044,1
"u089",-1.77888119087293,1
"u090",-2.5019122675623,0
"u090",-3.95525457329648,0
"u090",-2.13748297024505,0
"u090",-3.0976439991807,0
"u091",-6.10761150772104,0
"u091",-6.59728709141316,0
"u091",-6.1165282037806,0
"u091",-6.45713471249197,0
"u092",-4.38402194936761,0
"u092",-5.13070235640858,0
"u092",-4.7946824851488,0
"u092",-3.65997576488222,0
"u093",-12.1716836114569,0
"u093",-14.8391617426411,0
"u093",-15.9395378383356,0
"u093",-11.5357445862428,0
"u094",-15.517651884022,0
"u094",-16.5073608716926,0
"u094",-15.4318745295725,0
"u094",-16.7442519246673,0
"u095",-6.85509612111307,0
"u095",-6.2636065549712,0
"u095",-6.52225081956125,0
"u095",-7.94834534778791,0
"u096",-6.02253410222794,0
"u096",-6.08755766158168,0
"u096",-6.21625866696242,0
"u096",-6.12065988262792,0
"u097",-8.53249377764956,0
"u097",-10.7649103067867,0
"u097",-13.1184842956701,0
"u097",-10.6674915871757,0
"u098",-15.5361037541278,0
"u098",-15.7491843303763,0
"u098",-13.919926484701,0
"u098",-17.234862427219,0
"u099",-9.4058985805678,0
"u099",-8.04566609794619,0
"u099",-10.1632783081126,0
"u099",-8.67741404278786,0
"u100",-10.6424940875432,0
"u100",-12.0798406005906,0
"u100",-18.7709813610663,0
"u100",-20.4484566753504,0
"u101",-0.656397359739984,0
"u101",-1.53402854737639,0
"u101",-3.31673721394866,0
"u101",-3.19052050203551,0
"u102",-2.56297316832716,0
"u102",-1.74760975130059,0
"u102",-1.34575585899267,0
"u102",-0.792562903813142,0
"u103",-18.2366129435348,0
"u103",-14.8476689415274,0
"u103",-15.9884304661105,0
"u103",-18.1638692240109,0
"u104",-14.5300998328394,0
"u104",-13.7927886818565,0
"u104",-13.1632402033943,0
"u104",-8.07797693087969,0
"u105",-7.74940253128637,0
"u105",-7.40040920656248,0
"u105",-10.2830519924091,0
"u105",-8.99863986734374,0
"u106",-6.53993846793071,0
"u106",-7.6383372499324,0
"u106",-4.86033381986651,0
"u106",-7.81988921408231,0
"u107",-8.9389157656422,0
"u107",-9.45705338202792,0
"u107",-8.07740237439978,0
"u107",-6.36513956771816,0
"u108",-11.9170037759824,0
"u108",-10.9351529945099,0
"u108",-10.8372427450957,0
"u108",-11.6975734044321,0
"u109",-12.9106107245017,0
"u109",-12.5042877387622,0
"u109",-13.7713954617871,0
"u109",-11.3573559549137,0
"u110",-9.26644740060771,0
"u110",-11.4705964952205,0
"u110",-11.7553074664724,0
"u110",-8.95542209543465,0
"u111",-9.61351505119176,0
"u111",-6.19856960104362,0
"u111",-9.47550390522047,0
"u111",-11.3178671583593,0
"u112",-14.121982863545,0
"u112",-10.0649822478083,0
"u112",-10.8685330892289,0
"u112",-12.3979026661505,0
"u113",-13.5667801886637,0
"u113",-12.1490079542944,0
"u113",-11.0422494205293,0
"u113",-12.0492174766007,0
"u114",-0.827143582051251,1
"u114",-1.25806681509619,1
"u114",-1.47710818798071,1
"u114",0.772209552851095,1
"u115",-6.97551633299599,0
"u115",-6.7243164594843,0
"u115",-9.02970249803175,0
"u115",-7.99004042998761,0
"u116",-4.92731394535311,0
"u116",-4.93260618382388,0
"u116",-4.03309431350442,0
"u116",-4.14119528638821,0
"u117",-0.0623352601090819,1
"u117",2.19994623478479,1
"u117",0.792890999400608,1
"u117",0.543626496688747,1
"u118",0.161937485670894,1
"u118",0.0504819930322391,1
"u118",0.232651347446064,1
"u118",-0.0118510911059584,1
"u119",-7.49023078378677,0
"u119",-2.99678037201767,0
"u119",-8.17555236345563,0
"u119",-8.06324464997735,0
"u120",-3.58518377234776,0
"u120",-4.04716431902177,0
"u120",-2.31997081614431,0
"u120",-4.6390714510202,0
"u121",-4.99099449514892,0
"u121",-7.67652081926747,0
"u121",-7.60400511494073,0
"u121",-7.88293579383314,0
"u122",-6.28882458987879,0
"u122",-9.16227286523519,0
"u122",-9.69486201336188,0
"u122",-8.89554849212013,0
"u123",-8.26419776634558,0
"u123",-8.87066279882485,0
"u123",-7.88028705985099,0
"u123",-4.23948905861736,0
"u124",-5.99045800222361,0
"u124",-7.77476073367221,0
"u124",-7.70728201887293,0
"u124",-7.78203487179653,0
"u125",-15.2178957456061,0
"u125",-14.7800307361717,0
"u125",-15.9867869853043,0
"u125",-15.681574507145,0
"u126",0.605752554979164,1
"u126",1.04418641657638,1
"u126",1.46535778863272,1
"u126",0.182177107804545,1
"u127",-9.58024986229027,0
"u127",-6.67237556590529,0
"u127",-7.99032352010704,0
"u127",-9.40459304104041,0
"u128",-10.8736287702404,0
"u128",-10.3797277344366,0
"u128",-9.91622784967999,0
"u128",-8.56445014956393,0
"u129",-2.8521754834265,0
"u129",-4.57810685101192,0
"u129",-4.07189533901228,0
"u129",-3.04447978971395,0
"u130",-13.8335357667391,0
"u130",-13.4874180336645,0
"u130",-14.8520303914264,0
"u130",-13.5910399948399,0
"u131",-24.1708318273157,0
"u131",-23.7602779586482,0
"u131",-24.4029551510126,0
"u131",-26.9749871225789,0
"u132",-0.573670717351407,0
"u132",-0.76488183404618,0
"u132",-0.0488139027307604,0
"u132",1.03496764697631,0
"u133",-5.8642867019485,0
"u133",-2.99217402117363,0
"u133",-3.8356356857328,0
"u133",-3.97949124542542,0
"u134",-1.06182554833158,0
"u134",1.14012222563314,0
"u134",-0.869968974178104,0
"u134",-0.61285084236674,0
"u135",-5.79639332162881,0
"u135",-4.95508187377594,0
"u135",-7.91011057713695,0
"u135",-3.71507351377649,0
"u136",-17.0530871745046,0
"u136",-16.6982520570314,0
"u136",-14.2380250788842,0
"u136",-19.5500342591871,0
"u137",-18.3403949008094,0
"u137",-19.6086723218696,0
"u137",-18.7675802687743,0
"u137",-21.305082610123,0
"u138",-14.3549699550278,0
"u138",-14.7093660967234,0
"u138",-18.4953593436119,0
"u138",-16.7579003101317,0
"u139",-11.001388561939,0
"u139",-8.55076590847366,0
"u139",-12.7647266741522,0
"u139",-13.9282467109157,0
"u140",-15.3918739868634,0
"u140",-15.3776950106647,0
"u140",-14.2543079437819,0
"u140",-14.3490529617486,0
"u141",-5.95520109990829,0
"u141",-5.28703586304865,0
"u141",-8.17670074111807,0
"u141",-5.00034848285541,0
"u142",-9.39537143517601,0
"u142",-4.7414505536616,0
"u142",-4.1891433001287,0
"u142",-6.13005891474847,0
"u143",-6.69058695643977,0
"u143",-7.59927751152119,0
"u143",-8.61047649853174,0
"u143",-9.95321310958419,0
"u144",-7.27081252511317,0
"u144",-5.12308606888318,0
"u144",-5.89874186746266,0
"u144",-0.453378155442808,0
"u145",-9.42896292647195,0
"u145",-9.2070790637049,0
"u145",-8.10442743938624,0
"u145",-9.88527208740088,0
"u146",0.949307441932604,1
"u146",0.759818788974979,1
"u146",1.34643477466978,1
"u146",1.01874765197039,1
"u147",-2.08206019038894,1
"u147",0.0851780553784725,1
"u147",-3.28664790990545,1
"u147",-1.3846804958498,1
"u148",-8.25719274900181,0
"u148",-11.4783583282219,0
"u148",-10.0024784473421,0
"u148",-8.47466186098408,0
"u149",-12.6929572303788,0
"u149",-8.62646763810593,0
"u149",-15.0974362444592,0
"u149",-14.3017020839535,0
"u150",-14.3283009269915,0
"u150",-10.394956298813,0
"u150",-15.6058700886088,0
"u150",-13.9107830638837,0
"u151",-2.13856074322436,0
"u151",0.576355187662454,0
"u151",-1.30441004626114,0
"u151",-0.636422104110956,0
"u152",-3.79225033555193,0
"u152",-2.85507103473637,0
"u152",-3.38195031006389,0
"u152",-3.696823273992,0
"u153",-2.73197014458271,0
"u153",-1.48647296677567,0
"u153",-1.92903937266659,0
"u153",-0.503446311987659,0
"u154",-1.33226653258804,0
"u154",0.246406511504089,0
"u154",-0.606679001970353,0
"u154",-0.946626679815536,0
"u155",-1.49490211541556,1
"u155",0.307145303178885,1
"u155",-0.934282574562546,1
"u155",-2.34773242304752,1
"u156",-10.9831419813288,0
"u156",-12.0829450108203,0
"u156",-13.8391578377411,0
"u156",-11.9755865061555,0
"u157",-6.0520719456651,0
"u157",-4.0510025120932,0
"u157",-5.2461713956712,0
"u157",-7.95396098933222,0
"u158",-16.236702777203,0
"u158",-16.134349168116,0
"u158",-13.8516494481144,0
"u158",-15.0206518665194,0
"u159",-12.9974589328667,0
"u159",-10.8948073260413,0
"u159",-11.1960524630988,0
"u159",-14.8360456411133,0
"u160",-8.20093263484934,0
"u160",-9.5005331036897,0
"u160",-9.71180770815539,0
"u160",-12.6201522338262,0
"u161",-6.22429907159338,0
"u161",-5.6961421930077,0
"u161",-8.29433247161266,0
"u161",-9.22889754468961,0
"u162",1.11751737851507,1
"u162",-1.20968829807654,1
"u162",1.81727176045848,1
"u162",0.186737077744514,1
"u162",-0.330970080033447,1
"u162",-0.516416128254008,1
"u162",0.464181448643943,1
"u162",-1.75044816810598,1
"u163",-4.49099889605213,0
"u163",-5.39827844490114,0
"u163",-4.41281445630082,0
"u163",-5.12521690277805,0
"u164",-5.25135484114615,0
"u164",-6.06049609227911,0
"u164",-5.30298640483375,0
"u164",-5.4006800834136,0
"u165",-7.65940201233646,0
"u165",-5.72284668029732,0
"u165",-10.2868730969455,0
"u165",-6.6492441607696,0
"u166",-7.16677295385058,0
"u166",-8.98412822080594,0
"u166",-12.5986245720106,0
"u166",-9.61610435522243,0
"u167",-9.11628673015866,0
"u167",-9.58709593311738,0
"u167",-9.6020550047018,0
"u167",-10.4596472590139,0
"u169",0.857833896622305,1
"u169",-0.52739583257487,1
"u169",0.110224693724836,1
"u169",0.164169870727175,1
"u170",-9.30705099681411,0
"u170",-7.1833060931761,0
"u170",-7.88093384172602,0
"u170",-7.16022891894726,0
"u171",-7.82269681929604,0
"u171",-8.71621460385856,0
"u171",-7.06104179862502,0
"u171",-5.7108348607864,0
"u172",-9.99414234009888,0
"u172",-8.23808231145003,0
"u172",-11.198856759842,0
"u172",-10.9457772558158,0
"u173",-9.26755132963565,0
"u173",-8.63762869646799,0
"u173",-7.06112524224895,0
"u173",-11.3410604178081,0
"u174",-13.2294739457756,0
"u174",-8.91097115027041,0
"u174",-9.37816576171321,0
"u174",-6.68812956405352,0
"u175",-3.6746516309189,0
"u175",-4.69012180595789,0
"u175",-4.72951462047634,0
"u175",-5.91799884882179,0
"u176",-0.685776700316696,0
"u176",-1.35705194894421,0
"u176",-1.52823176136381,0
"u176",0.658018693055331,0
"u177",-6.24298680388893,0
"u177",-2.18676369115926,0
"u177",-5.71212642750031,0
"u177",-5.18096215640158,0
"u178",-2.55455812082235,0
"u178",0.379274840916015,0
"u178",-1.60112680526599,0
"u178",-0.417287852746792,0
"u179",-9.98575671821709,0
"u179",-7.51770386307947,0
"u179",-5.51802053784999,0
"u179",-5.39574881679741,0
"u180",-2.74693601208511,0
"u180",-2.89421122028567,0
"u180",-3.15482624173461,0
"u180",-4.05482260299179,0
"u181",-7.72840670210301,0
"u181",-5.69431412856348,0
"u181",-9.16159967368874,0
"u181",-8.76620965327426,0
"u182",-4.03597087644564,0
"u182",-1.82166109275067,0
"u182",-3.48809382100347,0
"u182",-1.72651030589569,0
"u183",-11.086949834861,0
"u183",-10.1883184906177,0
"u183",-11.4779952745632,0
"u183",-11.8992126737328,0
"u184",-1.71623677794196,0
"u184",-1.02770777862081,0
"u184",-4.09610145508751,0
"u184",-3.120625499044,0
"u185",-8.80045866753972,0
"u185",-9.64214227826084,0
"u185",-9.02450873886316,0
"u185",-7.29212821407378,0
"u186",-4.92235161763701,0
"u186",-5.78465554807211,0
"u186",-3.4930951674231,0
"u186",-5.20936578336879,0
"u187",-2.33164150475975,1
"u187",-0.845814807835929,1
"u187",-1.20373456605421,1
"u187",-0.736872445377518,1
"u188",-10.2897577475683,0
"u188",-7.41246396136705,0
"u188",-10.2947379102416,0
"u188",-9.64065474589775,0
"u189",-10.7664943684683,0
"u189",-9.48217222822414,0
"u189",-11.3016746934499,0
"u189",-11.4217305024894,0
"u190",-6.48049022422336,0
"u190",-2.27968429929437,0
"u190",-7.39954734665336,0
"u190",-5.02824875089537,0
"u191",-0.493081556722244,0
"u191",-0.771764182359066,0
"u191",-3.20004794651844,0
"u191",-0.512908327305921,0
"u192",-11.5745235392423,0
"u192",-9.35031452872592,0
"u192",-10.369234679689,0
"u192",-8.49508428684822,0
"u193",-12.9803242199457,0
"u193",-13.0659571339782,0
"u193",-6.72634533027082,0
"u193",-9.68678214628795,0
"u194",-16.9581238147027,0
"u194",-16.5181864771391,0
"u194",-16.995662774047,0
"u194",-16.5325913034984,0
"u195",-13.1220004950134,0
"u195",-10.6141646156286,0
"u195",-12.9094888511916,0
"u195",-17.2173429009897,0
"u196",-15.7893522850593,0
"u196",-13.1489029043336,0
"u196",-14.7024903341102,0
"u196",-10.013853316058,0
"u197",-5.84589459299268,0
"u197",-5.3490116734526,0
"u197",-3.96870528305982,0
"u197",-5.87712275879975,0
"u198",-4.62643713437952,0
"u198",-7.23931885714902,0
"u198",-5.8092024437524,0
"u198",-6.60082268390439,0
"u199",-11.1560179780326,0
"u199",-9.58229150600841,0
"u199",-10.0716123837292,0
"u199",-11.689752086107,0
"u200",-0.860266443315265,0
"u200",-1.75461726924883,0
"u200",0.803899676420357,0
"u200",-1.18728564356248,0
"u201",-13.1363148079795,0
"u201",-8.53897190080042,0
"u201",-7.67906643959372,0
"u201",-8.40188610101072,0
"u202",-2.15237151537688,0
"u202",-3.19082339865615,0
"u202",-2.92088095370299,0
"u202",-3.47607403911401,0
"u203",-13.8232325720834,0
"u203",-14.587752141014,0
"u203",-11.1333752082352,0
"u203",-15.2399758029961,0
"u204",-10.8872095667149,0
"u204",-9.61836932218455,0
"u204",-11.7282699224236,0
"u204",-8.50228860571502,0
"u205",-1.66412000475197,0
"u205",-2.00448821156952,0
"u205",-5.74268509556971,0
"u205",-6.46079472462192,0
"u206",-6.83646461305709,0
"u206",-12.0655082673845,0
"u206",-10.0104738427159,0
"u206",-10.4286869879732,0
"u207",-0.212294936540081,0
"u207",-0.641824416226552,0
"u207",-1.0288699845362,0
"u207",-1.2155827819101,0
"u208",-21.4495280833581,0
"u208",-23.0778529329105,0
"u208",-22.6438801843933,0
"u208",-21.8040866318156,0
"u209",-0.493086591723568,0
"u209",-1.80635602987731,0
"u209",-0.982130103709629,0
"u209",-2.35450656072003,0
"u210",-11.1726464211683,0
"u210",-11.1039131906011,0
"u210",-10.7292012550788,0
"u210",-10.1059601932427,0
"u211",1.0562478453165,1
"u211",1.49694362565258,1
"u211",2.23518602166419,1
"u211",0.371878329161246,1
"u212",-9.68615466702907,0
"u212",-10.5113373842515,0
"u212",-5.74033942769912,0
"u212",-6.6275020838002,0
"u213",-15.0382126959967,0
"u213",-18.2363087329885,0
"u213",-11.5321010716737,0
"u213",-12.7911462657438,0
"u214",-9.17493796002404,0
"u214",-8.20199427728449,0
"u214",-3.93072792893225,0
"u215",-10.963450067253,0
"u215",-6.02052105584028,0
"u215",-7.82251189900677,0
"u215",-9.86424424831584,0
"u216",-13.7321896230527,0
"u216",-11.6748407365831,0
"u216",-13.5401339316008,0
"u216",-13.1579881952565,0
"u217",-2.85185114372079,0
"u217",-3.4538188567927,0
"u217",-1.42117124326573,0
"u217",-5.28723521386487,0
"u218",-13.770443135438,0
"u218",-12.6419783005286,0
"u218",-15.3594251926084,0
"u218",-14.8468812333511,0
"u219",-16.417487093618,0
"u219",-19.3189359661871,0
"u219",-17.5799039654079,0
"u219",-15.4860895605345,0
"u220",-10.5803916750384,0
"u220",-7.8969787259871,0
"u220",-10.472361553564,0
"u220",-10.7555493236408,0
"u221",0.451949339745985,1
"u221",1.27551677274941,1
"u221",1.1002809327292,1
"u221",0.979996586712181,1
"u222",-14.9164264574713,0
"u222",-14.276385424004,0
"u222",-11.1009804704499,0
"u222",-16.573446573954,0
"u223",0.650388499864608,1
"u223",1.34066758362229,1
"u223",-0.507837140669546,1
"u223",0.987383516753182,1
"u224",-6.03998350007443,0
"u224",-6.61197659850366,0
"u224",-11.832174741787,0
"u224",-9.83230006497487,0
"u225",-15.8836741551147,0
"u225",-13.379049684722,0
"u225",-14.7254174750445,0
"u225",-11.3325465740045,0
"u226",-15.6115976078828,0
"u226",-12.5873341798701,0
"u226",-15.0305462647164,0
"u226",-16.5923479146868,0
"u227",-10.5705680925322,0
"u227",-10.8441366127002,0
"u227",-12.8077206661125,0
"u227",-9.31877661693749,0
"u228",-10.1302036996303,0
"u228",-10.575068492154,0
"u228",-12.9592564310806,0
"u228",-11.7524513972383,0
"u229",-10.8255199454819,0
"u229",-7.08224572816903,0
"u229",-9.96519811462726,0
"u229",-11.4268441348445,0
"u230",-6.00174049079588,0
"u230",-7.91732712605519,0
"u230",-7.63368771726674,0
"u230",-8.71303837913573,0
"u231",-12.1849742664527,0
"u231",-9.87584101393808,0
"u231",-12.5679600792236,0
"u231",-15.2354444434367,0
"u232",-7.99252858109816,0
"u232",-6.98941469024588,0
"u232",-14.8816234592997,0
"u232",-12.7284637010957,0
"u233",-1.9176028166097,0
"u233",-1.35913988651796,0
"u233",-1.26393867672334,0
"u233",-2.46652852061894,0
"u234",-10.5177183187047,0
"u234",-5.50491959116497,0
"u234",-6.27569005114144,0
"u234",-9.63444453415427,0
"u235",2.13003174187437,0
"u235",0.706817396086073,0
"u235",2.67873233263047,0
"u235",1.26940430929726,0
"u236",2.59538257588282,0
"u236",0.0640552326480694,0
"u236",0.376520718839068,0
"u236",1.19580766984263,0
"u237",-9.47171979478345,0
"u237",-8.34882386087567,0
"u237",-10.5114149276517,0
"u237",-11.6420714675874,0
"u238",-10.8178166925606,0
"u238",-9.30450447840691,0
"u238",-10.2077590819663,0
"u238",-10.7941723003976,0
"u239",-9.66785373386226,0
"u239",-7.76352119750293,0
"u239",-8.9558926183187,0
"u239",-12.534469926702,0
"u240",-11.8639086865673,0
"u240",-11.280220804154,0
"u240",-11.6321759105725,0
"u240",-13.7278187140323,0
"u241",-20.9974515046498,0
"u241",-15.8804604794721,0
"u241",-21.1971623891039,0
"u241",-21.02194275708,0
"u242",-21.8732596989475,0
"u242",-24.7324827145186,0
"u242",-19.2383367033729,0
"u242",-23.9408578028438,0
"u243",-15.9283690481519,0
"u243",-12.5202862671161,0
"u243",-11.9186282058157,0
"u243",-14.492319490338,0
"u244",-0.301104169081515,1
"u244",2.41257930313911,1
"u244",0.413208464753561,1
"u244",-0.487360264947641,1
"u246",-7.29460296517725,0
"u246",-6.54620632986439,0
"u246",-6.27888623115285,0
"u246",-6.52391016697448,0
"u247",-6.57934217836549,0
"u247",-7.8118781905485,0
"u247",-8.9043173154787,0
"u247",-8.50555758842642,0
"u248",-12.632283305963,0
"u248",-11.8294212944065,0
"u248",-13.001389105252,0
"u248",-12.3912401460726,0
"u249",-2.11625413282612,0
"u249",-0.884159476775507,0
"u249",-1.46615690242807,0
"u249",-1.06736551698848,0
"u250",0.823882908016571,1
"u250",-0.837857633085029,1
"u250",0.817789690445458,1
"u250",1.63542205327201,1
"u251",-16.3088700843524,0
"u251",-14.5177793115031,0
"u251",-9.09907623852444,0
"u251",-11.2646181342594,0
"u252",-23.0908168852391,0
"u252",-19.9600422462316,0
"u252",-21.4122112243389,0
"u252",-21.1264663837892,0
"u253",-2.04146399684223,1
"u253",-1.20324996250115,1
"u253",1.09950292722418,1
"u253",-0.295152172840975,1
"u254",-8.7917061180668,0
"u254",-10.4657463872197,0
"u254",-7.02088420306442,0
"u254",-5.45931099153134,0
"u255",-12.3417238171228,0
"u255",-8.82622215535822,0
"u255",-9.85531180475062,0
"u255",-11.8740415744513,0
"u256",-9.09899770379451,0
"u256",-3.8210819601205,0
"u256",-5.15853640550342,0
"u256",-7.88095836333438,0
"u257",-6.14091113919685,0
"u257",-5.65571978187494,0
"u257",-4.1970613600305,0
"u257",-2.62258046509722,0
"u258",-4.99760212885484,0
"u258",-1.91221986557771,0
"u258",-3.03788417941902,0
"u258",-3.67882644825312,0
"u259",-15.1746448065593,0
"u259",-17.6926112114351,0
"u259",-16.9235513305671,0
"u259",-15.6777314926779,0
"u260",-17.1892276532007,0
"u260",-18.3797646580007,0
"u260",-17.889992095228,0
"u260",-18.4144207535724,0
"u261",-10.150791699847,0
"u261",-9.26011358443143,0
"u261",-9.64412592923268,0
"u261",-7.24468439941677,0
"u262",-13.4115928593172,0
"u262",-13.6813220776983,0
"u262",-14.100326068379,0
"u262",-12.1023796003929,0
"u263",-2.01717574009977,0
"u263",-2.5071721747614,0
"u263",-2.76583266116707,0
"u263",-1.31530789026689,0
"u264",-6.98832185309319,0
"u264",-7.5148457838079,0
"u264",-8.6388936368908,0
"u264",-8.04488472434255,0
"u265",-10.0396268725218,0
"u265",-12.8929281148964,0
"u265",-13.9334366334739,0
"u265",-13.8396549172615,0
"u268",-9.76106480420323,0
"u268",-10.600426203792,0
"u268",-11.7665841110808,0
"u268",-6.68371406510535,0
"u268",-14.7644556263031,0
"u268",-7.31767060589702,0
"u268",-14.5265092634859,0
"u268",-5.36348930687332,0
"u269",-4.63412300762163,0
"u269",-2.43753573983365,0
"u269",-6.25920186573655,0
"u269",-6.26273394779618,0
"u270",-5.85741283691845,0
"u270",-9.19003352176552,0
"u270",-4.10962049898338,0
"u270",-12.1862816661694,0
"u270",-6.91280654569704,0
"u270",-15.3044125205417,0
"u270",-10.2640956134578,0
"u270",-12.4861737578863,0
"u271",-5.5952866661601,0
"u271",-7.13217801296959,0
"u271",-6.22616427749581,0
"u271",-5.24075466183115,0
"u273",-3.07539296538222,0
"u273",-3.7313176910096,0
"u273",-3.53584833563178,0
"u273",-2.90024585550546,0
"u274",0.392952223887443,0
"u274",-0.444265828503575,0
"u274",-0.519608030240482,0
"u274",-2.75204412659462,0
"u275",-4.22015317735877,0
"u275",-1.66061497513479,0
"u275",-4.78353577778125,0
"u275",-5.03566314056094,0
"u276",-20.2569127870827,0
"u276",-16.887451494583,0
"u276",-20.6996512255908,0
"u276",-19.8916883368824,0
"u278",-8.94021845998478,0
"u278",-9.69626875533127,0
"u278",-6.46714964082225,0
"u278",-9.89120186266694,0
"u279",-3.77812354540162,0
"u279",-2.79110830223321,0
"u279",-2.49207708995589,0
"u279",-2.7721231851425,0
"u279",-1.46537811356034,0
"u279",-3.27373146971586,0
"u279",-5.02321467185241,0
"u279",-3.71084455623025,0
"u279",-3.4270515491453,0
"u279",-3.3169991949167,0
"u279",-1.58170624830062,0
"u279",-2.17780191193716,0
"u281",-2.99370054332758,0
"u281",-7.33658737144025,0
"u281",-6.44731155527578,0
"u281",-8.974117211427,0
"u283",-2.07714528335508,0
"u283",-6.96916233397102,0
"u283",-2.28677824041369,0
"u283",-7.37486998580291,0
"u283",-4.7525584131259,0
"u283",-7.02546317176175,0
"u283",-3.82398288228034,0
"u283",-5.01465113277506,0
"u285",-9.69065324240462,0
"u285",-7.97252523482154,0
"u285",-8.10932102698795,0
"u285",-8.20780333375414,0
"u287",-12.9356753211941,0
"u287",-11.5181647954037,0
"u287",-12.6462986503318,0
"u287",-7.477340430363,0
"u287",-14.2874346229793,0
"u287",-10.5000607590528,0
"u287",-15.7305237677625,0
"u287",-19.1460547422384,0
"u288",-4.76029525038259,0
"u288",-3.33066694523517,0
"u288",-4.25140187597409,0
"u288",-3.93541857326476,0
"u289",-2.73065854906298,0
"u289",-3.77166385154562,0
"u289",-5.81087898705045,0
"u289",-5.0637677534637,0
"u290",-6.65549656384274,0
"u290",-7.29606130262585,0
"u290",-6.32845799440377,0
"u290",-5.55460814835106,0
"u291",-25.2079256065296,0
"u291",-24.4447591697678,0
"u291",-25.1593406773208,0
"u291",-22.6092109503382,0
"u292",1.33122316318162,0
"u292",1.04066759301219,0
"u292",1.11104153725012,0
"u292",0.0186693694804649,0
"u293",-10.262935712346,0
"u293",-9.09438612628516,0
"u293",-10.3080560378736,0
"u293",-11.330599823175,0
"u294",-6.99680186678801,0
"u294",-6.80260997640654,0
"u294",-6.63249290095741,0
"u294",-4.86022645103732,0
"u295",-18.314600577378,0
"u296",-7.66140172979757,0
"u296",-8.66235518708241,0
"u296",-8.35590095390316,0
"u296",-8.0871654114924,0
"u297",-4.85607117490546,0
"u297",-2.67517573828999,0
"u297",-4.84585011214067,0
"u297",-1.82021542494804,0
"u297",-4.6657602382991,0
"u297",-3.54640363365054,0
"u297",-4.65412668233663,0
"u297",-2.0166963674954,0
"u299",-2.73077900643235,0
"u299",-4.61916887994078,0
"u299",-7.09559895924923,0
"u299",-4.77734503922945,0
"u300",-1.94177109360868,0
"u300",-2.48711083213983,0
"u300",1.80946210760285,0
"u300",-2.56721805825099,0
"u301",-2.57535230919734,0
"u301",-2.13915871715139,0
"u301",-2.26223821572516,0
"u301",-0.429542242409534,0
"u302",-9.94557547902382,0
"u302",-6.68192165194892,0
"u302",-7.80860425798273,0
"u302",-10.2384283028316,0
"u303",-3.34977010389027,0
"u303",-1.12377879953696,0
"u303",-3.31537478978088,0
"u303",-0.116370600622474,0
"u304",-2.66991812486737,0
"u304",-2.07267099699781,0
"u304",-5.44357287828021,0
"u304",-3.14956080973408,0
"u305",-13.0636092238329,0
"u305",-11.4527436490397,0
"u305",-13.0769608771115,0
"u305",-9.60927280163032,0
"u306",-4.99939409136815,0
"u306",-5.20931985862213,0
"u306",-3.70106103244589,0
"u306",-3.96051010386218,0
"u307",-8.98660364455742,0
"u307",-7.10528729942505,0
"u307",-9.89915009149365,0
"u307",-11.8648681402368,0
"u308",-6.50554915862837,0
"u308",-8.34484843642122,0
"u308",-6.33434725004728,0
"u308",-7.33477066987494,0
"u309",-7.30596798868903,0
"u309",-7.26659453436747,0
"u309",-5.38478424234247,0
"u309",-6.81819002330847,0
"u310",-9.66699042120033,0
"u310",-6.58226723579174,0
"u310",-6.9479285154842,0
"u310",-9.87211249839169,0
"u311",-5.05647632534464,0
"u311",-3.56931131760892,0
"u311",-4.51033274707652,0
"u311",-5.00008749868665,0
"u312",-5.38853660962137,0
"u312",-6.91297846193406,0
"u312",-7.86473443669786,0
"u312",-11.0310791638233,0
"u313",-9.07025793376252,0
"u313",-8.95946410506884,0
"u313",-11.2415813348362,0
"u313",-8.599270732677,0
"u314",-1.50345968499121,0
"u314",-0.108227679337947,0
"u314",-1.02912429925091,0
"u314",-0.185072614213453,0
"u315",-7.61629036304911,0
"u315",-7.15599157711282,0
"u315",-8.82175000390331,0
"u315",-8.07524906903238,0
"u316",-4.97137762946318,0
"u316",-1.92357440754957,0
"u316",-4.56290167097496,0
"u316",-3.1483202838856,0
"u317",-2.15329641420446,0
"u317",-2.93800194315311,0
"u317",-4.66399192273562,0
"u317",-4.57833719170002,0
"u318",-4.44196820928542,0
"u318",-4.89139273347199,0
"u318",-9.09193255688119,0
"u318",-9.36833440376954,0
"u319",-1.79629724100082,0
"u319",-2.93015746581605,0
"u319",-3.64949062821188,0
"u319",-2.44630291790414,0
"u320",1.07886685201263,0
"u320",-1.38805964933244,0
"u320",-2.91099823107428,0
"u320",-1.74845356525484,0
"u321",-22.6453712247611,0
"u321",-25.9555213189804,0
"u321",-21.6218062867068,0
"u321",-27.4900748198408,0
"u321",-23.068568407424,0
"u321",-26.3037717586595,0
"u321",-23.7786076088104,0
"u321",-26.975562965595,0
"u323",-14.2200955165075,0
"u323",-14.2906044475628,0
"u323",-13.3142426694645,0
"u323",-13.3352711074946,0
"u324",-20.4623060508918,0
"u324",-14.9840616048574,0
"u324",-26.9287244062093,0
"u324",-25.5951983308882,0
"u325",-12.2015784188654,0
"u325",-11.506260035432,0
"u325",-11.5952435900901,0
"u325",-6.70409565405248,0
"u326",-4.25584312835563,0
"u326",-7.05432206085042,0
"u326",-7.46816854918525,0
"u326",-4.28147467338631,0
"u327",-6.594405321911,0
"u327",-5.75319170698108,0
"u327",-7.34891673620213,0
"u327",-10.7549364095104,0
"u328",-5.27262859721861,0
"u328",-2.67249795738917,0
"u328",-4.81905167250633,0
"u328",-2.5211548044059,0
"u329",-2.24670587849329,0
"u329",-1.24183378949733,0
"u329",-1.12815967012706,0
"u329",-2.1282725958903,0
"u330",-8.6429703485322,0
"u330",-6.44411298210178,0
"u330",-3.81088622158602,0
"u330",-8.30956262176086,0
"u331",-5.16780552297196,0
"u331",-6.19107474773157,0
"u331",-8.16240994622329,0
"u331",-10.6862253149288,0
"u332",-10.69000518899,0
"u332",-8.84518691291378,0
"u332",-8.16524094287836,0
"u332",-7.88038509152059,0
"u333",-3.58244544012596,0
"u333",-4.26447627086412,0
"u333",-4.90092087907389,0
"u333",-3.47863248864959,0
"u334",-4.21094743439039,0
"u334",-5.19266622199847,0
"u334",-3.85512381778942,0
"u334",-1.78719083444716,0
"u335",-4.88504747947717,0
"u335",-3.56929538900594,0
"u335",-3.82056063166873,0
"u335",-4.84419498232016,0
"u336",-5.61610389989511,0
"u338",-12.9575259901443,0
"u338",-12.2343520038669,0
"u338",-13.4346111458522,0
"u338",-14.6891040626553,0
"u339",-5.46262694402041,0
"u339",-6.56360153386859,0
"u339",-10.9728390768434,0
"u339",-5.72011211964043,0
"u339",-4.29241487712202,0
"u339",-10.303117768946,0
"u339",-6.5737055347707,0
"u339",-5.97020163996363,0
"u339",-10.8506568085094,0
"u339",-8.10748576807525,0
"u339",-6.05324376979058,0
"u339",-5.64821043161394,0
"u340",-1.58580658808931,0
"u340",-1.59837655644506,0
"u340",-4.23643915037468,0
"u340",-4.30445853758874,0
"u341",-4.48814132662142,0
"u341",-7.88747046179502,0
"u341",-3.77341070941786,0
"u341",-5.1442280123751,0
"u341",-4.31255484601795,0
"u341",-6.04596024329778,0
"u341",-5.15771004839157,0
"u341",-6.27178435550838,0
"u344",-10.8319188794741,0
"u344",-9.83600506028985,0
"u344",-10.7260508737986,0
"u344",-8.98650724274554,0
"u345",-2.47293942515346,0
"u345",-0.852864662594138,0
"u345",-1.25813763530675,0
"u345",-2.42632279920784,0
"u346",-15.582852088237,0
"u346",-16.7120972145373,0
"u346",-10.1282345087488,0
"u346",-17.7277233179733,0
"u346",-12.4002729378214,0
"u346",-18.5388013164581,0
"u346",-15.161513537132,0
"u346",-19.7073525878859,0
"u347",-12.8713940475111,0
"u347",-13.4197374158954,0
"u347",-13.8747032219879,0
"u347",-16.0046475695844,0
"u349",-0.909203934174629,0
"u349",-2.14584813036759,0
"u349",-2.25453968385738,0
"u349",-3.09063808256034,0
"u349",-2.64722015817013,0
"u349",-4.24725254972068,0
"u349",-2.03166795579608,0
"u349",-3.87366507782457,0
"u352",-6.02387966408785,0
"u352",-7.3516186417497,0
"u352",-6.64988098992653,0
"u352",-9.37392429181062,0
"u353",-4.75186502871673,0
"u353",-8.71165647545655,0
"u353",-7.21002147858758,0
"u353",-8.91605040617069,0
"u353",-5.50369711220429,0
"u353",-11.3069661522759,0
"u353",-8.71045905795068,0
"u353",-5.98218473361378,0
"u354",-30.6456330124235,0
"u354",-31.1116323766825,0
"u354",-31.6421186165654,0
"u354",-27.886846164375,0
"u355",-19.3613522135766,0
"u355",-17.9250759213823,0
"u355",-14.7895529888868,0
"u355",-18.1616755242657,0
"u358",-7.48709239340501,0
"u358",-8.87292505328763,0
"u358",-5.66944485583193,0
"u358",-9.16834133720188,0
"u358",-7.61946537972074,0
"u358",-11.8579197119155,0
"u358",-9.77369178760505,0
"u358",-5.84967485028625,0
"u359",-7.54825612423508,0
"u359",-28.6560461528876,0
"u359",-5.96797161255568,0
"u359",-27.6780042799283,0
"u359",-5.48360963397188,0
"u359",-26.5525566699792,0
"u359",-4.6772110874501,0
"u359",-25.8992871954255,0
"u360",-6.68826182570288,0
"u360",-9.86307638468912,0
"u360",-8.84746326843693,0
"u360",-11.1269342005901,0
"u361",-12.5653885143388,0
"u361",-6.50803933681056,0
"u361",-9.80497696900888,0
"u361",-6.93924784727866,0
"u361",-10.5045503276359,0
"u361",-8.45663785554804,0
"u361",-11.8352296729974,0
"u361",-7.45281081335302,0
"u362",-2.78754813222332,0
"u362",-1.00659741774534,0
"u362",-1.95919288331512,0
"u362",-1.37451105353396,0
"u364",-3.46411284639286,0
"u364",-3.14684467509079,0
"u364",-4.43403406818772,0
"u364",-4.25452685503649,0
"u366",-10.6924958418269,0
"u366",-15.4104368932033,0
"u366",-9.89322859143259,0
"u366",-16.3966526303663,0
"u366",-6.15505889224654,0
"u366",-16.8450669284716,0
"u366",-10.7841818903104,0
"u366",-15.4260823214353,0
"u367",-15.9047907364681,0
"u367",-13.676460851538,0
"u367",-15.4287661972289,0
"u367",-17.0209447507116,0
"u369",-4.49196362425521,0
"u369",-15.3322568222644,0
"u369",-3.56028769522511,0
"u369",-17.3634130554515,0
"u369",-4.7595207327736,0
"u369",-8.02357949505869,0
"u369",-2.32441295075987,0
"u369",-10.2202856197531,0
"u370",-4.24922155390876,0
"u370",-3.58227522499771,0
"u370",-4.05386286747766,0
"u370",-4.26697360407196,0
"u371",-9.43110324103706,0
"u371",-7.26559592615209,0
"u371",-8.26522102724174,0
"u371",-7.12670724235074,0
"u372",-8.40767357157083,0
"u372",-3.7864628025953,0
"u372",-7.10520273925576,0
"u372",-7.69670260928088,0
"u373",-5.96928269565366,0
"u373",-3.97907253488177,0
"u373",-5.0403003499195,0
"u373",-4.55471102833533,0
"u374",-7.80755526373389,0
"u374",-5.97864126136144,0
"u374",-5.80121259498015,0
"u374",-7.13803767391052,0
"u375",-10.9749946771773,0
"u375",-11.5416104723516,0
"u375",-12.5029305450741,0
"u375",-13.968119173637,0
"u376",-14.193144356571,0
"u376",-8.85665382074438,0
"u376",-15.8215601039354,0
"u376",-16.2040262784786,0
"u377",-3.45251263863047,0
"u377",-2.60593450587865,0
"u377",-4.60973548646395,0
"u377",-5.23632518970406,0
"u378",-8.52103863090257,0
"u378",-8.20084192649068,0
"u378",-9.41884316803711,0
"u378",-7.63439550391675,0
"u383",-4.91541014677055,0
"u383",-8.49761812612437,0
"u383",-3.97260906429601,0
"u383",-1.81543374937385,0
"u383",-3.58921702196038,0
"u383",-5.5551649489634,0
"u383",-4.20517492446357,0
"u383",-8.22943095993431,0
"u383",-4.87613888269953,0
"u383",-3.07929230965066,0
"u383",-3.31559464570444,0
"u383",-17.1864257494583,0
"u396",-9.97603440362504,0
"u396",-11.8858558248008,0
"u396",-10.8001915693545,0
"u396",-10.2188406029842,0
"u398",-7.21381149229365,0
"u398",-9.37169145813247,0
"u398",-6.19289105662412,0
"u398",-4.16892871865684,0
"u398",-8.01594223927288,0
"u398",-7.97518941205803,0
"u398",-9.66856159754656,0
"u398",-8.20577020976521,0
"u402",-1.29450411074084,0
"u402",-1.48219011009896,0
"u402",-0.606223914747542,0
"u402",-2.38227602220196,0
"u403",-13.414275730297,0
"u403",-5.84434330493855,0
"u403",-9.67632666078758,0
"u403",-12.3822580118813,0
"u407",-15.6807405783503,0
"u407",-6.81976422444249,0
"u407",-17.2482992159128,0
"u407",-10.9658820481064,0
"u407",-18.1879859732841,0
"u407",-10.3972677392231,0
"u407",-19.0671450926165,0
"u407",-12.3085413121052,0
"u409",-3.40269585630745,1
"u409",-0.232256567589932,1
"u409",0.137851408381994,1
"u409",-0.0573287189949792,1
"u409",-2.05826239584023,1
"u409",-0.426237182980309,1
"u409",-2.02574245266838,1
"u409",0.961642500566523,1
"u414",0.165767192255217,0
"u414",-0.0407441915924487,0
"u414",-0.0828931341430827,0
"u414",-1.19139790322614,0
"u414",0.802637354138971,0
"u414",-1.27289117923411,0
"u414",0.0197075363677293,0
"u414",-0.137390857636662,0
"u415",-4.70789012068076,0
"u415",-5.16217023943285,0
"u415",-5.74998745577764,0
"u415",-5.10880903924299,0
"u416",-6.42718749123117,0
"u416",-4.94958080238352,0
"u416",-5.8135578023874,0
"u416",-6.63969579870727,0
"u417",-13.9598611291009,0
"u417",-11.2228743574437,0
"u417",-12.9568675264183,0
"u417",-13.2113476606811,0
"u418",-7.32277949796888,0
"u418",-6.52588190383702,0
"u418",-8.92461145726432,0
"u418",-7.60595250426236,0
"u420",-2.74308426006542,0
"u420",-4.90463343439768,0
"u420",-1.07147163232277,0
"u420",-4.96062893438092,0
"u420",-0.677852465799033,0
"u420",-5.50890034316032,0
"u420",-3.63063440626999,0
"u420",-4.95309533606079,0
"u427",-29.0065330916111,0
"u427",-27.6507207893686,0
"u427",-27.5958435985819,0
"u427",-22.6669024239869,0
"u427",-25.2811100461432,0
"u427",-11.3222542759455,0
"u427",-28.6710663186134,0
"u427",-22.1526742608211,0
"u451",-1.48278262068091,0
"u451",-1.2984920609899,0
"u451",-2.31003349131768,0
"u451",-1.15842602297655,0
"u451",-3.18816981681474,0
"u451",-2.91217803136026,0
"u451",-4.54256925367746,0
"u451",-1.9977526664138,0
"u457",-14.4909622471451,0
"u457",-13.6053021059456,0
"u457",-12.3138854740677,0
"u457",-10.426305429521,0
"u458",-10.4019015115274,0
"u458",-8.16283047360805,0
"u458",-8.9126950909197,0
"u458",-9.86457112263707,0
"u459",1.83084028816586,1
"u459",1.27314923712324,1
"u459",1.35365983671449,1
"u459",0.863890864686583,1
"u460",0.140052972096164,0
"u460",-0.682384709975825,0
"u460",-1.63063644285662,0
"u460",-2.25805809530257,0
"u461",-0.23594372495352,0
"u461",-2.32810087705373,0
"u461",-2.94552979619035,0
"u461",-2.97960796176793,0
"u462",-7.11651620833722,0
"u462",-5.60757363008549,0
"u462",-6.96396861251265,0
"u462",-7.91631320081382,0
"u463",-1.99029396130903,0
"u463",-2.28821232944492,0
"u463",-1.92308735355643,0
"u463",-3.81687903439896,0
"u464",-12.3315213992289,0
"u464",-13.7441777187845,0
"u464",-11.6145408393583,0
"u464",-10.2695081738265,0
"u465",-6.90370314403198,0
"u465",-7.14845058169866,0
"u465",-6.11188275516302,0
"u465",-6.80829700526865,0
"u466",-9.91289693643427,0
"u466",-7.77461644807725,0
"u466",-9.10529396648599,0
"u466",-9.92939332159361,0
"u467",0.095030086207883,1
"u467",0.428644367741203,1
"u467",1.69966578505613,1
"u467",0.878881869173673,1
"u468",-13.5054495843049,0
"u468",-14.6297694320423,0
"u468",-12.4829707173131,0
"u468",-8.6642869198104,0
"u469",-9.09256015905226,0
"u469",-10.0134956826073,0
"u469",-11.831992591346,0
"u469",-11.1465867615706,0
"u470",-13.4854118971076,0
"u470",-11.0813676265026,0
"u470",-14.2536546859408,0
"u470",-12.8614547681436,0
"u471",-9.44775629412613,0
"u471",-7.18048262567357,0
"u471",-6.65238727215817,0
"u471",-7.36345188069794,0
"u472",-1.55150754410992,0
"u472",-0.723091974561184,0
"u472",-1.15031295681987,0
"u472",-0.48835912187424,0
"u473",-4.12926657418082,0
"u473",-4.99127476494478,0
"u473",-4.20848724864631,0
"u473",-3.26364083620877,0
"u474",-3.96971074937183,0
"u474",-6.64380725931523,0
"u474",-6.70008050407582,0
"u474",-6.67237873669591,0
"u475",-11.9848751337925,0
"u475",-13.128729311461,0
"u475",-7.87654146816908,0
"u475",-15.1824806168043,0
"u476",-0.383274519694183,0
"u476",-0.414532221464452,0
"u476",0.519691926738098,0
"u476",0.827217579029245,0
"u476",-0.785705485883692,0
"u476",1.31796276471921,0
"u476",0.532769735567392,0
"u476",1.34956917866841,0
"u478",-11.9703378308942,0
"u478",-12.0940407151076,0
"u478",-11.6508317822556,0
"u478",-11.7207238225813,0
"u479",-2.49219077003852,0
"u479",-1.29101404924246,0
"u479",-2.70507921701621,0
"u479",-1.73647647702616,0
"u483",-14.2811587554433,0
"u483",-10.6335655849351,0
"u483",-10.7826084789427,0
"u483",-9.47173937267987,0
"u484",-0.490189851610589,0
"u484",-2.92359176974868,0
"u484",-0.2730387682866,0
"u484",-3.72141614770401,0
"u484",0.509716035980331,0
"u484",-2.09378322364047,0
"u484",0.34668929485488,0
"u484",-2.1068973897781,0
"u487",-7.98471037182762,0
"u487",-7.32694445558772,0
"u487",-10.8168715547643,0
"u487",-6.89822425094905,0
"u488",-10.7863443943499,0
"u488",-14.3615278730307,0
"u488",-11.9005694054646,0
"u488",-9.20208036538747,0
"u488",-12.9733537062422,0
"u488",-11.9652045520295,0
"u488",-11.2622542179964,0
"u488",-12.9007216181298,0
"u489",-11.2377955756093,0
"u489",-3.84320698301502,0
"u489",-6.50868078585545,0
"u489",-6.76829413168118,0
"u491",-3.57319436773727,0
"u491",-1.27368660389278,0
"u491",-1.09291757473094,0
"u491",1.08283793217795,0
"u491",-1.58502044256007,0
"u491",-0.109675614939796,0
"u491",-0.995254183144612,0
"u491",-0.628928274873774,0
"u493",-3.71168128930796,0
"u493",-5.30152938695201,0
"u493",-2.74598494648203,0
"u493",-2.51933918157587,0
"u496",0.956121057136251,0
"u496",-2.01296077136084,0
"u496",-0.889600243060102,0
"u496",-0.992988863561084,0
"u496",-0.781621925104123,0
"u496",-0.668290572910086,0
"u496",0.62374569877867,0
"u496",-1.02484528298807,0
"u498",-0.0743371713960066,0
"u498",-1.66912687493732,0
"u498",0.476273848871454,0
"u498",-0.327865741533431,0
"u498",0.318441854484387,0
"u498",0.51886801876724,0
"u498",-0.0846771780095974,0
"u498",2.13864617506913,0
"u499",-2.15374580773639,0
"u499",-2.39910104587279,0
"u499",-3.01404145103412,0
"u499",-4.60475355511011,0
"u499",-2.99465605585971,0
"u499",-2.85131517125407,0
"u499",-3.73887262488292,0
"u499",-3.56578276424899,0
"u501",-2.14520937643965,0
"u501",-3.8919806615384,0
"u501",-3.3562349280221,0
"u501",-3.85512761572689,0
"u501",-4.70432451223227,0
"u501",-3.45655414429442,0
"u501",-3.160012686538,0
"u501",-3.23450463812692,0
"u502",-2.66862010114638,0
"u502",-2.16413433388786,0
"u502",-4.606393387261,0
"u502",-3.45265831012702,0
"u502",-5.09665982551588,0
"u502",-2.25957723645969,0
"u502",-3.48889480748664,0
"u502",-0.65441595171275,0
