"","PERFORMANCE","groups"
"DAY00_GREENxURANAxURANA",0.889052535489887,"a"
"DAY00_THRESH_GREEN1xURANAxURANA",0.888907024775383,"a"
"DAY00_MEDIAN_GREENxURANAxURANA",0.887875704786886,"a"
"DAY00_THRESH_GREEN1xINVERLEIGHxURANA",0.880214181140034,"ab"
"DAY00_MEDIAN_GREENxINVERLEIGHxURANA",0.872993568683497,"bc"
"DAY00_GREENxINVERLEIGHxURANA",0.872405055293636,"bcd"
"DAY00_AUC_GREENxURANAxURANA",0.869897778668596,"cd"
"DAY00_MEDIAN_REDxURANAxURANA",0.86591938196617,"cde"
"DAY14_GREEN_INDEXxURANAxURANA",0.862827644203536,"def"
"DAY00_AUC_GREENxINVERLEIGHxURANA",0.859291792664116,"efg"
"DAY00_REDxURANAxURANA",0.858996000034858,"efg"
"DAY00_MEDIAN_REDxINVERLEIGHxURANA",0.857814332772699,"efg"
"DAY14_GREEN_INDEXxINVERLEIGHxURANA",0.855017276537895,"fgh"
"DAY14_AUC_REDxINVERLEIGHxURANA",0.852660281827609,"gh"
"DAY00_REDxINVERLEIGHxURANA",0.846325217209436,"hi"
"DAY14_AUC_REDxURANAxURANA",0.841608221279117,"ij"
"DAY14_REDxURANAxURANA",0.836895539036697,"ij"
"DAY14_MEDIAN_REDxURANAxURANA",0.834538871120949,"j"
"DAY00_AUC_REDxURANAxURANA",0.814350310672674,"k"
"DAY00_AUC_REDxINVERLEIGHxURANA",0.813022740542566,"k"
"DAY00_GREEN_INDEXxURANAxURANA",0.809044017045603,"kl"
"DAY00_GREEN_INDEXxINVERLEIGHxURANA",0.802560108408641,"lm"
"DAY14_GREEN_INDEXxURANAxINVERLEIGH",0.802257771968223,"lmn"
"DAY14_GREEN_INDEXxINVERLEIGHxINVERLEIGH",0.798362870865759,"mno"
"DAY00_THRESH_GREEN1xURANAxINVERLEIGH",0.796936152318418,"mnop"
"DAY00_GREEN_FRACTIONxURANAxURANA",0.794752812611655,"mnop"
"DAY00_MEDIAN_GREENxURANAxINVERLEIGH",0.792655642023346,"nop"
"DAY14_MEDIAN_REDxINVERLEIGHxURANA",0.792099698477573,"op"
"DAY00_THRESH_GREEN1xINVERLEIGHxINVERLEIGH",0.78967062864786,"opq"
"DAY00_GREENxURANAxINVERLEIGH",0.788112941796368,"pqr"
"DAY14_REDxINVERLEIGHxURANA",0.780316489616648,"qrs"
"DAY00_GREENxINVERLEIGHxINVERLEIGH",0.780200074983787,"qrs"
"DAY14_REDxURANAxINVERLEIGH",0.779422472843709,"rs"
"DAY00_MEDIAN_GREENxINVERLEIGHxINVERLEIGH",0.779420598249027,"rs"
"DAY07_MEDIAN_REDxINVERLEIGHxURANA",0.778549119397652,"rst"
"DAY07_GREEN_INDEXxINVERLEIGHxURANA",0.778109646103302,"st"
"DAY14_AUC_REDxINVERLEIGHxINVERLEIGH",0.777864026021401,"st"
"DAY00_AUC_GREENxURANAxINVERLEIGH",0.776825196579118,"st"
"DAY00_MEDIAN_REDxURANAxINVERLEIGH",0.774103842412451,"stu"
"DAY14_MEDIAN_REDxURANAxINVERLEIGH",0.773709974870298,"stu"
"DAY00_REDxURANAxINVERLEIGH",0.771248632052529,"stu"
"DAY00_AUC_GREENxINVERLEIGHxINVERLEIGH",0.770988570038911,"stu"
"DAY07_REDxINVERLEIGHxURANA",0.770588404458349,"stu"
"DAY00_MEDIAN_REDxINVERLEIGHxINVERLEIGH",0.769297026994163,"tuv"
"DAY00_GREEN_FRACTIONxINVERLEIGHxURANA",0.766024239440179,"uvw"
"DAY00_REDxINVERLEIGHxINVERLEIGH",0.764630046206226,"uvw"
"DAY07_AUC_REDxURANAxURANA",0.759541115110108,"vwx"
"DAY07_AUC_REDxINVERLEIGHxURANA",0.757625227666861,"wx"
"DAY14_AUC_REDxURANAxINVERLEIGH",0.753729531452659,"xy"
"DAY14_GREEN_FRACTIONxURANAxURANA",0.745838097271483,"yz"
"DAY14_AREAxINVERLEIGHxURANA",0.745543088949116,"yz"
"DAY07_MEDIAN_REDxURANAxURANA",0.745393395264529,"yz"
"DAY14_AREAxURANAxURANA",0.742739104670112,"zA"
"DAY00_BLUExURANAxURANA",0.742450370802869,"zA"
"DAY00_MEDIAN_BLUExINVERLEIGHxURANA",0.740238037141289,"zAB"
"DAY07_GREEN_FRACTIONxINVERLEIGHxURANA",0.739941656281862,"zAB"
"DAY07_THRESH_RED1xINVERLEIGHxURANA",0.739801962510131,"zAB"
"DAY14_BLUExURANAxURANA",0.73980065533198,"zAB"
"DAY14_MEDIAN_GREENxURANAxURANA",0.739800589973072,"zAB"
"DAY14_AUC_BLUExURANAxURANA",0.739799805666182,"zAB"
"DAY14_AUC_GREENxINVERLEIGHxURANA",0.739799544230551,"zAB"
"DAY14_GREENxINVERLEIGHxURANA",0.739799217436014,"zAB"
"DAY00_AREAxINVERLEIGHxURANA",0.739799086718198,"zAB"
"DAY00_AREAxURANAxURANA",0.739798825282568,"zAB"
"DAY00_AUC_BLUExURANAxURANA",0.739798825282568,"zAB"
"DAY14_MEDIAN_GREENxINVERLEIGHxURANA",0.739798759923661,"zAB"
"DAY14_THRESH_GREEN1xURANAxURANA",0.739798367770215,"zAB"
"DAY14_THRESH_RED1xINVERLEIGHxURANA",0.739798040975678,"zAB"
"DAY07_MEDIAN_BLUExURANAxURANA",0.739797910257863,"zAB"
"DAY00_AUC_BLUExINVERLEIGHxURANA",0.739797844898955,"zAB"
"DAY07_THRESH_RED1xURANAxURANA",0.739797779540048,"zAB"
"DAY14_AUC_GREENxURANAxURANA",0.739797648822233,"zAB"
"DAY07_BLUExINVERLEIGHxURANA",0.739797518104417,"zAB"
"DAY00_MEDIAN_BLUExURANAxURANA",0.73979745274551,"zAB"
"DAY14_BLUExINVERLEIGHxURANA",0.739797256668787,"zAB"
"DAY14_THRESH_GREEN2xINVERLEIGHxURANA",0.739796929874249,"zAB"
"DAY07_GREEN_FRACTIONxURANAxURANA",0.739796799156434,"zAB"
"DAY07_AUC_BLUExINVERLEIGHxURANA",0.739796407002989,"zAB"
"DAY14_GREENxURANAxURANA",0.739796407002989,"zAB"
"DAY14_MEDIAN_BLUExINVERLEIGHxURANA",0.739795688055006,"zAB"
"DAY14_THRESH_GREEN1xINVERLEIGHxURANA",0.739795688055006,"zAB"
"DAY14_MEDIAN_BLUExURANAxURANA",0.739795295901561,"zAB"
"DAY00_THRESH_RED1xURANAxURANA",0.739795230542653,"zAB"
"DAY07_BLUExURANAxURANA",0.739795099824838,"zAB"
"DAY07_GREEN_INDEXxURANAxURANA",0.739794642312485,"zAB"
"DAY14_THRESH_RED1xURANAxURANA",0.739794380876855,"zAB"
"DAY07_AREAxURANAxURANA",0.739793531211057,"zAB"
"DAY07_MEDIAN_BLUExINVERLEIGHxURANA",0.739793465852149,"zAB"
"DAY00_THRESH_RED1xINVERLEIGHxURANA",0.739793335134334,"zAB"
"DAY07_AREAxINVERLEIGHxURANA",0.739793335134334,"zAB"
"DAY07_AUC_BLUExURANAxURANA",0.739793335134334,"zAB"
"DAY14_THRESH_GREEN2xURANAxURANA",0.739647366907478,"zABC"
"DAY14_AUC_BLUExINVERLEIGHxURANA",0.739496627480371,"zABC"
"DAY00_BLUExINVERLEIGHxURANA",0.739357914092252,"zABC"
"DAY00_AUC_REDxURANAxINVERLEIGH",0.739328439121271,"zABC"
"DAY07_REDxURANAxURANA",0.737439673728334,"zABCD"
"DAY00_AUC_REDxINVERLEIGHxINVERLEIGH",0.737250628242542,"zABCD"
"DAY14_GREEN_FRACTIONxINVERLEIGHxURANA",0.736704473163633,"zABCD"
"DAY14_MEDIAN_REDxINVERLEIGHxINVERLEIGH",0.734915896562905,"ABCD"
"DAY07_THRESH_GREEN1xURANAxURANA",0.734645754721092,"ABCD"
"DAY07_AUC_GREENxURANAxURANA",0.734640983520841,"ABCD"
"DAY07_GREENxURANAxURANA",0.734640068496135,"ABCD"
"DAY07_MEDIAN_GREENxURANAxURANA",0.734639610983782,"ABCD"
"DAY07_THRESH_GREEN1xINVERLEIGHxURANA",0.733900684961351,"ABCD"
"DAY07_AUC_GREENxINVERLEIGHxURANA",0.733752886685083,"ABCD"
"DAY07_GREENxINVERLEIGHxURANA",0.732431002779932,"BCDE"
"DAY07_MEDIAN_GREENxINVERLEIGHxURANA",0.731101014370245,"BCDE"
"DAY00_GREEN_INDEXxURANAxINVERLEIGH",0.729858493433852,"CDEF"
"DAY14_REDxINVERLEIGHxINVERLEIGH",0.727777845330739,"DEF"
"DAY00_GREEN_FRACTIONxURANAxINVERLEIGH",0.722977261673152,"EF"
"DAY00_GREEN_INDEXxINVERLEIGHxINVERLEIGH",0.720382467979896,"F"
"DAY07_MEDIAN_REDxINVERLEIGHxINVERLEIGH",0.710393766212711,"G"
"DAY07_REDxINVERLEIGHxINVERLEIGH",0.709095888051232,"G"
"DAY00_GREEN_FRACTIONxINVERLEIGHxINVERLEIGH",0.708446113002594,"G"
"DAY07_GREEN_INDEXxINVERLEIGHxINVERLEIGH",0.702478720817121,"G"
"DAY07_MEDIAN_REDxURANAxINVERLEIGH",0.686519080333982,"H"
"DAY14_AREAxINVERLEIGHxINVERLEIGH",0.686387808041505,"H"
"DAY14_AREAxURANAxINVERLEIGH",0.685739806258106,"H"
"DAY07_AUC_REDxURANAxINVERLEIGH",0.684830779831388,"HI"
"DAY07_AUC_REDxINVERLEIGHxINVERLEIGH",0.684183335359922,"HIJ"
"DAY14_GREEN_FRACTIONxINVERLEIGHxINVERLEIGH",0.682753374270428,"HIJK"
"DAY07_REDxURANAxINVERLEIGH",0.678995521238651,"HIJKL"
"DAY14_GREEN_FRACTIONxURANAxINVERLEIGH",0.678861462386511,"HIJKL"
"DAY00_BLUExINVERLEIGHxINVERLEIGH",0.677957755755512,"HIJKL"
"DAY00_BLUExURANAxINVERLEIGH",0.677828155398833,"HIJKL"
"DAY07_MEDIAN_GREENxINVERLEIGHxINVERLEIGH",0.675492461089494,"IJKL"
"DAY00_MEDIAN_BLUExINVERLEIGHxINVERLEIGH",0.675488154588197,"IJKL"
"DAY00_MEDIAN_BLUExURANAxINVERLEIGH",0.674839494163424,"JKL"
"DAY14_GREENxINVERLEIGHxINVERLEIGH",0.674586170557717,"JKL"
"DAY07_THRESH_RED1xINVERLEIGHxINVERLEIGH",0.674585258592737,"JKL"
"DAY14_THRESH_GREEN1xURANAxINVERLEIGH",0.674584042639429,"JKL"
"DAY14_THRESH_GREEN2xURANAxINVERLEIGH",0.674584042639429,"JKL"
"DAY14_MEDIAN_BLUExURANAxINVERLEIGH",0.674583890645266,"JKL"
"DAY00_AREAxINVERLEIGHxINVERLEIGH",0.674583080009728,"JKL"
"DAY14_BLUExURANAxINVERLEIGH",0.674583029345006,"JKL"
"DAY14_GREENxURANAxINVERLEIGH",0.674583029345006,"JKL"
"DAY00_THRESH_RED1xINVERLEIGHxINVERLEIGH",0.674582624027237,"JKL"
"DAY14_MEDIAN_GREENxINVERLEIGHxINVERLEIGH",0.674582624027237,"JKL"
"DAY00_AUC_BLUExURANAxINVERLEIGH",0.674582573362516,"JKL"
"DAY07_AREAxINVERLEIGHxINVERLEIGH",0.674582522697795,"JKL"
"DAY00_AREAxURANAxINVERLEIGH",0.674582117380026,"JKL"
"DAY07_BLUExURANAxINVERLEIGH",0.67458186405642,"JKL"
"DAY00_THRESH_RED1xURANAxINVERLEIGH",0.674581813391699,"JKL"
"DAY14_AUC_BLUExURANAxINVERLEIGH",0.674581813391699,"JKL"
"DAY14_BLUExINVERLEIGHxINVERLEIGH",0.674581205415045,"JKL"
"DAY07_MEDIAN_BLUExURANAxINVERLEIGH",0.674581053420882,"JKL"
"DAY14_THRESH_RED1xURANAxINVERLEIGH",0.674580901426719,"JKL"
"DAY14_AUC_GREENxINVERLEIGHxINVERLEIGH",0.674580648103113,"JKL"
"DAY14_AUC_GREENxURANAxINVERLEIGH",0.674580546773671,"JKL"
"DAY07_AUC_BLUExINVERLEIGHxINVERLEIGH",0.674580445444228,"JKL"
"DAY07_GREEN_INDEXxURANAxINVERLEIGH",0.674580445444228,"JKL"
"DAY14_MEDIAN_BLUExINVERLEIGHxINVERLEIGH",0.674580394779507,"JKL"
"DAY07_THRESH_RED1xURANAxINVERLEIGH",0.674580192120623,"JKL"
"DAY00_AUC_BLUExINVERLEIGHxINVERLEIGH",0.674579989461738,"JKL"
"DAY07_GREEN_FRACTIONxURANAxINVERLEIGH",0.674579584143969,"JKL"
"DAY14_THRESH_RED1xINVERLEIGHxINVERLEIGH",0.674579533479248,"JKL"
"DAY14_AUC_BLUExINVERLEIGHxINVERLEIGH",0.674579482814527,"JKL"
"DAY07_AUC_BLUExURANAxINVERLEIGH",0.674579330820363,"JKL"
"DAY07_MEDIAN_BLUExINVERLEIGHxINVERLEIGH",0.674578976167315,"JKL"
"DAY07_AREAxURANAxINVERLEIGH",0.674578722843709,"JKL"
"DAY14_MEDIAN_GREENxURANAxINVERLEIGH",0.674578621514267,"JKL"
"DAY07_BLUExINVERLEIGHxINVERLEIGH",0.674578165531777,"JKL"
"DAY07_GREEN_FRACTIONxINVERLEIGHxINVERLEIGH",0.674577962872892,"JKL"
"DAY14_THRESH_GREEN1xINVERLEIGHxINVERLEIGH",0.674577050907912,"JKL"
"DAY14_THRESH_GREEN2xINVERLEIGHxINVERLEIGH",0.674450541099222,"JKL"
"DAY07_AUC_GREENxURANAxINVERLEIGH",0.67380461656939,"KL"
"DAY07_GREENxURANAxINVERLEIGH",0.673803299286641,"KL"
"DAY07_THRESH_GREEN1xURANAxINVERLEIGH",0.673803197957198,"KL"
"DAY07_MEDIAN_GREENxURANAxINVERLEIGH",0.673802995298314,"KL"
"DAY07_GREENxINVERLEIGHxINVERLEIGH",0.673540450713359,"KL"
"DAY07_AUC_GREENxINVERLEIGHxINVERLEIGH",0.673156716115434,"KL"
"DAY07_THRESH_GREEN1xINVERLEIGHxINVERLEIGH",0.67276811770428,"L"
