"","SULFO","TERBU","GLYPH","TRIFL","SULFO","TERBU","GLYPH","TRIFL"
"SULFO",1,0.0662259081868883,0.0823778084518654,-0.0904449625897099,0,0.262614318177801,0.163230427275929,0.125678754339848
"TERBU",0.0662259081868883,1,0.0265216893516452,-0.00904214308002634,0.262614318177801,0,0.654002058451926,0.878567015442321
"GLYPH",0.0823778084518654,0.0265216893516452,1,-0.0134794929311745,0.163230427275929,0.654002058451926,0,0.819824986000914
"TRIFL",-0.0904449625897099,-0.00904214308002634,-0.0134794929311745,1,0.125678754339848,0.878567015442321,0.819824986000914,0
