"","SULFO","TERBU","GLYPH","TRIFL","SULFO","TERBU","GLYPH","TRIFL"
"SULFO",1,-0.0242946001505846,0.0282149369757985,-0.058895169668255,0,0.670550878267274,0.62126267763986,0.302080177832705
"TERBU",-0.0242946001505846,1,0.20043756892992,-0.0382018904369268,0.670550878267274,0,0.000392413442824556,0.50346319211575
"GLYPH",0.0282149369757985,0.20043756892992,1,-0.0531056603499182,0.62126267763986,0.000392413442824556,0,0.352171464741011
"TRIFL",-0.058895169668255,-0.0382018904369268,-0.0531056603499182,1,0.302080177832705,0.50346319211575,0.352171464741011,0
